Salz	1	914
Zutaten	1	898
Butter	1	274
Wasser	1	1030
Zucker	1	946
Pfeffer	1	966
Eßlöffel	1	1026
Geschmack	1	32
Fleisch	1	819
Minute	0	886
Zitronensaft	1	788
Zwiebel	1	870
Pfanne	1	147
Teelöffel	1	930
Olivenöl	1	889
Petersilie	1	173
Sauce	1	980
Mehl	1	116
Teig	1	190
Gemüse	1	835
Schüssel	1	631
Knoblauch	1	971
geben	1	551
Milliliter	0	214
Gewürz	1	648
Topf	1	259
Tomate	1	196
Kraut	1	241
Paprika	1	260
Sahne	1	305
Schalotte	1	473
Milch	1	1039
Kartoffel	1	546
anbraten	1	119
Fett	1	906
frisch	0	286
lassen	0	526
Thymian	1	1010
aufkochen	1	862
klein	1	619
Scheibe	1	450
abschmecken	1	314
Essig	1	953
verwenden	0	890
Gemüsebrühe	1	957
Brühe	1	1018
Ingwer	1	41
Rezept	1	990
Käse	1	991
Marinade	1	208
Flüssigkeit	0	968
Zimt	1	20
Schnittlauch	1	548
Karotte	1	128
Knoblauchzehe	0	982
Salat	1	634
Teller	1	436
Eigelb	1	921
ablöschen	1	1000
Basilikum	1	506
abtropfen	0	331
Champignon	1	940
Weißwein	1	385
Butterschmalz	1	420
Puderzucker	1	87
Fisch	1	763
Suppe	1	776
Aroma	1	773
Zitrone	1	553
Muskat	1	933
abkühlen	0	669
Reis	1	122
Deckel	1	328
Eiweiß	1	989
Chili	1	150
Vanillezucker	1	372
Saft	1	307
Senf	1	25
Beilage	1	626
Bohne	1	867
Lauch	1	182
Prise	1	697
Speck	1	433
Frucht	1	1056
Möhre	1	177
Backofen	1	891
Zitronenschale	1	194
Mandel	1	103
Stück	1	441
Zubereitung	1	703
Sieb	1	130
Backblech	1	379
Kochen	1	955
aufgießen	1	774
Dill	1	554
abgießen	1	412
Apfel	1	625
Rosmarin	1	627
Margarine	1	974
Auflaufform	1	1002
Glas	1	459
Herstellung	0	743
Ofen	1	392
anschwitzen	1	253
Liter	0	591
Schinken	1	942
Rühren	1	106
Brötchen	1	696
Gelatine	1	1045
andünsten	1	220
Schale	1	179
Variante	0	568
Zucchini	1	633
Kümmel	1	320
Hitze	1	579
Stiel	0	685
Olive	1	327
Tasse	1	932
Obst	1	1023
Durchmesser	0	753
Würfel	1	329
Küche	1	64
Gericht	1	918
Fruchtfleisch	0	466
Parmesan	1	31
Backpulver	1	1001
Temperatur	0	308
Nuß	1	1058
Haut	0	558
Spargel	1	91
Spinat	1	293
Messer	1	709
Haselnuß	1	1
Arbeitsfläche	0	127
Tip	0	414
Servieren	1	325
Füllung	1	934
Blatt	1	484
Backpapier	1	141
Filet	1	244
Beere	1	874
Braten	1	903
Sellerie	1	570
abspülen	0	641
Art	1	1035
auffüllen	1	123
Menge	0	336
Joghurt	1	157
Schneebesen	1	310
Pflanzenöl	1	760
Salzwasser	1	923
Dose	1	638
Honig	1	145
Hackfleisch	1	798
herstellen	0	536
Rosine	1	341
aromatisch	0	602
Pilz	1	578
Tag	0	605
Form	1	338
Gurke	1	687
Geflügel	1	365
Curry	1	402
Jahr	0	36
Aubergine	1	701
fein	1	445
Orangensaft	1	98
abwaschen	0	485
Brot	1	528
Sorte	0	735
Wasserbad	1	26
Erbse	1	70
auskühlen	0	1022
Löffel	1	358
Sauerkraut	1	111
Teil	0	269
Lebensmittel	1	416
Kühlschrank	1	140
Walnuß	1	493
Nelke	1	904
Farbe	0	912
Soße	1	790
Zentimeter	0	133
Masse	1	829
Birne	1	721
Größe	1	686
Rotwein	1	785
Fenchel	1	541
Minze	1	868
Verwendung	0	800
Gabel	1	947
Stengel	0	778
Stunde	0	403
Päckchen	0	398
aufschneiden	1	192
Gramm	0	82
Rindfleisch	1	178
Zimmertemperatur	0	744
Ballaststoff	0	724
Hand	0	833
Vanille	1	818
Knochen	1	987
Kürbis	1	590
Tee	1	893
Wein	1	683
Apfelsaft	1	666
Oberfläche	0	278
Mörser	1	938
Herd	1	266
abtrocknen	0	153
Länge	0	62
Schweinefleisch	1	646
Garnele	1	1017
Kugel	1	887
Rum	1	995
Mitte	0	1046
Hefe	1	728
Alufolie	1	762
Alkohol	1	80
Zugabe	0	168
Zeit	0	79
Boden	1	727
Mischung	0	275
Rübe	1	176
Supermarkt	0	614
Konsistenz	0	40
Wurst	1	519
Mixer	1	425
Same	0	303
Verzehr	0	738
Ende	0	430
Name	0	354
anbieten	0	377
Vitamin	1	361
Creme	1	24
Mineralwasser	1	705
Weißbrot	1	206
Flasche	1	656
Schokolade	1	632
Kuchen	1	884
Kaffee	1	816
Hälfte	0	668
Blech	0	258
Portion	1	594
anschließend	0	236
asiatisch	0	378
Tuch	0	390
Grill	1	667
Ketchup	1	28
Region	0	675
Handel	0	1020
Stange	1	713
Beispiel	0	217
Mulde	0	737
Woche	0	726
gemahlen	0	840
Gefäß	0	895
schneiden	1	560
Schicht	1	549
Säure	0	915
abschneiden	0	547
Orange	1	6
weiß	1	21
Seite	1	807
Eintopf	1	550
Dicke	0	513
Pudding	1	143
kalt	1	146
einfach	0	489
Packung	1	426
Brett	1	250
enthalten	0	262
Getränk	1	711
Dessert	1	68
Monat	0	973
Kakao	1	740
Luft	0	53
Paste	1	238
Schluß	0	1047
Vortag	0	469
Provinz	0	580
heiß	1	965
Knolle	0	706
Sirup	1	592
Meeresfrucht	1	254
Schwein	1	198
Quark	1	411
Mais	1	983
Anteil	0	733
Sherry	0	443
Juli	0	89
auflösen	0	516
Loch	0	369
Himbeere	1	841
Cocktail	1	332
Schärfe	1	295
Farbstoff	0	510
Abkühlen	0	1013
Tropfen	0	224
Ananas	1	200
abdecken	0	355
Bezeichnung	0	247
auffangen	0	78
Fertigprodukt	0	233
rot	1	49
trocken	1	544
Rand	0	432
Zwischenzeit	0	243
Zauberstab	1	282
Regel	0	481
nehmen	1	483
Becher	1	1008
Pflanze	0	460
Vorspeise	1	297
Produkt	0	860
Oktober	0	113
Thunfisch	1	273
April	0	210
Mai	0	877
Bärlauch	1	223
Erdnuß	1	623
angenehm	0	464
Methode	1	129
Tisch	1	731
Kopf	0	948
Juni	0	448
Dampf	0	55
Rücken	1	139
Belieben	0	821
Zutat	1	801
Finger	0	183
September	0	523
Erdbeere	1	8
Blüte	1	530
eignen	1	768
Auflauf	1	608
Bier	1	213
aufweisen	0	218
Aussehen	0	936
Rapsöl	1	334
Alkoholgehalt	1	186
aufbewahren	0	482
November	0	1041
Geruch	1	92
Cholesterin	0	897
Aprikose	1	131
Qualität	0	376
Tier	0	624
Rohr	0	10
Kohlenhydrat	0	864
Rind	1	1061
Frühjahr	0	1004
Winter	1	830
abschrecken	1	529
Bäcker	1	693
grün	1	863
alternativ	0	1019
Schiene	0	905
Feige	1	970
Prozent	0	909
Platte	1	300
Mühle	1	144
Keule	1	59
Rest	0	665
Speise	1	415
Kirsche	1	61
Gerät	0	163
Forelle	1	115
zubereiten	1	1043
Torte	1	824
fertig	1	248
Volumen	0	712
Steak	1	406
alt	0	281
Mikrowelle	1	834
grob	1	487
schwarz	0	1060
Möglichkeit	0	630
Kruste	1	117
Grad	1	583
dünn	0	708
schmecken	1	231
anrichten	1	613
Safran	1	222
Kochtopf	1	676
Fall	0	879
servieren	1	207
Lachs	1	769
Korn	0	521
aufnehmen	0	407
Folie	1	439
Lagerung	0	110
Gegensatz	0	234
aufschlagen	1	239
bestehen	0	352
Nacht	0	956
stellen	1	27
Feuer	0	359
Bestandteil	0	644
Kuhmilch	0	950
Ring	0	902
Mineralstoff	0	246
Garten	0	997
Höhe	0	584
Schweizer	1	34
Mohn	1	941
Huhn	1	892
sehen	0	791
Marmelade	1	463
Körper	0	72
Eiswürfel	1	373
Anfang	0	729
Alter	0	977
Land	0	423
Einsatz	1	806
schnell	1	899
Plätzchen	1	396
ausgelegt	0	100
Hähnchen	1	492
Ernte	0	588
fest	0	552
Unterschied	0	154
Banane	1	5
getrocknet	1	454
füllen	1	66
Bedarf	1	1055
verschieden	0	1014
Zunge	1	963
legen	0	725
Verarbeitung	0	501
Muschel	1	736
Dekoration	0	67
Bratwurst	1	304
zugeben	0	316
Stufe	0	280
warm	1	397
kochen	1	698
abfüllen	0	636
Fruchtsaft	1	888
Spitze	0	609
Grund	0	562
Anmerkung	0	197
abziehen	1	531
Flamme	0	120
würzen	1	447
Gegend	0	148
scharf	1	812
Getreide	1	382
Schnitzel	1	366
Inhaltsstoff	0	134
Gewicht	0	298
Genuß	0	289
Markt	1	954
Leber	1	446
glatt	1	348
Vorteil	0	3
Gastgewerbe	1	754
Spezialität	1	39
aufwendig	0	230
Farce	1	400
süß	1	714
weich	1	301
Gans	1	195
angegeben	0	559
Pasta	1	621
dick	1	65
entfernen	0	969
Alternative	0	321
Wiener	1	19
Innere	0	490
Holz	0	1031
Kern	0	93
Zusatz	0	272
zusätzlich	0	478
Fond	1	655
stark	0	288
Likör	1	371
nennen	0	854
gerieben	1	587
ähnlich	0	368
auslegen	1	498
kräftig	1	470
Ruhezeit	0	978
Bild	0	827
schön	0	444
Beigabe	1	205
dunkel	1	467
Stadt	0	85
Kombination	0	557
Begriff	0	504
Abendessen	1	842
Darm	1	651
Reifung	0	256
Herkunft	0	681
Wunsch	1	169
Kategorie	0	136
Familie	0	431
Wahl	0	347
gehackt	1	540
min	0	795
bringen	0	640
Weise	0	1062
geschnitten	0	876
Ente	1	455
Gebäck	1	405
Bund	1	783
Vorgang	0	1042
Ganze	0	979
Schritt	0	901
Lamm	1	699
Kind	1	151
Vergleich	0	330
Grundlage	0	23
Hauptgericht	1	1044
Grün	1	1037
erhitzen	1	322
roh	1	1021
waschen	0	181
Mensch	0	657
verteilen	0	775
braun	1	674
Variation	0	442
finden	0	527
Jahrhundert	0	434
Hersteller	0	381
entstehen	0	845
Vorbereitung	0	340
Basis	0	386
Gift	0	42
anbauen	0	335
Hilfe	0	453
Liste	0	107
Weiter	0	440
Eigenschaft	0	471
gehören	0	255
Fertigstellung	0	476
Spieß	1	357
ziehen	1	755
Schwierigkeitsgrad	0	878
restlich	0	351
Gast	1	1036
erhältlich	0	764
Schuß	0	937
Vorsicht	0	684
braten	1	702
Stoff	0	401
Hirse	1	847
Kunststoff	0	360
Einlage	1	235
rühren	1	500
Person	0	315
halten	0	499
Wirkung	0	37
Spaghetti	1	121
Welt	0	408
erhalten	0	742
Drittel	0	618
bezeichnen	0	95
Druck	0	789
traditionell	0	364
garen	1	47
aufsteigend	0	779
bilden	0	920
Zweig	1	48
Eis	1	767
Konserve	1	756
Haltbarkeit	1	296
vorsichtig	0	832
dienen	0	180
wichtig	0	317
liegen	0	831
stammen	0	908
halb	1	604
Mark	1	1025
bleiben	0	794
Kühlung	0	265
trocknen	1	770
bekommen	0	350
Belag	1	960
kochend	1	271
gelb	0	391
passen	0	58
Ort	0	17
gebraten	1	518
allgemein	0	859
verarbeiten	0	784
backen	1	682
Sinn	0	30
Klasse	0	913
Rolle	1	375
abgeben	0	138
Preis	0	166
verrühren	1	221
französisch	1	429
Saison	1	172
mittler	0	661
italienisch	0	689
hervorragend	0	900
eventuell	0	758
typisch	0	458
ersatzweise	0	204
Thüringer	1	639
Pfannkuchen	1	161
annehmen	0	739
Hering	1	202
deutsch	0	596
Inhalt	0	399
gelten	0	363
Hinweis	1	885
Wert	0	142
gekocht	1	427
Thema	0	251
ersetzen	0	757
hell	1	56
Quelle	0	993
Würstchen	1	353
mischen	1	418
stehen	0	1029
häufig	0	1057
Zustand	0	749
bestreuen	1	45
Ergebnis	0	108
mild	1	741
Stärke	1	268
hacken	1	312
Gebrauch	0	88
geeignet	0	203
schälen	1	808
Gefahr	0	849
jung	1	650
flüssig	0	695
vermischen	1	1024
mittelgroß	0	673
Kreis	0	1015
Platz	1	572
Auge	1	216
langsam	0	986
flach	0	804
gering	0	313
reichen	1	438
optional	0	514
essen	1	502
besonder	0	165
dazugeben	1	4
Raum	0	747
Schaum	1	720
Bildung	0	77
unterschiedlich	0	277
Kalorie	1	2
Tradition	0	184
zufügen	0	951
gleichmäßig	0	188
Bindung	1	759
halbieren	0	388
Verfasser	0	680
zweit	0	97
vermengen	1	187
Kuh	0	961
ausdrücken	0	374
Viertel	1	12
kcal	0	245
würzig	1	537
Schnee	1	611
köcheln	1	242
Metzger	0	285
Medium	1	573
gießen	1	158
Inhaltsverzeichnis	0	927
geschält	1	671
altbacken	1	620
Aal	1	1063
Pommes	1	292
erreichen	0	149
hart	1	600
Keim	0	449
empfehlen	0	817
spät	1	505
sauer	1	323
zeigen	0	792
hingeben	0	663
beliebt	0	477
ursprünglich	0	1012
echt	0	90
heben	0	159
salzen	1	507
gemischt	0	782
gefüllt	1	15
einlegen	1	155
reduzieren	1	710
heißen	0	988
Metall	0	22
Pizza	1	883
klassisch	0	524
Foto	0	692
vollständig	0	395
setzen	1	114
Autor	0	534
direkt	0	135
Note	0	616
zart	1	907
Haushalt	1	994
unterrühren	1	517
reif	0	99
benutzen	1	781
hochwertig	0	389
formen	1	690
einzeln	0	362
bestreichen	1	294
ideal	0	777
bedecken	0	826
verwandt	0	160
besitzen	0	607
benötigen	0	615
handeln	0	622
schlagen	1	9
gebacken	1	343
zerkleinern	0	311
dünsten	1	43
hinfügen	0	566
Schnecke	1	81
Typ	0	574
schmackhaft	0	191
gewinnen	0	404
verlieren	0	511
voll	0	802
entsprechend	0	349
kaufen	0	679
üblich	0	437
lagern	0	125
knusprig	1	201
übrig	0	124
intensiv	0	71
vorbereiten	0	33
Version	0	126
vorbereitet	1	394
normal	0	515
schwer	0	825
Substanz	0	853
unbehandelt	0	52
folgend	0	171
verhindern	0	452
reiben	0	922
belegen	1	1051
saftig	1	75
deutlich	0	237
lösen	0	337
geröstet	1	844
garnieren	1	751
Achtung	0	809
Wikipedia	0	649
kühl	1	822
gewünscht	0	495
verstehen	0	882
Keks	1	704
unterscheiden	0	637
vorhanden	0	13
Artikel	0	1006
letzt	0	409
würfeln	1	799
Pore	0	653
genießen	1	232
Anleitung	0	287
extra	0	50
wenden	1	545
bieten	0	659
pikant	1	1007
beginnen	0	342
nah	0	837
Wort	0	532
eingelegt	1	810
speziell	1	132
eigentlich	0	823
breit	0	270
einsetzen	1	344
gesamt	0	428
verschließen	0	346
übergießen	0	813
klar	1	60
rösten	1	1009
gründlich	0	1032
entwickeln	0	939
köstlich	1	387
einrühren	1	599
tief	0	465
Trichter	1	488
drücken	0	18
lauwarm	0	715
genau	0	589
hauptsächlich	0	745
umrühren	0	509
bedeuten	0	462
selten	0	240
schmelzen	1	935
verfeinern	1	279
hergestellt	0	14
reifen	0	1059
österreichisch	0	497
geschlossen	0	567
rein	0	94
einweichen	1	345
befreien	0	384
beträufeln	0	771
tragen	0	1040
haltbar	0	654
cremig	1	958
fett	1	881
mahlen	1	576
wachsen	0	1049
nötig	0	896
verzehren	1	555
ausreichend	0	719
zahlreich	0	691
spanisch	0	339
gelegentlich	0	102
fassen	0	996
zudecken	0	16
binden	1	945
Koch	1	848
gepreßt	0	872
verleihen	0	861
bekennen	0	215
ergeben	0	538
goldbraun	1	716
streuen	1	112
variieren	0	228
herzhaft	1	539
relativ	0	856
feucht	0	597
ständig	0	421
ernten	0	796
gewürfelt	1	582
goldgelb	1	410
gegrillt	1	520
wiegen	1	571
gesund	0	185
brauchen	0	999
streichen	1	472
vorwiegend	0	261
erwärmen	0	718
englisch	1	967
bitter	1	598
putzen	1	486
zubereitet	1	419
chinesisch	1	424
unterheben	1	866
schmoren	1	601
herausnehmen	0	595
Auster	1	943
niedrig	0	761
genannt	0	219
mager	1	474
innen	0	422
pressen	1	772
schwach	1	264
vegetarisch	0	786
Kälte	1	635
eiskalt	1	972
neu	1	533
knapp	0	1054
nutzen	0	575
trennen	0	101
pfeffern	1	226
Kloß	1	1033
Galerie	0	54
divers	0	276
belieben	0	318
wesentlich	0	170
führen	0	722
befinden	0	229
erfolgen	0	461
öffnen	1	324
entnehmen	0	952
heimisch	0	717
stecken	1	167
doppelt	0	475
passend	0	1011
fruchtig	0	652
abschöpfen	0	299
Erde	1	86
regional	1	617
verkaufen	0	76
entsprechen	0	227
einfrieren	0	723
einkochen	1	326
salzig	1	456
erzeugen	0	593
streng	0	189
unbedingt	0	542
wirken	1	457
optimal	0	828
teuer	0	748
produzieren	0	1048
ausrollen	1	660
ruhen	0	563
erinnern	0	522
entkernen	0	556
eßbar	0	212
erneut	0	496
ober	1	803
beschreiben	0	193
fließend	0	175
bestehend	0	263
schieben	0	309
weglassen	0	83
kennen	0	730
sauber	0	707
locker	1	700
hinzufügen	0	564
blanchieren	1	535
einreiben	1	561
deftig	0	1050
geschmacklich	0	814
japanisch	0	267
elektrisch	0	642
passieren	1	252
bestäuben	1	985
fehlen	0	73
Licht	0	11
trinken	1	1016
verzichten	0	283
grillen	1	964
frei	0	976
edel	0	1005
günstig	0	931
maximal	0	911
glasig	1	46
quer	0	174
drehen	0	647
kühlen	1	1053
zählen	0	1028
schaumig	1	843
vergessen	0	451
betragen	0	581
ähneln	0	7
rollen	1	96
bestimmt	0	873
vorgeheizt	0	836
hineingeben	0	610
Gänze	0	928
sagen	0	917
pürieren	1	606
industriell	0	367
verquirlen	1	585
schützen	0	491
beachten	0	924
großzügig	0	199
tauchen	0	1003
bereiten	0	998
sanft	0	162
färben	1	417
erkennen	0	1034
hängen	1	209
komplett	0	494
schütteln	0	629
europäisch	0	628
bereitstellen	1	820
früh	0	766
einschneiden	1	1052
pur	0	981
rosa	1	643
sorgen	0	543
mediterran	1	503
griechisch	0	855
überziehen	1	910
durchziehen	1	393
helfen	0	677
vermeiden	0	468
wünschen	1	926
türkisch	0	29
wunderbar	0	839
blau	1	284
teilen	0	670
verbreiten	0	435
schließen	0	857
gewiß	0	603
Verlust	0	38
kneten	1	645
beschichtet	0	569
dauern	0	811
notwendig	0	290
verbrennen	1	380
einfüllen	0	869
indisch	1	479
oval	0	734
stürzen	1	525
wertvoll	0	797
einwickeln	0	850
geschlagen	1	984
äußer	0	949
ausstechen	1	678
schmal	0	156
wälzen	1	962
wickeln	0	257
vorheizen	1	880
einarbeiten	0	508
niederländisch	0	672
sicher	0	225
verwechseln	0	664
dunkelbraun	0	302
gleichzeitig	0	732
geschehen	0	688
erwerben	0	929
untermischen	0	1027
steif	0	765
reinigen	0	925
süßlich	1	815
bunt	0	694
schichten	1	875
auspressen	0	871
säubern	0	919
luftdicht	0	105
zerdrücken	1	118
nebenstehend	0	44
umdrehen	1	137
geschützt	0	992
sorgfältig	0	356
schädlich	0	480
belgisch	0	894
quellen	1	413
schräg	0	851
dicht	0	306
brechen	0	787
leben	0	104
mäßig	0	975
entfalten	0	959
vielseitig	0	69
hellbraun	0	746
geschmeidig	1	752
sparsam	0	74
schwäbisch	0	586
Protein	1	916
entziehen	0	319
herausschneiden	0	291
dämpfen	1	152
wiederholen	0	51
zäh	1	838
erkalten	0	35
resultieren	0	249
bewirken	0	84
riechen	1	780
zupfen	0	793
festlich	1	63
probieren	1	512
mitteln	1	370
beidseitig	0	1038
besorgt	0	383
rasten	0	865
erforderlich	0	944
befestigen	0	858
zügig	0	109
Brie	1	565
Öffnen	1	612
gedämpft	1	846
verbessern	0	333
giftig	0	164
testen	0	577
fördern	0	852
einlagern	0	662
exzellent	1	750
gesundheitsschädlich	0	57
stapeln	0	658
keimen	0	211
dreimonatig	0	805
