Salz	1	914
Zutaten	1	862
Butter	1	238
Wasser	1	340
Zucker	1	60
Pfeffer	1	895
Eßlöffel	1	843
Geschmack	1	561
Fleisch	1	736
Minute	0	344
Zitronensaft	1	332
Zwiebel	1	996
Pfanne	1	984
Teelöffel	1	841
Olivenöl	1	259
Petersilie	1	106
Sauce	1	872
Mehl	1	583
Teig	1	153
Gemüse	1	320
Schüssel	1	324
Knoblauch	1	389
geben	1	713
Milliliter	0	58
Gewürz	1	494
Topf	1	482
Tomate	1	460
Kraut	1	1003
Paprika	1	598
Sahne	1	367
Schalotte	1	464
Milch	1	733
Kartoffel	1	702
anbraten	1	829
Fett	1	187
frisch	0	687
lassen	0	726
Thymian	1	341
aufkochen	1	753
klein	1	836
Scheibe	1	368
abschmecken	1	599
Essig	1	524
verwenden	0	354
Gemüsebrühe	1	1029
Brühe	1	1041
Ingwer	1	64
Rezept	1	67
Käse	1	570
Marinade	1	714
Flüssigkeit	0	501
Zimt	1	515
Schnittlauch	1	560
Karotte	1	1033
Knoblauchzehe	0	630
Salat	1	933
Teller	1	811
Eigelb	1	11
ablöschen	1	121
Basilikum	1	274
abtropfen	0	805
Champignon	1	123
Weißwein	1	195
Butterschmalz	1	870
Puderzucker	1	972
Fisch	1	658
Suppe	1	188
Aroma	1	983
Zitrone	1	247
Muskat	1	759
abkühlen	0	3
Reis	1	607
Deckel	1	1048
Eiweiß	1	671
Chili	1	716
Vanillezucker	1	269
Saft	1	227
Senf	1	400
Beilage	1	10
Bohne	1	1007
Lauch	1	128
Prise	1	900
Speck	1	235
Frucht	1	32
Möhre	1	832
Backofen	1	970
Zitronenschale	1	199
Mandel	1	799
Stück	1	170
Zubereitung	1	254
Sieb	1	323
Backblech	1	939
Kochen	1	1051
aufgießen	1	822
Dill	1	9
abgießen	1	4
Apfel	1	530
Rosmarin	1	896
Margarine	1	855
Auflaufform	1	735
Glas	1	376
Herstellung	0	1058
Ofen	1	207
anschwitzen	1	711
Liter	0	5
Schinken	1	816
Rühren	1	871
Brötchen	1	706
Gelatine	1	743
andünsten	1	809
Schale	1	16
Variante	0	889
Zucchini	1	868
Kümmel	1	516
Hitze	1	130
Stiel	0	112
Olive	1	116
Tasse	1	318
Obst	1	179
Durchmesser	0	297
Würfel	1	643
Küche	1	693
Gericht	1	125
Fruchtfleisch	0	546
Parmesan	1	55
Backpulver	1	966
Temperatur	0	767
Nuß	1	301
Haut	0	119
Spargel	1	587
Spinat	1	114
Messer	1	166
Haselnuß	1	370
Arbeitsfläche	0	289
Tip	0	703
Servieren	1	405
Füllung	1	349
Blatt	1	748
Backpapier	1	634
Filet	1	1050
Beere	1	833
Braten	1	371
Sellerie	1	43
abspülen	0	31
Art	1	825
auffüllen	1	651
Menge	0	675
Joghurt	1	38
Schneebesen	1	1006
Pflanzenöl	1	963
Salzwasser	1	401
Dose	1	310
Honig	1	525
Hackfleisch	1	678
herstellen	0	527
Rosine	1	746
aromatisch	0	1034
Pilz	1	379
Tag	0	1026
Form	1	927
Gurke	1	739
Geflügel	1	197
Curry	1	241
Jahr	0	589
Aubergine	1	631
fein	1	466
Orangensaft	1	619
abwaschen	0	212
Brot	1	309
Sorte	0	246
Wasserbad	1	1005
Erbse	1	487
auskühlen	0	37
Löffel	1	850
Sauerkraut	1	70
Teil	0	316
Lebensmittel	1	543
Kühlschrank	1	750
Walnuß	1	14
Nelke	1	795
Farbe	0	654
Soße	1	586
Zentimeter	0	390
Masse	1	708
Birne	1	940
Größe	1	412
Rotwein	1	719
Fenchel	1	974
Minze	1	522
Verwendung	0	899
Gabel	1	1040
Stengel	0	890
Stunde	0	640
Päckchen	0	410
aufschneiden	1	819
Gramm	0	929
Rindfleisch	1	512
Zimmertemperatur	0	1037
Ballaststoff	0	250
Hand	0	610
Vanille	1	637
Knochen	1	384
Kürbis	1	348
Tee	1	248
Wein	1	347
Apfelsaft	1	392
Oberfläche	0	39
Mörser	1	182
Herd	1	568
abtrocknen	0	532
Länge	0	681
Schweinefleisch	1	337
Garnele	1	361
Kugel	1	778
Rum	1	305
Mitte	0	231
Hefe	1	965
Alufolie	1	988
Alkohol	1	262
Zugabe	0	383
Zeit	0	215
Boden	1	722
Mischung	0	575
Rübe	1	163
Supermarkt	0	1024
Konsistenz	0	172
Wurst	1	380
Mixer	1	1043
Same	0	378
Verzehr	0	902
Ende	0	181
Name	0	752
anbieten	0	388
Vitamin	1	958
Creme	1	650
Mineralwasser	1	362
Weißbrot	1	605
Flasche	1	835
Schokolade	1	536
Kuchen	1	848
Kaffee	1	580
Hälfte	0	696
Blech	0	783
Portion	1	438
anschließend	0	470
asiatisch	0	664
Tuch	0	776
Grill	1	395
Ketchup	1	157
Region	0	880
Handel	0	571
Stange	1	437
Beispiel	0	229
Mulde	0	117
Woche	0	992
gemahlen	0	7
Gefäß	0	278
schneiden	1	8
Schicht	1	22
Säure	0	511
abschneiden	0	876
Orange	1	446
weiß	1	962
Seite	1	567
Eintopf	1	782
Dicke	0	57
Pudding	1	976
kalt	1	878
einfach	0	1056
Packung	1	83
Brett	1	593
enthalten	0	386
Getränk	1	156
Dessert	1	647
Monat	0	810
Kakao	1	918
Luft	0	950
Paste	1	79
Schluß	0	184
Vortag	0	285
Provinz	0	373
heiß	1	806
Knolle	0	472
Sirup	1	265
Meeresfrucht	1	975
Schwein	1	214
Quark	1	160
Mais	1	102
Anteil	0	217
Sherry	0	590
Juli	0	1038
auflösen	0	204
Loch	0	148
Himbeere	1	44
Cocktail	1	97
Schärfe	1	744
Farbstoff	0	155
Abkühlen	0	539
Tropfen	0	42
Ananas	1	838
abdecken	0	478
Bezeichnung	0	303
auffangen	0	747
Fertigprodukt	0	628
rot	1	176
trocken	1	578
Rand	0	200
Zwischenzeit	0	87
Zauberstab	1	892
Regel	0	821
nehmen	1	910
Becher	1	849
Pflanze	0	63
Vorspeise	1	851
Produkt	0	633
Oktober	0	689
Thunfisch	1	704
April	0	928
Mai	0	189
Bärlauch	1	286
Erdnuß	1	71
angenehm	0	935
Methode	1	28
Tisch	1	830
Kopf	0	433
Juni	0	218
Dampf	0	136
Rücken	1	223
Belieben	0	15
Zutat	1	326
Finger	0	742
September	0	186
Erdbeere	1	315
Blüte	1	891
eignen	1	222
Auflauf	1	221
Bier	1	508
aufweisen	0	721
Aussehen	0	463
Rapsöl	1	534
Alkoholgehalt	1	941
aufbewahren	0	540
November	0	375
Geruch	1	434
Cholesterin	0	360
Aprikose	1	101
Qualität	0	306
Tier	0	663
Rohr	0	421
Kohlenhydrat	0	709
Rind	1	1049
Frühjahr	0	666
Winter	1	672
abschrecken	1	279
Bäcker	1	944
grün	1	21
alternativ	0	1047
Schiene	0	793
Feige	1	489
Prozent	0	921
Platte	1	777
Mühle	1	426
Keule	1	94
Rest	0	372
Speise	1	792
Kirsche	1	465
Gerät	0	875
Forelle	1	858
zubereiten	1	677
Torte	1	758
fertig	1	915
Volumen	0	291
Steak	1	49
alt	0	391
Mikrowelle	1	993
grob	1	959
schwarz	0	845
Möglichkeit	0	411
Kruste	1	898
Grad	1	317
dünn	0	40
schmecken	1	592
anrichten	1	953
Safran	1	52
Kochtopf	1	549
Fall	0	968
servieren	1	893
Lachs	1	551
Korn	0	244
aufnehmen	0	336
Folie	1	749
Lagerung	0	505
Gegensatz	0	503
aufschlagen	1	331
bestehen	0	509
Nacht	0	1016
stellen	1	1015
Feuer	0	158
Bestandteil	0	695
Kuhmilch	0	416
Ring	0	402
Mineralstoff	0	1055
Garten	0	159
Höhe	0	881
Schweizer	1	701
Mohn	1	723
Huhn	1	294
sehen	0	295
Marmelade	1	837
Körper	0	884
Eiswürfel	1	328
Anfang	0	480
Alter	0	1002
Land	0	216
Einsatz	1	919
schnell	1	151
Plätzchen	1	786
ausgelegt	0	788
Hähnchen	1	781
Ernte	0	496
fest	0	823
Unterschied	0	1032
Banane	1	191
getrocknet	1	1009
füllen	1	770
Bedarf	1	356
verschieden	0	393
Zunge	1	406
legen	0	620
Verarbeitung	0	697
Muschel	1	346
Dekoration	0	443
Bratwurst	1	165
zugeben	0	467
Stufe	0	100
warm	1	514
kochen	1	882
abfüllen	0	673
Fruchtsaft	1	273
Spitze	0	308
Grund	0	638
Anmerkung	0	652
abziehen	1	270
Flamme	0	1053
würzen	1	990
Gegend	0	81
scharf	1	1022
Getreide	1	1062
Schnitzel	1	655
Inhaltsstoff	0	61
Gewicht	0	34
Genuß	0	572
Markt	1	190
Leber	1	115
glatt	1	237
Vorteil	0	339
Gastgewerbe	1	124
Spezialität	1	272
aufwendig	0	558
Farce	1	236
süß	1	737
weich	1	493
Gans	1	62
angegeben	0	226
Pasta	1	820
dick	1	164
entfernen	0	773
Alternative	0	174
Wiener	1	798
Innere	0	171
Holz	0	625
Kern	0	787
Zusatz	0	869
zusätzlich	0	457
Fond	1	653
stark	0	288
Likör	1	731
nennen	0	846
gerieben	1	553
ähnlich	0	228
auslegen	1	366
kräftig	1	307
Ruhezeit	0	78
Bild	0	839
schön	0	1036
Beigabe	1	413
dunkel	1	913
Stadt	0	854
Kombination	0	420
Begriff	0	424
Abendessen	1	828
Darm	1	772
Reifung	0	109
Herkunft	0	292
Wunsch	1	519
Kategorie	0	665
Familie	0	161
Wahl	0	225
gehackt	1	785
min	0	989
bringen	0	584
Weise	0	1046
geschnitten	0	754
Ente	1	73
Gebäck	1	90
Bund	1	808
Vorgang	0	538
Ganze	0	863
Schritt	0	557
Lamm	1	526
Kind	1	946
Vergleich	0	556
Grundlage	0	932
Hauptgericht	1	240
Grün	1	641
erhitzen	1	629
roh	1	600
waschen	0	981
Mensch	0	486
verteilen	0	907
braun	1	135
Variation	0	408
finden	0	740
Jahrhundert	0	1019
Hersteller	0	804
entstehen	0	84
Vorbereitung	0	1061
Basis	0	436
Gift	0	455
anbauen	0	550
Hilfe	0	563
Liste	0	93
Weiter	0	646
Eigenschaft	0	506
gehören	0	682
Fertigstellung	0	775
Spieß	1	669
ziehen	1	103
Schwierigkeitsgrad	0	995
restlich	0	1014
Gast	1	529
erhältlich	0	19
Schuß	0	206
Vorsicht	0	335
braten	1	36
Stoff	0	994
Hirse	1	475
Kunststoff	0	755
Einlage	1	1042
rühren	1	183
Person	0	1035
halten	0	616
Wirkung	0	468
Spaghetti	1	76
Welt	0	844
erhalten	0	169
Drittel	0	627
bezeichnen	0	1017
Druck	0	343
traditionell	0	518
garen	1	734
aufsteigend	0	826
bilden	0	614
Zweig	1	604
Eis	1	138
Konserve	1	255
Haltbarkeit	1	842
vorsichtig	0	194
dienen	0	520
wichtig	0	277
liegen	0	998
stammen	0	444
halb	1	345
Mark	1	143
bleiben	0	456
Kühlung	0	86
trocknen	1	945
bekommen	0	481
Belag	1	542
kochend	1	667
gelb	0	1021
passen	0	152
Ort	0	707
gebraten	1	717
allgemein	0	178
verarbeiten	0	582
backen	1	999
Sinn	0	452
Klasse	0	879
Rolle	1	780
abgeben	0	329
Preis	0	462
verrühren	1	177
französisch	1	912
Saison	1	299
mittler	0	544
italienisch	0	961
hervorragend	0	242
eventuell	0	906
typisch	0	233
ersatzweise	0	51
Thüringer	1	920
Pfannkuchen	1	796
annehmen	0	245
Hering	1	1044
deutsch	0	419
Inhalt	0	69
gelten	0	122
Hinweis	1	192
Wert	0	53
gekocht	1	479
Thema	0	284
ersetzen	0	18
hell	1	925
Quelle	0	353
Würstchen	1	275
mischen	1	149
stehen	0	579
häufig	0	729
Zustand	0	662
bestreuen	1	1010
Ergebnis	0	492
mild	1	969
Stärke	1	1
hacken	1	75
Gebrauch	0	30
geeignet	0	454
schälen	1	111
Gefahr	0	861
jung	1	612
flüssig	0	980
vermischen	1	369
mittelgroß	0	180
Kreis	0	686
Platz	1	312
Auge	1	377
langsam	0	977
flach	0	13
gering	0	145
reichen	1	698
optional	0	812
essen	1	313
besonder	0	363
dazugeben	1	824
Raum	0	765
Schaum	1	374
Bildung	0	596
unterschiedlich	0	1027
Kalorie	1	365
Tradition	0	642
zufügen	0	982
gleichmäßig	0	818
Bindung	1	351
halbieren	0	26
Verfasser	0	205
zweit	0	261
vermengen	1	814
Kuh	0	417
ausdrücken	0	415
Viertel	1	756
kcal	0	210
würzig	1	1025
Schnee	1	167
köcheln	1	201
Metzger	0	720
Medium	1	588
gießen	1	931
Inhaltsverzeichnis	0	867
geschält	1	803
altbacken	1	208
Aal	1	761
Pommes	1	488
erreichen	0	12
hart	1	1030
Keim	0	903
empfehlen	0	327
spät	1	997
sauer	1	784
zeigen	0	118
hingeben	0	763
beliebt	0	924
ursprünglich	0	439
echt	0	894
heben	0	623
salzen	1	684
gemischt	0	473
gefüllt	1	17
einlegen	1	381
reduzieren	1	728
heißen	0	1011
Metall	0	429
Pizza	1	574
klassisch	0	264
Foto	0	566
vollständig	0	789
setzen	1	500
Autor	0	718
direkt	0	304
Note	0	451
zart	1	507
Haushalt	1	399
unterrühren	1	888
reif	0	591
benutzen	1	853
hochwertig	0	430
formen	1	680
einzeln	0	258
bestreichen	1	108
ideal	0	168
bedecken	0	513
verwandt	0	938
besitzen	0	224
benötigen	0	656
handeln	0	715
schlagen	1	668
gebacken	1	290
zerkleinern	0	952
dünsten	1	1028
hinfügen	0	645
Schnecke	1	774
Typ	0	281
schmackhaft	0	298
gewinnen	0	817
verlieren	0	973
voll	0	296
entsprechend	0	74
kaufen	0	692
üblich	0	95
lagern	0	137
knusprig	1	621
übrig	0	649
intensiv	0	453
vorbereiten	0	951
Version	0	727
vorbereitet	1	41
normal	0	132
schwer	0	85
Substanz	0	954
unbehandelt	0	790
folgend	0	300
verhindern	0	800
reiben	0	964
belegen	1	685
saftig	1	886
deutlich	0	622
lösen	0	573
geröstet	1	611
garnieren	1	609
Achtung	0	382
Wikipedia	0	802
kühl	1	901
gewünscht	0	80
verstehen	0	48
Keks	1	484
unterscheiden	0	107
vorhanden	0	213
Artikel	0	271
letzt	0	104
würfeln	1	1012
Pore	0	565
genießen	1	46
Anleitung	0	840
extra	0	497
wenden	1	504
bieten	0	847
pikant	1	319
beginnen	0	766
nah	0	440
Wort	0	251
eingelegt	1	203
speziell	1	99
eigentlich	0	398
breit	0	926
einsetzen	1	615
gesamt	0	986
verschließen	0	517
übergießen	0	794
klar	1	897
rösten	1	302
gründlich	0	502
entwickeln	0	6
köstlich	1	65
einrühren	1	613
tief	0	33
Trichter	1	618
drücken	0	936
lauwarm	0	1059
genau	0	314
hauptsächlich	0	260
umrühren	0	510
bedeuten	0	730
selten	0	827
schmelzen	1	635
verfeinern	1	68
hergestellt	0	185
reifen	0	545
österreichisch	0	657
geschlossen	0	923
rein	0	603
einweichen	1	252
befreien	0	624
beträufeln	0	577
tragen	0	626
haltbar	0	533
cremig	1	531
fett	1	724
mahlen	1	688
wachsen	0	499
nötig	0	239
verzehren	1	1018
ausreichend	0	690
zahlreich	0	764
spanisch	0	956
gelegentlich	0	441
fassen	0	196
zudecken	0	91
binden	1	595
Koch	1	476
gepreßt	0	905
verleihen	0	256
bekennen	0	127
ergeben	0	771
goldbraun	1	458
streuen	1	82
variieren	0	126
herzhaft	1	769
relativ	0	1013
feucht	0	209
ständig	0	202
ernten	0	193
gewürfelt	1	725
goldgelb	1	387
gegrillt	1	490
wiegen	1	283
gesund	0	266
brauchen	0	694
streichen	1	485
vorwiegend	0	59
erwärmen	0	873
englisch	1	639
bitter	1	916
putzen	1	632
zubereitet	1	676
chinesisch	1	483
unterheben	1	276
schmoren	1	77
herausnehmen	0	768
Auster	1	198
niedrig	0	860
genannt	0	738
mager	1	1060
innen	0	140
pressen	1	72
schwach	1	705
vegetarisch	0	442
Kälte	1	554
eiskalt	1	710
neu	1	66
knapp	0	537
nutzen	0	601
trennen	0	129
pfeffern	1	477
Kloß	1	397
Galerie	0	934
divers	0	1057
belieben	0	1000
wesentlich	0	581
führen	0	699
befinden	0	249
erfolgen	0	807
öffnen	1	154
entnehmen	0	606
heimisch	0	559
stecken	1	342
doppelt	0	471
passend	0	885
fruchtig	0	562
abschöpfen	0	576
Erde	1	243
regional	1	859
verkaufen	0	29
entsprechen	0	608
einfrieren	0	521
einkochen	1	1020
salzig	1	528
erzeugen	0	815
streng	0	541
unbedingt	0	864
wirken	1	47
optimal	0	385
teuer	0	712
produzieren	0	1001
ausrollen	1	445
ruhen	0	358
erinnern	0	679
entkernen	0	908
eßbar	0	56
erneut	0	834
ober	1	1031
beschreiben	0	232
fließend	0	418
bestehend	0	268
schieben	0	779
weglassen	0	350
kennen	0	797
sauber	0	979
locker	1	120
hinzufügen	0	396
blanchieren	1	911
einreiben	1	751
deftig	0	866
geschmacklich	0	435
japanisch	0	659
elektrisch	0	960
passieren	1	311
bestäuben	1	1052
fehlen	0	287
Licht	0	957
trinken	1	330
verzichten	0	459
grillen	1	602
frei	0	338
edel	0	422
günstig	0	139
maximal	0	89
glasig	1	548
quer	0	991
drehen	0	425
kühlen	1	267
zählen	0	96
schaumig	1	162
vergessen	0	257
betragen	0	555
ähneln	0	856
rollen	1	971
bestimmt	0	648
vorgeheizt	0	922
hineingeben	0	431
Gänze	0	333
sagen	0	432
pürieren	1	142
industriell	0	394
verquirlen	1	469
schützen	0	813
beachten	0	597
großzügig	0	523
tauchen	0	474
bereiten	0	461
sanft	0	423
färben	1	585
erkennen	0	144
hängen	1	409
komplett	0	801
schütteln	0	50
europäisch	0	547
bereitstellen	1	428
früh	0	617
einschneiden	1	947
pur	0	23
rosa	1	355
sorgen	0	92
mediterran	1	280
griechisch	0	141
überziehen	1	147
durchziehen	1	407
helfen	0	909
vermeiden	0	113
wünschen	1	357
türkisch	0	131
wunderbar	0	874
blau	1	498
teilen	0	173
verbreiten	0	230
schließen	0	949
gewiß	0	683
Verlust	0	732
kneten	1	491
beschichtet	0	450
dauern	0	282
notwendig	0	791
verbrennen	1	219
einfüllen	0	1023
indisch	1	495
oval	0	1008
stürzen	1	661
wertvoll	0	449
einwickeln	0	745
geschlagen	1	447
äußer	0	364
ausstechen	1	404
schmal	0	133
wälzen	1	220
wickeln	0	105
vorheizen	1	322
einarbeiten	0	359
niederländisch	0	88
sicher	0	760
verwechseln	0	211
dunkelbraun	0	691
gleichzeitig	0	535
geschehen	0	427
erwerben	0	594
untermischen	0	150
steif	0	253
reinigen	0	904
süßlich	1	321
bunt	0	644
schichten	1	54
auspressen	0	883
säubern	0	978
luftdicht	0	700
zerdrücken	1	1045
nebenstehend	0	552
umdrehen	1	942
geschützt	0	741
sorgfältig	0	937
schädlich	0	985
belgisch	0	234
quellen	1	1054
schräg	0	45
dicht	0	403
brechen	0	757
leben	0	146
mäßig	0	134
entfalten	0	1004
vielseitig	0	175
hellbraun	0	674
geschmeidig	1	987
sparsam	0	930
schwäbisch	0	857
Protein	1	35
entziehen	0	263
herausschneiden	0	636
dämpfen	1	660
wiederholen	0	887
zäh	1	564
erkalten	0	917
resultieren	0	110
bewirken	0	670
riechen	1	414
zupfen	0	877
festlich	1	20
probieren	1	27
mitteln	1	943
beidseitig	0	762
besorgt	0	948
rasten	0	325
erforderlich	0	25
befestigen	0	1063
zügig	0	865
Brie	1	448
Öffnen	1	831
gedämpft	1	334
verbessern	0	967
giftig	0	352
testen	0	1039
fördern	0	852
einlagern	0	24
exzellent	1	2
gesundheitsschädlich	0	293
stapeln	0	569
keimen	0	955
dreimonatig	0	98
