frisch	0	101
Eßlöffel	1	448
Salz	1	347
geben	1	762
lassen	0	625
Zutaten	1	674
Wasser	1	403
klein	1	955
Minute	0	1043
verwenden	0	418
Geschmack	1	88
Zucker	1	620
Butter	1	156
Teig	1	692
Teelöffel	1	622
Fleisch	1	773
Käse	1	318
herstellen	0	268
fein	1	311
Pfeffer	1	293
Schneebesen	1	940
Pfanne	1	175
Topf	1	675
schneiden	1	37
Sauce	1	407
Milliliter	0	1033
gemahlen	0	240
Küche	1	435
Schüssel	1	933
Gericht	1	139
Mehl	1	159
Rezept	1	109
Fett	1	897
kalt	1	1048
Kartoffel	1	187
Gemüse	1	784
Milch	1	794
heiß	1	1027
rot	1	987
Form	1	68
Fisch	1	310
enthalten	0	751
Scheibe	1	452
einfach	0	5
Frucht	1	97
Olivenöl	1	700
Gewürz	1	359
trocken	1	341
Stück	1	172
Glas	1	534
Tomate	1	221
Salat	1	627
weiß	1	290
grün	1	153
Flüssigkeit	0	689
schnell	1	815
schmecken	1	201
dünn	0	508
schwarz	0	483
grob	1	1024
legen	0	497
Zwiebel	1	6
zubereiten	1	569
Schale	1	294
Kraut	1	806
kochen	1	266
Petersilie	1	850
servieren	1	327
Name	0	778
Messer	1	117
Eiweiß	1	235
entfernen	0	93
Zitronensaft	1	472
fest	0	155
Hitze	1	612
Jahr	0	645
Beilage	1	522
Vanillezucker	1	708
rühren	1	269
waschen	0	449
Suppe	1	511
Zubereitung	1	182
Art	1	851
Sahne	1	516
Blatt	1	488
scharf	1	417
französisch	1	251
stellen	1	236
Prise	1	86
nehmen	1	382
stammen	0	790
gerieben	1	776
zugeben	0	797
Masse	1	69
Speck	1	526
Menge	0	394
würzen	1	39
Knoblauch	1	314
fertig	1	335
gebraten	1	17
süß	1	808
Teil	0	826
glatt	1	275
Saft	1	152
Handel	0	457
Teller	1	1030
warm	1	30
füllen	1	416
dick	1	305
eignen	1	145
getrocknet	1	309
Farbe	0	444
backen	1	450
braten	1	758
verrühren	1	519
erhitzen	1	248
gehackt	1	552
Kochen	1	558
Wurst	1	191
Bund	1	991
weich	1	122
Deckel	1	18
Reis	1	41
Brühe	1	385
stark	0	882
Schalotte	1	989
kcal	0	125
schälen	1	942
verteilen	0	859
Zitrone	1	466
bestehen	0	632
sehen	0	506
italienisch	0	179
erhältlich	0	316
Paprika	1	229
Hand	0	223
Honig	1	89
Verwendung	0	823
Apfel	1	894
Aroma	1	901
Alkohol	1	32
Sieb	1	134
schön	0	259
Bohne	1	131
roh	1	237
ersatzweise	0	957
bringen	0	14
traditionell	0	678
aufkochen	1	137
Karotte	1	1005
geschnitten	0	381
Thymian	1	55
anbraten	1	121
Temperatur	0	90
abschmecken	1	126
Brot	1	587
Dose	1	1060
alt	0	105
köcheln	1	157
dunkel	1	241
Stunde	0	834
ziehen	1	278
Eigelb	1	936
Variante	0	503
Backblech	1	324
kräftig	1	115
Seite	1	85
Weißwein	1	1029
nennen	0	743
halb	1	954
Kohlenhydrat	0	401
Cholesterin	0	804
Herstellung	0	43
kochend	1	947
Füllung	1	972
Tasse	1	855
Mühle	1	830
zusätzlich	0	930
Spargel	1	542
trocknen	1	979
braun	1	284
restlich	0	386
Kühlschrank	1	840
schlagen	1	805
finden	0	12
unterrühren	1	814
Zeit	0	984
Senf	1	895
Marinade	1	566
Hälfte	0	649
Braten	1	81
Gemüsebrühe	1	261
gelb	0	749
Mandel	1	171
Würfel	1	1040
bestreuen	1	560
Tag	0	601
Haut	0	746
Champignon	1	836
Sorte	0	602
Kümmel	1	775
halbieren	0	643
Schinken	1	430
optional	0	579
Fertigprodukt	0	135
bleiben	0	295
vorsichtig	0	779
Butterschmalz	1	650
entstehen	0	861
Ballaststoff	0	212
hervorragend	0	733
abkühlen	0	298
gehören	0	741
Basilikum	1	608
Ofen	1	427
Rand	0	33
Auflaufform	1	671
verarbeiten	0	742
abtropfen	0	960
schaumig	1	829
Größe	1	611
halten	0	279
garen	1	1023
Ende	0	916
Pilz	1	252
Kuchen	1	681
hacken	1	168
verschieden	0	102
Zimt	1	828
Tip	0	1018
jung	1	108
wichtig	0	590
Puderzucker	1	876
langsam	0	739
hart	1	842
passen	0	722
Ingwer	1	644
Backofen	1	1013
bilden	0	44
mild	1	973
Region	0	243
Knoblauchzehe	0	727
mittler	0	921
Liter	0	1047
typisch	0	222
mittelgroß	0	288
Essig	1	724
Portion	1	369
Monat	0	846
dazugeben	1	512
Vitamin	1	110
abschneiden	0	227
Rotwein	1	100
Wein	1	672
gegrillt	1	10
Schnittlauch	1	292
gekocht	1	517
Getränk	1	811
Mitte	0	981
Schokolade	1	639
bezeichnen	0	1034
gebacken	1	945
Backpapier	1	821
Boden	1	832
flach	0	432
ähnlich	0	1061
eventuell	0	770
Parmesan	1	927
anschließend	0	59
deutsch	0	215
würzig	1	715
Lebensmittel	1	400
Familie	0	149
besitzen	0	463
Hefe	1	835
Gelatine	1	426
zufügen	0	270
Backpulver	1	419
Schwein	1	869
formen	1	420
Rosine	1	974
österreichisch	0	1037
Möhre	1	334
anrichten	1	538
min	0	798
bedecken	0	140
erhalten	0	54
bekommen	0	849
Mischung	0	694
ablöschen	1	577
Spaghetti	1	313
Cocktail	1	510
liegen	0	75
Pflanzenöl	1	637
gleichmäßig	0	717
Stiel	0	189
bestreichen	1	673
salzen	1	443
Muschel	1	331
Nuß	1	824
abdecken	0	481
unterschiedlich	0	867
Birne	1	378
stehen	0	902
Rum	1	325
Gast	1	195
gering	0	462
vermischen	1	816
Bezeichnung	0	501
Same	0	937
Woche	0	167
dienen	0	339
Lauch	1	312
Garnele	1	688
auslegen	1	118
vermengen	1	322
Quark	1	504
unbehandelt	0	78
gefüllt	1	441
Kopf	0	40
Knochen	1	408
Schnitzel	1	788
erreichen	0	112
Päckchen	0	28
Brötchen	1	1026
zweit	0	487
echt	0	202
hochwertig	0	22
ideal	0	571
Orange	1	276
Konsistenz	0	1055
Weißbrot	1	862
spanisch	0	966
Hackfleisch	1	903
hell	1	910
flüssig	0	345
ersetzen	0	264
sauer	1	1042
Gurke	1	941
anbieten	0	211
Filet	1	606
gelten	0	210
Kuhmilch	0	998
extra	0	342
Schluß	0	306
Vorspeise	1	320
Löffel	1	82
Joghurt	1	114
Chili	1	521
geröstet	1	536
Provinz	0	525
Margarine	1	985
Wasserbad	1	496
zart	1	368
essen	1	23
garnieren	1	575
Weiter	0	728
Tee	1	98
hingeben	0	764
Schicht	1	917
Marmelade	1	965
mischen	1	49
Rind	1	736
reduzieren	1	56
knusprig	1	119
gemischt	0	719
Muskat	1	370
lagern	0	853
ursprünglich	0	705
Zweig	1	578
Gabel	1	911
besonder	0	174
Schweinefleisch	1	485
goldbraun	1	356
aufbewahren	0	412
Creme	1	1053
häufig	0	772
putzen	1	530
Mörser	1	389
Rindfleisch	1	358
Gerät	0	437
Dill	1	793
Gramm	0	646
Rühren	1	554
heben	0	524
Kern	0	52
geschält	1	238
leben	0	807
Typ	0	104
Nelke	1	254
Eis	1	177
lösen	0	183
wenden	1	475
setzen	1	539
Durchmesser	0	809
einfrieren	0	613
einlegen	1	7
gewünscht	0	58
gießen	1	709
saftig	1	94
dünsten	1	132
einzeln	0	454
aromatisch	0	199
Haselnuß	1	1016
würfeln	1	925
köstlich	1	732
Land	0	209
vollständig	0	656
spät	1	239
zeigen	0	753
englisch	1	885
Rest	0	886
Geflügel	1	65
Lachs	1	340
Pasta	1	499
Spinat	1	1045
rösten	1	242
heißen	0	1017
Pudding	1	287
Obst	1	847
vorbereiten	0	150
reichen	1	750
reifen	0	600
Rosmarin	1	197
abwaschen	0	679
schmelzen	1	1025
Produkt	0	60
Likör	1	192
Flasche	1	609
Fruchtfleisch	0	919
feucht	0	188
Tier	0	813
klar	1	664
vorbereitet	1	682
verlieren	0	329
Zucchini	1	735
Salzwasser	1	130
Wahl	0	424
alternativ	0	146
umrühren	0	891
Beispiel	0	729
reif	0	604
reiben	0	959
Stengel	0	848
Saison	1	173
europäisch	0	45
Servieren	1	348
klassisch	0	913
Grill	1	768
beginnen	0	206
Tuch	0	676
Ganze	0	303
abgießen	1	351
deftig	0	792
schmackhaft	0	995
Ort	0	76
Walnuß	1	997
goldgelb	1	232
Blüte	1	971
beträufeln	0	754
Fond	1	660
verschließen	0	723
Auster	1	555
Erbse	1	935
Sauerkraut	1	918
griechisch	0	584
belegen	1	975
belgisch	0	518
Vanille	1	802
Sirup	1	286
herzhaft	1	315
kühl	1	455
vorhanden	0	344
intensiv	0	800
Stange	1	1044
auflösen	0	896
Lagerung	0	338
Oberfläche	0	883
Kaffee	1	713
benötigen	0	113
Tisch	1	128
haltbar	0	429
direkt	0	364
breit	0	986
Leber	1	769
japanisch	0	29
Verzehr	0	561
asiatisch	0	66
fließend	0	193
Blech	0	780
Mais	1	698
lauwarm	0	948
pikant	1	365
Herd	1	360
Klasse	0	900
gewinnen	0	319
ausrollen	1	20
einschneiden	1	440
schwer	0	138
tief	0	213
zerkleinern	0	856
drücken	0	456
Wiener	1	458
geeignet	0	550
Safran	1	465
Aubergine	1	747
abschrecken	1	24
mager	1	731
Olive	1	16
Mohn	1	282
einweichen	1	838
eingelegt	1	844
Forelle	1	19
Anteil	0	1021
chinesisch	1	702
Zutat	1	586
empfehlen	0	1009
tragen	0	349
Pflanze	0	374
Bäcker	1	165
Apfelsaft	1	57
Kuh	0	928
Zitronenschale	1	218
voll	0	791
Schweizer	1	1049
Stärke	1	904
Rübe	1	471
Thunfisch	1	162
hinfügen	0	1041
Kugel	1	626
locker	1	761
gründlich	0	996
cremig	1	129
kaufen	0	1
niederländisch	0	605
Arbeitsfläche	0	447
Schuß	0	469
entwickeln	0	905
wachsen	0	547
Soße	1	234
herausnehmen	0	827
schmoren	1	350
übrig	0	647
Länge	0	180
Zugabe	0	744
verhindern	0	906
Gebäck	1	477
selten	0	557
Zwischenzeit	0	817
Person	0	1039
elektrisch	0	783
Stadt	0	91
grillen	1	143
aufgießen	1	273
Ananas	1	766
Hering	1	283
Sellerie	1	214
Rolle	1	819
ständig	0	665
nah	0	1056
Kürbis	1	509
Minze	1	932
bieten	0	706
zubereitet	1	103
Schärfe	1	1012
fassen	0	476
ausreichend	0	83
einrühren	1	80
Spezialität	1	898
Bratwurst	1	767
auskühlen	0	888
Schiene	0	858
Platte	1	884
mahlen	1	786
Ring	0	593
Beere	1	263
altbacken	1	924
übergießen	0	1059
benutzen	1	535
handeln	0	880
aufschlagen	1	943
türkisch	0	831
innen	0	994
schwach	1	357
Bild	0	990
Torte	1	686
Gewicht	0	170
unterheben	1	872
ernten	0	687
blanchieren	1	225
Steak	1	737
unterscheiden	0	332
zahlreich	0	548
Medium	1	591
Gefäß	0	127
verleihen	0	505
produzieren	0	1014
Stufe	0	529
Supermarkt	0	47
Fruchtsaft	1	393
abziehen	1	839
Zauberstab	1	551
zudecken	0	1052
gepreßt	0	589
stecken	1	27
luftdicht	0	658
verfeinern	1	908
wiegen	1	198
Ente	1	1000
Kakao	1	302
beliebt	0	585
Jahrhundert	0	53
Eintopf	1	970
befreien	0	934
vegetarisch	0	285
Thüringer	1	967
durchziehen	1	523
pfeffern	1	866
vorgeheizt	0	878
Orangensaft	1	877
trennen	0	384
Packung	1	890
vorwiegend	0	912
gesund	0	726
Fenchel	1	473
Begriff	0	983
Oktober	0	185
teuer	0	392
normal	0	614
Belag	1	307
Abendessen	1	781
Rücken	1	460
gewürfelt	1	1011
schieben	0	938
Methode	1	445
Hinweis	1	720
deutlich	0	545
Bier	1	194
Mineralwasser	1	693
verkaufen	0	563
genau	0	923
Alkoholgehalt	1	260
entkernen	0	588
Kind	1	1022
ruhen	0	265
binden	1	363
anbauen	0	431
schräg	0	944
fett	1	486
gesamt	0	262
geschmeidig	1	549
Himbeere	1	428
speziell	1	864
Erdbeere	1	1003
führen	0	875
Kochtopf	1	63
drehen	0	451
einsetzen	1	415
Fall	0	820
wirken	1	725
Hilfe	0	1015
Drittel	0	977
nötig	0	748
Huhn	1	219
rein	0	889
andünsten	1	562
bedeuten	0	1054
anschwitzen	1	623
Feuer	0	253
Achtung	0	1008
Rapsöl	1	433
Vorbereitung	0	158
aufschneiden	1	207
hergestellt	0	710
Belieben	0	366
verwandt	0	388
vorheizen	1	931
Brie	1	494
relativ	0	147
Kruste	1	818
Paste	1	640
erinnern	0	559
eigentlich	0	680
Inhalt	0	556
Dessert	1	922
Kloß	1	1046
öffnen	1	304
entsprechend	0	26
Knolle	0	513
Becher	1	25
Qualität	0	479
Mineralstoff	0	31
Folie	1	376
Herkunft	0	176
ober	1	642
fruchtig	0	203
verquirlen	1	228
Hersteller	0	629
streuen	1	404
wesentlich	0	442
üblich	0	495
glasig	1	893
Speise	1	961
indisch	1	730
Mark	1	468
besorgt	0	899
Gegend	0	962
neu	1	459
Garten	0	574
Flamme	0	160
auffangen	0	520
Curry	1	926
kneten	1	371
bitter	1	133
September	0	79
Nacht	0	721
genießen	1	9
eiskalt	1	964
salzig	1	208
Regel	0	72
Viertel	1	756
Version	0	949
letzt	0	51
schütteln	0	291
mediterran	1	683
Bedarf	1	77
Tropfen	0	648
bekennen	0	528
erneut	0	372
folgend	0	224
Gegensatz	0	544
Liste	0	774
ergeben	0	796
heimisch	0	258
verstehen	0	480
Raum	0	362
fehlen	0	474
Pfannkuchen	1	663
Einlage	1	317
abschöpfen	0	217
pressen	1	865
rosa	1	425
geschlossen	0	993
einreiben	1	968
Luft	0	377
beschichtet	0	636
Keks	1	801
Kirsche	1	1010
maximal	0	107
steif	0	354
niedrig	0	411
angenehm	0	576
Bestandteil	0	166
hauptsächlich	0	99
geschützt	0	142
frei	0	36
ausdrücken	0	537
überziehen	1	956
abfüllen	0	267
günstig	0	565
Pommes	1	1036
eßbar	0	531
Mai	0	367
unbedingt	0	46
Keule	1	581
Wort	0	845
blau	1	62
Plätzchen	1	1031
quer	0	50
Winter	1	592
Kreis	0	461
aufnehmen	0	230
Farbstoff	0	196
festlich	1	969
Fertigstellung	0	396
Lamm	1	868
gelegentlich	0	527
geschmacklich	0	1051
schwäbisch	0	391
Wikipedia	0	978
Gans	1	453
bunt	0	164
umdrehen	1	677
wälzen	1	255
äußer	0	696
abspülen	0	1001
Rohr	0	795
bereitstellen	1	256
Stoff	0	64
Möglichkeit	0	812
Markt	1	70
erwärmen	0	361
Schaum	1	540
Artikel	0	482
Meeresfrucht	1	616
bestäuben	1	2
Alufolie	1	638
stürzen	1	760
Eiswürfel	1	1019
kühlen	1	598
Loch	0	1038
Darm	1	871
Getreide	1	492
teilen	0	915
Brett	1	701
Dampf	0	617
sauber	0	618
streng	0	120
Zentimeter	0	274
Sherry	0	615
schützen	0	178
trinken	1	328
Schnee	1	631
herausschneiden	0	763
Würstchen	1	470
ausgelegt	0	787
reinigen	0	249
Mixer	1	87
verzehren	1	695
Hauptgericht	1	272
betragen	0	277
Mensch	0	953
mäßig	0	464
verbreiten	0	583
Metall	0	628
divers	0	514
regional	1	909
Metzger	0	920
streichen	1	759
oval	0	355
annehmen	0	599
Basis	0	467
einarbeiten	0	414
rasten	0	373
Vortag	0	398
Kategorie	0	887
Aprikose	1	507
Tradition	0	860
Säure	0	892
erfolgen	0	567
einkochen	1	572
Haltbarkeit	1	141
Bindung	1	799
Zustand	0	346
Höhe	0	387
Erdnuß	1	280
Ernte	0	907
giftig	0	619
Geruch	1	594
befinden	0	73
Auflauf	1	785
angegeben	0	493
Pizza	1	300
knapp	0	353
geschlagen	1	148
Autor	0	301
pur	0	603
auspressen	0	740
bestehend	0	803
zupfen	0	946
Platz	1	402
Genuß	0	854
einwickeln	0	500
Öffnen	1	250
beidseitig	0	952
variieren	0	106
wiederholen	0	169
vermeiden	0	337
Banane	1	423
kennen	0	439
erkennen	0	244
doppelt	0	624
Dicke	0	186
Schnecke	1	633
hineingeben	0	1006
auffüllen	1	752
dämpfen	1	597
Welt	0	233
Finger	0	914
Hirse	1	13
gleichzeitig	0	4
Ketchup	1	231
Anleitung	0	669
Anfang	0	841
Spieß	1	154
Auge	1	711
ausstechen	1	651
abtrocknen	0	205
rollen	1	421
pürieren	1	976
brauchen	0	246
Reifung	0	771
vielseitig	0	716
entsprechen	0	982
Juli	0	765
vergessen	0	653
entziehen	0	383
industriell	0	691
Druck	0	874
Note	0	136
verbrennen	1	498
Kunststoff	0	245
Erde	1	438
Aussehen	0	161
Dekoration	0	570
wickeln	0	151
Bärlauch	1	74
aufweisen	0	15
Juni	0	734
Spitze	0	336
Mikrowelle	1	84
Volumen	0	707
Inhaltsstoff	0	406
beachten	0	48
zäh	1	116
sagen	0	580
Verfasser	0	375
befestigen	0	1020
beschreiben	0	532
Grün	1	380
Alter	0	297
passend	0	852
schichten	1	515
mitteln	1	379
Gefahr	0	343
Mulde	0	1058
hinzufügen	0	216
Ergebnis	0	634
Quelle	0	96
Eigenschaft	0	296
Thema	0	610
weglassen	0	810
früh	0	422
Kombination	0	111
schmal	0	446
großzügig	0	988
Zimmertemperatur	0	704
brechen	0	38
sanft	0	484
schädlich	0	697
Zunge	1	181
dauern	0	3
quellen	1	684
Foto	0	1050
testen	0	825
zerdrücken	1	667
abgeben	0	8
sparsam	0	690
Gebrauch	0	782
erzeugen	0	281
Licht	0	568
hängen	1	863
gedämpft	1	641
süßlich	1	502
nebenstehend	0	745
Feige	1	958
Sinn	0	1032
säubern	0	1028
Kühlung	0	67
Körper	0	654
Hähnchen	1	21
passieren	1	630
entnehmen	0	881
Korn	0	657
Vorsicht	0	410
dicht	0	1002
wertvoll	0	999
aufsteigend	0	478
ähneln	0	144
Grundlage	0	220
genannt	0	870
Prozent	0	992
riechen	1	247
zügig	0	738
Koch	1	635
belieben	0	1035
Ruhezeit	0	595
Farce	1	929
Schritt	0	323
Holz	0	308
Vorgang	0	668
Wunsch	1	857
gewiß	0	226
optimal	0	390
edel	0	621
Trichter	1	951
Haushalt	1	950
nutzen	0	755
bereiten	0	399
zählen	0	490
Preis	0	789
Grad	1	837
Pore	0	204
färben	1	655
Alternative	0	718
einfüllen	0	699
wunderbar	0	822
November	0	963
keimen	0	299
Konserve	1	703
schließen	0	330
April	0	35
entfalten	0	670
untermischen	0	661
notwendig	0	92
bestimmt	0	666
sorgfältig	0	543
bewirken	0	95
Weise	0	326
Verarbeitung	0	879
Abkühlen	0	980
Unterschied	0	607
Innere	0	714
Grund	0	659
Beigabe	1	271
gesundheitsschädlich	0	662
Gift	0	42
Zusatz	0	1007
Vergleich	0	564
sorgen	0	1057
Frühjahr	0	434
hellbraun	0	873
exzellent	1	405
Keim	0	553
Anmerkung	0	491
verwechseln	0	352
tauchen	0	712
resultieren	0	184
Bildung	0	757
Gastgewerbe	1	61
dunkelbraun	0	397
sicher	0	289
erforderlich	0	573
Aal	1	685
Substanz	0	541
erkalten	0	1004
fördern	0	582
komplett	0	163
Variation	0	200
probieren	1	71
stapeln	0	489
wünschen	1	34
allgemein	0	257
dreimonatig	0	833
Kälte	1	321
Verlust	0	124
verzichten	0	843
einlagern	0	652
aufwendig	0	939
erwerben	0	436
verbessern	0	533
Schwierigkeitsgrad	0	190
Vorteil	0	123
Einsatz	1	333
Gänze	0	11
Wirkung	0	596
helfen	0	409
geschehen	0	413
Galerie	0	777
Wert	0	546
Inhaltsverzeichnis	0	395
