geben	1	449
lassen	0	83
verwenden	0	594
Salz	1	166
frisch	0	512
klein	1	612
Zutaten	1	1061
Wasser	1	702
herstellen	0	618
Geschmack	1	1011
Fleisch	1	859
Käse	1	842
fein	1	253
Küche	1	384
Butter	1	866
Zucker	1	516
Gericht	1	939
Fett	1	564
Eßlöffel	1	35
Teig	1	1012
Pfeffer	1	604
Minute	0	131
Rezept	1	928
einfach	0	481
enthalten	0	453
Form	1	508
weiß	1	532
Sauce	1	443
schneiden	1	983
Name	0	437
Gemüse	1	552
kalt	1	933
Topf	1	174
Milch	1	168
heiß	1	366
Pfanne	1	705
schmecken	1	814
Frucht	1	819
eignen	1	860
nennen	0	972
Art	1	632
Gewürz	1	961
rot	1	586
Zubereitung	1	994
gemahlen	0	376
Eiweiß	1	14
Fisch	1	907
Stück	1	19
servieren	1	239
Kartoffel	1	773
trocken	1	105
Schüssel	1	480
verschieden	0	740
dünn	0	244
bestehen	0	797
Mehl	1	441
grün	1	182
zubereiten	1	852
schnell	1	118
Scheibe	1	1014
sehen	0	849
nehmen	1	926
Milliliter	0	785
Verwendung	0	371
stammen	0	945
Kraut	1	388
Ballaststoff	0	661
Olivenöl	1	683
fest	0	567
Jahr	0	91
fertig	1	252
Salat	1	137
schwarz	0	303
ähnlich	0	844
französisch	1	440
stark	0	573
legen	0	832
Variante	0	547
Menge	0	330
Herstellung	0	493
finden	0	959
Teelöffel	1	610
Flüssigkeit	0	162
Handel	0	954
Teil	0	689
dick	1	272
kochen	1	695
füllen	1	1043
Beilage	1	729
Glas	1	534
Tomate	1	518
Aroma	1	658
traditionell	0	423
Cholesterin	0	1018
gehören	0	362
Sahne	1	668
stellen	1	901
süß	1	527
Blatt	1	829
Schale	1	681
scharf	1	301
warm	1	116
Zwiebel	1	863
italienisch	0	845
grob	1	708
Suppe	1	670
getrocknet	1	883
Petersilie	1	701
würzen	1	121
bezeichnen	0	321
schön	0	985
entstehen	0	687
alt	0	782
Zeit	0	135
Kochen	1	345
Teller	1	858
typisch	0	429
Zitronensaft	1	382
weich	1	576
kräftig	1	179
zugeben	0	8
deutsch	0	49
roh	1	10
Farbe	0	340
entfernen	0	288
Knoblauch	1	943
Saft	1	1020
Messer	1	753
bringen	0	246
erhältlich	0	723
glatt	1	381
Masse	1	1026
erhalten	0	802
liegen	0	142
dunkel	1	368
Brot	1	476
dienen	0	336
wichtig	0	706
gelten	0	491
Apfel	1	876
Speck	1	60
zusätzlich	0	278
bleiben	0	45
Kohlenhydrat	0	156
erhitzen	1	26
halten	0	457
Füllung	1	980
Hitze	1	18
waschen	0	854
braten	1	445
geschnitten	0	69
Hand	0	984
anbieten	0	489
bekommen	0	580
gerieben	1	713
Sorte	0	1048
Zitrone	1	1060
hervorragend	0	50
gelb	0	12
backen	1	617
Reis	1	651
Temperatur	0	458
Tag	0	941
gebraten	1	545
braun	1	834
Wurst	1	703
bilden	0	722
Paprika	1	411
verteilen	0	350
passen	0	1049
Braten	1	732
stehen	0	199
Region	0	1005
garen	1	256
Seite	1	1044
häufig	0	982
ziehen	1	451
kcal	0	712
Bezeichnung	0	281
Pilz	1	115
Bohne	1	224
Prise	1	790
Deckel	1	582
Brühe	1	690
mild	1	71
Lebensmittel	1	590
Ende	0	659
Alkohol	1	494
Tip	0	798
Eigelb	1	401
besitzen	0	397
rühren	1	593
vorsichtig	0	583
Haut	0	513
trocknen	1	585
besonder	0	103
Schalotte	1	800
unterschiedlich	0	427
Wein	1	521
heißen	0	1003
Hälfte	0	955
flach	0	430
beliebt	0	763
gehackt	1	260
jung	1	236
Mischung	0	279
Boden	1	879
anschließend	0	996
ursprünglich	0	717
reichen	1	696
restlich	0	277
verarbeiten	0	1055
Weißwein	1	1022
Größe	1	890
würzig	1	575
Getränk	1	522
Sieb	1	398
essen	1	164
Schinken	1	461
halb	1	759
gekocht	1	310
zeigen	0	776
handeln	0	598
Bund	1	149
geeignet	0	799
anbraten	1	180
Mitte	0	559
Kuchen	1	447
gering	0	93
Zimt	1	413
Karotte	1	503
spät	1	710
Portion	1	306
Essig	1	914
Fertigprodukt	0	479
Kühlschrank	1	228
langsam	0	222
abschmecken	1	1062
eventuell	0	510
kochend	1	241
Backblech	1	11
schälen	1	796
Ofen	1	148
Thymian	1	300
erreichen	0	550
Beispiel	0	106
klassisch	0	124
echt	0	667
Kuhmilch	0	750
Familie	0	657
Bild	0	37
Spargel	1	1036
mittler	0	211
Honig	1	636
Gemüsebrühe	1	112
Produkt	0	462
hell	1	807
Stunde	0	25
empfehlen	0	744
gefüllt	1	813
Ingwer	1	499
zart	1	804
Backofen	1	473
verwandt	0	212
Basilikum	1	673
flüssig	0	691
ideal	0	968
Rand	0	299
gleichmäßig	0	150
hart	1	627
Würfel	1	432
bestreuen	1	1006
Konsistenz	0	341
Nuß	1	285
Gast	1	682
Orange	1	259
Dose	1	911
Mandel	1	247
min	0	818
vermischen	1	693
Butterschmalz	1	671
Mühle	1	27
Champignon	1	313
Schokolade	1	163
zweit	0	727
verrühren	1	392
spanisch	0	221
aromatisch	0	418
mittelgroß	0	97
Tasse	1	58
eigentlich	0	948
Land	0	4
ersetzen	0	975
schwer	0	647
ersatzweise	0	766
Vorspeise	1	784
mischen	1	23
Senf	1	638
Woche	0	320
abtropfen	0	250
Möhre	1	374
setzen	1	820
Kopf	0	704
sauer	1	242
direkt	0	509
Tisch	1	944
bieten	0	529
gewinnen	0	63
Rest	0	152
österreichisch	0	791
Regel	0	930
Marinade	1	596
anrichten	1	987
Gerät	0	352
Oberfläche	0	466
Tier	0	265
speziell	1	175
einzeln	0	292
verstehen	0	903
einlegen	1	840
Cocktail	1	193
schmackhaft	0	679
hacken	1	561
Knoblauchzehe	0	720
benötigen	0	294
Pflanzenöl	1	578
formen	1	1024
Kern	0	267
englisch	1	889
aufkochen	1	377
intensiv	0	725
benutzen	1	282
Zugabe	0	833
deutlich	0	455
Schwein	1	205
Knochen	1	414
Stiel	0	240
Monat	0	892
gebacken	1	72
saftig	1	394
selten	0	817
Kümmel	1	324
entsprechend	0	82
Puderzucker	1	136
Same	0	956
Auflaufform	1	245
unterscheiden	0	1045
kaufen	0	789
genau	0	537
halbieren	0	581
Schneebesen	1	100
normal	0	716
Rotwein	1	249
Birne	1	707
Pflanze	0	1019
Gelatine	1	48
zufügen	0	611
entwickeln	0	389
Liter	0	736
tragen	0	344
Likör	1	880
hochwertig	0	684
Zutat	1	822
Spezialität	1	778
Schluß	0	640
knusprig	1	915
üblich	0	558
alternativ	0	680
bedeuten	0	719
vollständig	0	884
reifen	0	181
salzen	1	1033
verlieren	0	38
Gurke	1	905
gemischt	0	78
Supermarkt	0	482
optional	0	364
Rum	1	289
Vanillezucker	1	407
Durchmesser	0	404
Flasche	1	896
abkühlen	0	243
köcheln	1	319
hergestellt	0	940
Servieren	1	616
schlagen	1	213
lagern	0	1009
Kaffee	1	316
bestreichen	1	630
folgend	0	592
Margarine	1	685
reif	0	869
dazugeben	1	133
köstlich	1	403
bedecken	0	737
Fall	0	146
gesamt	0	966
voll	0	369
Geflügel	1	646
Obst	1	731
abschneiden	0	383
Verzehr	0	95
Muschel	1	589
reduzieren	1	900
Gebäck	1	739
einsetzen	1	470
bekennen	0	459
gießen	1	597
Chili	1	946
Schnittlauch	1	877
Parmesan	1	637
hauptsächlich	0	6
zahlreich	0	365
abdecken	0	178
geschält	1	108
Schicht	1	486
Backpapier	1	188
Joghurt	1	347
Vitamin	1	635
Brötchen	1	762
Schweinefleisch	1	54
Rindfleisch	1	276
übrig	0	268
vermengen	1	953
relativ	0	824
Quark	1	1030
Ganze	0	20
Gabel	1	924
heben	0	102
Filet	1	77
Rind	1	963
wachsen	0	196
Wahl	0	629
pikant	1	1
vorhanden	0	677
haltbar	0	923
letzt	0	378
belegen	1	1001
genießen	1	623
nah	0	938
Garnele	1	393
Qualität	0	909
Weißbrot	1	752
lösen	0	957
Backpulver	1	464
Löffel	1	158
gewünscht	0	857
Methode	1	39
Rosine	1	754
Lauch	1	1038
Marmelade	1	1028
rein	0	203
geröstet	1	1031
Jahrhundert	0	232
kühl	1	599
Rolle	1	514
wenden	1	721
führen	0	570
Lagerung	0	897
Lachs	1	894
Stengel	0	419
breit	0	255
verhindern	0	220
Olive	1	314
bitter	1	219
vorbereiten	0	485
Person	0	191
Anteil	0	600
Hackfleisch	1	742
Hefe	1	107
zerkleinern	0	75
hingeben	0	422
neu	1	128
asiatisch	0	997
Blüte	1	139
Raum	0	363
eingelegt	1	424
Länge	0	998
Spaghetti	1	774
beginnen	0	113
ergeben	0	22
genannt	0	745
extra	0	1056
Eis	1	551
hinfügen	0	233
Stadt	0	160
Rosmarin	1	755
herzhaft	1	421
Beere	1	851
Creme	1	80
Speise	1	1000
garnieren	1	613
Fond	1	549
wesentlich	0	528
gelegentlich	0	337
Herd	1	218
feucht	0	283
Tee	1	273
Gefäß	0	758
auslegen	1	120
unterrühren	1	57
verzehren	1	885
produzieren	0	812
reiben	0	114
fett	1	1058
ablöschen	1	989
klar	1	176
europäisch	0	674
regional	1	692
Spinat	1	615
vorwiegend	0	823
Salzwasser	1	125
Dessert	1	625
teuer	0	584
Gegensatz	0	141
Hilfe	0	317
Päckchen	0	96
Fruchtfleisch	0	663
Erbse	1	950
Muskat	1	99
Schnitzel	1	298
cremig	1	652
rösten	1	505
ausreichend	0	183
verleihen	0	811
Kind	1	568
Koch	1	764
chinesisch	1	579
Zucchini	1	958
Soße	1	951
innen	0	351
verkaufen	0	157
dünsten	1	947
Provinz	0	936
Kürbis	1	688
Begriff	0	912
gegrillt	1	495
Möglichkeit	0	952
tief	0	87
vorbereitet	1	910
Rühren	1	76
drücken	0	153
niedrig	0	614
Pasta	1	639
Bestandteil	0	386
Grill	1	318
Sauerkraut	1	500
zubereitet	1	492
Pudding	1	601
eßbar	0	974
Dill	1	415
niederländisch	0	206
Stärke	1	603
Nelke	1	81
verfeinern	1	460
Zweig	1	741
binden	1	893
Thunfisch	1	428
sagen	0	846
übergießen	0	515
japanisch	0	919
Haselnuß	1	490
goldbraun	1	1027
gesund	0	73
verschließen	0	927
Vanille	1	17
Bier	1	607
vegetarisch	0	606
aufbewahren	0	839
Sirup	1	862
Eintopf	1	788
Weiter	0	748
Leber	1	743
salzig	1	52
Inhalt	0	895
brauchen	0	406
Kugel	1	825
divers	0	937
lauwarm	0	257
Vorbereitung	0	469
nötig	0	89
beträufeln	0	718
ernten	0	304
bestimmt	0	44
unbehandelt	0	15
Zwischenzeit	0	990
schmelzen	1	827
würfeln	1	747
Stange	1	104
Erdbeere	1	448
befinden	0	439
gründlich	0	967
Grund	0	65
Walnuß	1	816
Forelle	1	385
früh	0	783
Fenchel	1	109
mager	1	170
Torte	1	198
Mörser	1	793
umrühren	0	477
verbreiten	0	715
Ort	0	565
goldgelb	1	626
Wasserbad	1	187
befreien	0	872
Markt	1	129
erinnern	0	154
abwaschen	0	32
wirken	1	780
ober	1	230
unbedingt	0	201
erfolgen	0	189
elektrisch	0	271
günstig	0	792
abgießen	1	676
fruchtig	0	311
Klasse	0	711
Alternative	0	777
Tradition	0	917
wiegen	1	138
heimisch	0	995
schwach	1	560
einweichen	1	1052
beschreiben	0	520
Zustand	0	452
Schärfe	1	993
schützen	0	672
Ananas	1	204
industriell	0	1013
Gewicht	0	1029
belieben	0	24
abziehen	1	159
Aubergine	1	769
nutzen	0	173
anbauen	0	960
Blech	0	787
ständig	0	595
geschmacklich	0	1039
Tuch	0	134
Schweizer	1	225
auflösen	0	348
vermeiden	0	605
Keks	1	101
deftig	0	261
frei	0	468
kennen	0	965
Wort	0	643
Herkunft	0	554
Saison	1	645
Achtung	0	898
Mais	1	786
Stoff	0	132
streuen	1	387
Bedarf	1	465
Minze	1	92
Korn	0	41
Aussehen	0	698
Bratwurst	1	70
Zitronenschale	1	417
schmoren	1	488
Säure	0	85
locker	1	810
Rapsöl	1	871
pressen	1	566
Kruste	1	353
griechisch	0	74
fehlen	0	119
Belieben	0	1015
Fruchtsaft	1	925
geschlossen	0	143
Typ	0	349
stecken	1	609
grillen	1	826
Knolle	0	873
Ring	0	312
Sellerie	1	426
einrühren	1	641
Gegend	0	562
zählen	0	467
Basis	0	850
trennen	0	286
Garten	0	856
entsprechen	0	666
erzeugen	0	861
erwärmen	0	31
ähneln	0	229
doppelt	0	1064
Zusatz	0	853
türkisch	0	323
ausrollen	1	214
Mensch	0	587
gepreßt	0	43
putzen	1	775
Packung	1	808
Einlage	1	631
öffnen	1	864
Geruch	1	64
edel	0	809
mahlen	1	290
indisch	1	431
Hersteller	0	130
Platte	1	648
Drittel	0	497
färben	1	297
Apfelsaft	1	538
drehen	0	379
erkennen	0	835
Huhn	1	988
leben	0	184
herausnehmen	0	970
überziehen	1	653
bestehend	0	700
zudecken	0	847
Zentimeter	0	122
Kochtopf	1	436
variieren	0	1032
Autor	0	848
pfeffern	1	194
annehmen	0	254
Wiener	1	475
fließend	0	262
optimal	0	733
Kuh	0	190
Hauptgericht	1	548
trinken	1	269
Luft	0	375
Alufolie	1	841
angenehm	0	746
Wirkung	0	922
Genuß	0	918
Nacht	0	978
Mark	1	280
Paste	1	735
geschützt	0	62
Einsatz	1	275
Loch	0	838
Spitze	0	331
Vorteil	0	90
äußer	0	309
passend	0	291
Inhaltsstoff	0	1025
Orangensaft	1	34
Kombination	0	237
verzichten	0	806
Druck	0	234
Ente	1	263
Holz	0	40
verwechseln	0	33
Feuer	0	47
blau	1	325
sorgen	0	498
entnehmen	0	36
fassen	0	622
Welt	0	949
Gramm	0	5
streichen	1	781
helfen	0	339
Arbeitsfläche	0	435
unterheben	1	664
Haushalt	1	831
Ergebnis	0	644
Verarbeitung	0	167
mediterran	1	678
Körper	0	865
Version	0	934
wertvoll	0	932
gleichzeitig	0	274
Belag	1	450
aufnehmen	0	821
Höhe	0	223
kühlen	1	699
aufgießen	1	380
Eigenschaft	0	1051
rosa	1	1007
gewürfelt	1	171
Folie	1	332
hängen	1	197
Stufe	0	886
Keule	1	577
Medium	1	258
Kakao	1	231
schieben	0	887
rollen	1	964
blanchieren	1	21
Viertel	1	1021
Flamme	0	126
Safran	1	370
betragen	0	544
beachten	0	487
durchziehen	1	177
gewiß	0	216
Finger	0	1017
aufschneiden	1	433
belgisch	0	574
knapp	0	535
Rübe	1	42
Steak	1	395
Winter	1	155
Hinweis	1	533
aufweisen	0	523
einfrieren	0	588
vergessen	0	463
sauber	0	536
Gans	1	327
Mineralwasser	1	709
Himbeere	1	620
Kirsche	1	1004
pur	0	238
Getreide	1	728
wunderbar	0	969
sicher	0	396
Preis	0	483
erneut	0	546
Unterschied	0	68
eiskalt	1	756
bereiten	0	837
Ketchup	1	16
einkochen	1	30
auffüllen	1	634
ruhen	0	836
Pfannkuchen	1	165
schmal	0	308
Meeresfrucht	1	815
Bäcker	1	346
einreiben	1	1050
auskühlen	0	557
Anfang	0	920
Becher	1	172
Weise	0	2
komplett	0	215
Schuß	0	123
Kunststoff	0	921
Alkoholgehalt	1	507
schließen	0	195
süßlich	1	208
Note	0	471
Lamm	1	908
quer	0	474
Aprikose	1	1047
maximal	0	9
Darm	1	391
Innere	0	287
einschneiden	1	425
schwäbisch	0	655
festlich	1	296
Verfasser	0	506
passieren	1	628
Farbstoff	0	621
Grundlage	0	962
Metzger	0	525
notwendig	0	67
sanft	0	555
aufschlagen	1	608
Foto	0	264
dicht	0	161
Platz	1	86
Auflauf	1	665
Reifung	0	660
Kloß	1	28
dauern	0	185
Brett	1	334
Dekoration	0	541
Rücken	1	1008
erwerben	0	496
abfüllen	0	1010
vorgeheizt	0	971
einwickeln	0	517
aufwendig	0	902
Curry	1	217
Banane	1	760
Bärlauch	1	446
Mai	0	251
Abendessen	1	656
Plätzchen	1	888
Haltbarkeit	1	542
oval	0	343
Grad	1	235
kneten	1	1054
bunt	0	342
Liste	0	302
abschrecken	1	805
Dampf	0	697
hineingeben	0	870
schaumig	1	602
Zunge	1	1063
Vergleich	0	992
bestäuben	1	7
Metall	0	29
Ernte	0	714
Fertigstellung	0	904
entkernen	0	686
Sherry	0	929
tauchen	0	979
Sinn	0	530
wickeln	0	442
Hering	1	1034
abspülen	0	801
Pommes	1	51
verbrennen	1	891
Schiene	0	53
Mohn	1	771
Zauberstab	1	293
Erdnuß	1	147
Mixer	1	408
streng	0	649
Tropfen	0	931
Auge	1	328
ausdrücken	0	1002
Abkühlen	0	355
wünschen	1	772
andünsten	1	540
hinzufügen	0	539
anschwitzen	1	669
reinigen	0	642
glasig	1	531
Wikipedia	0	66
Oktober	0	1042
Vortag	0	878
abgeben	0	761
Wunsch	1	373
geschmeidig	1	1040
Schaum	1	359
Spieß	1	973
großzügig	0	356
dunkelbraun	0	1035
weglassen	0	524
Feige	1	556
Vorsicht	0	13
Aal	1	572
altbacken	1	1016
Alter	0	484
Dicke	0	999
auffangen	0	843
vielseitig	0	881
Zimmertemperatur	0	976
schichten	1	795
schütteln	0	654
beschichtet	0	46
ausgelegt	0	59
Mikrowelle	1	504
Volumen	0	307
Schnecke	1	127
Gefahr	0	354
teilen	0	284
Eiswürfel	1	226
Auster	1	358
verquirlen	1	270
Würstchen	1	675
stürzen	1	295
einfüllen	0	227
Bindung	1	569
Hirse	1	803
geschehen	0	977
bewirken	0	767
luftdicht	0	751
zäh	1	390
Anmerkung	0	98
wälzen	1	511
angegeben	0	724
nebenstehend	0	361
Grün	1	338
Schritt	0	794
September	0	619
ausstechen	1	61
bereitstellen	1	110
Gebrauch	0	266
Vorgang	0	1057
säubern	0	357
Thema	0	402
Mineralstoff	0	906
riechen	1	186
Artikel	0	456
Thüringer	1	1059
entziehen	0	1046
geschlagen	1	305
Farce	1	333
einarbeiten	0	56
schräg	0	553
Pizza	1	434
vorheizen	1	405
Substanz	0	874
mäßig	0	991
steif	0	768
pürieren	1	140
Prozent	0	410
Juli	0	192
abschöpfen	0	55
Mulde	0	326
dämpfen	1	855
Konserve	1	726
sparsam	0	765
Variation	0	502
Quelle	0	563
Juni	0	543
probieren	1	329
entfalten	0	913
Frühjahr	0	444
Anleitung	0	412
hellbraun	0	868
abtrocknen	0	1053
Hähnchen	1	591
Brie	1	986
wiederholen	0	315
quellen	1	730
auspressen	0	1037
beidseitig	0	416
brechen	0	624
Erde	1	94
umdrehen	1	519
Schnee	1	935
Rohr	0	478
Kühlung	0	867
sorgfältig	0	571
allgemein	0	749
untermischen	0	770
zerdrücken	1	322
erforderlich	0	169
besorgt	0	209
Kreis	0	738
Wert	0	335
herausschneiden	0	207
befestigen	0	79
zupfen	0	633
erkalten	0	144
giftig	0	526
gedämpft	1	981
rasten	0	830
April	0	438
November	0	248
Öffnen	1	202
Kategorie	0	111
Keim	0	399
testen	0	3
verbessern	0	84
fördern	0	734
aufsteigend	0	454
Bildung	0	472
Ruhezeit	0	875
zügig	0	1041
Trichter	1	117
Beigabe	1	367
mitteln	1	916
Pore	0	400
schädlich	0	1023
exzellent	1	779
gesundheitsschädlich	0	650
Licht	0	372
Kälte	1	409
einlagern	0	210
Kalorie	1	145
Gift	0	88
Galerie	0	200
stapeln	0	882
Verlust	0	360
keimen	0	757
Schwierigkeitsgrad	0	942
Gänze	0	899
Protein	1	151
dreimonatig	0	694
resultieren	0	420
Gastgewerbe	1	828
Überblick	0	662
Inhaltsverzeichnis	0	501
