bombard	5e-06	0
host	0.00010800000000000001	0
clustering	0.00015800000000000002	1
play	0.000254	0
sage	9e-06	0
sequential	0.000113	0
neither	5.2000000000000004e-05	0
publisher	2e-05	0
paid	6e-06	0
existence	0.000164	0
virtue	6.7e-05	0
contour	8e-05	1
coherent	0.00014099999999999998	0
instance	0.0008410000000000001	0
toucher	5e-06	0
limites	6e-06	0
freezing	8e-06	0
unction	8e-06	0
interpretation	0.000713	1
bottle	4.4e-05	0
per	0.00029	0
closure	9.4e-05	0
som	5e-06	0
broadcasting	1.1e-05	1
hyperbola	6e-06	0
rhetorical	0.00020800000000000001	0
itemized	5e-06	0
neighbor	0.00015	0
gauge	1.9e-05	0
choosing	5e-06	0
dimension	0.000251	0
constant	0.000218	0
factoring	2.2e-05	1
piu	1.7e-05	0
neral	5e-06	0
dens	5e-06	0
profile	9.9e-05	0
check	0.000269	0
weka	5e-06	1
inflection	0.00010800000000000001	1
category	0.0012369999999999998	0
coin	3.1e-05	0
tek	5e-06	0
girl	8.1e-05	0
suggestion	0.000132	0
weld	5e-06	0
intro	7.000000000000001e-06	0
likeliness	5e-06	0
selection	0.000412	0
combinatory	4.2e-05	0
vie	5e-06	0
short	0.00028	0
sore	1e-05	0
jean	6e-06	0
element	0.000732	0
thematic	0.00014199999999999998	0
behavior	0.000306	0
outlook	9e-06	0
serialization	6e-06	1
opal	5e-06	0
enable	0.000285	0
maximal	0.000147	0
remnant	6e-06	0
processor	0.000174	1
rationality	7.000000000000001e-06	0
optimal	0.000195	0
fitness	2.3e-05	0
foreign	0.000139	0
ark	5e-06	0
brokerage	5e-06	0
hem	8e-06	0
possible	0.001101	0
randomly	0.000153	0
sandhi	5e-06	0
sophisticated	0.00015	0
discharge	4.3e-05	0
course	0.00040599999999999995	0
examine	0.000273	0
sly	5e-06	0
transportability	1.1e-05	1
switch	0.000113	0
assign	0.000481	0
die	0.000125	0
preference	0.000324	0
faction	1.1e-05	0
conventionalization	5e-06	0
fortification	5e-06	0
inconsistency	8.499999999999999e-05	0
tend	0.000294	0
lev	5e-06	0
take	0.001269	0
loudness	1e-05	0
dominance	9.4e-05	0
chang	7.000000000000001e-06	0
restaurant	0.000102	0
linguistics	0.00021	1
nickname	1e-05	0
yak	1.6e-05	0
strength	0.000161	0
precise	0.000162	0
disagreement	8.9e-05	0
pea	1.4000000000000001e-05	0
abandonment	6e-06	0
perspective	0.000229	0
touch	4.9e-05	0
volume	0.000309	0
parses	5e-06	0
dictating	6e-06	1
substantial	0.000134	0
help	0.000408	0
stove	6e-06	0
generalized	2.7000000000000002e-05	0
histogram	3.4e-05	1
fine	6.2e-05	0
prosperity	5e-06	0
water	0.000167	0
parsing	0.000671	1
proportion	0.000138	0
respect	0.000386	0
separator	3.6e-05	0
art	0.000129	0
assertion	0.00011599999999999999	0
depth	0.000128	0
user	0.001489	1
dynamism	8e-06	0
module	0.000531	0
auto	2e-05	0
organizer	1.8e-05	0
challenge	0.00014099999999999998	0
standardisation	6e-06	1
trained	5.6999999999999996e-05	0
panel	8.1e-05	0
birthplace	6e-06	0
doctor	6.6e-05	0
encapsulation	8e-06	1
appendix	3.9e-05	0
heart	5.5e-05	0
anaphoric	0.00023199999999999997	0
alignment	0.000502	0
shilling	5e-06	0
invocation	2.8000000000000003e-05	1
architect	9e-06	0
rout	5e-06	0
carl	1.4000000000000001e-05	0
allocation	2.2e-05	0
deployment	2.7000000000000002e-05	0
university	6.8e-05	0
generality	9.300000000000001e-05	0
problematic	0.00011999999999999999	0
phrasal	0.000194	0
classmate	8e-06	0
surgery	1.8e-05	0
generic	0.000188	0
whiskey	8e-06	0
old	0.000218	0
bambino	5e-06	0
component	0.000753	0
predictor	0.00010400000000000001	1
impact	0.00016299999999999998	0
cohesion	0.000117	1
feat	1.7e-05	0
agreed	6e-06	0
purse	5e-06	0
issue	0.000493	0
basic	0.000458	0
blood	3.4e-05	0
clog	9e-06	0
talky	5e-06	0
accounting	4.1e-05	0
people	0.00047000000000000004	0
protocol	9e-05	0
typist	1.9e-05	0
pencil	1.3000000000000001e-05	0
violence	9e-06	0
coefficient	0.00016	1
instruction	0.00020899999999999998	0
common	0.0005650000000000001	0
workshop	9.9e-05	0
conductivity	6e-06	0
rewrite	0.000155	0
reconfiguration	7.000000000000001e-06	0
currency	2.6000000000000002e-05	0
cluster	0.0005769999999999999	1
flashback	9e-06	0
chosen	5e-06	0
christian	7.000000000000001e-06	0
closed	0.0001	0
watermark	7.000000000000001e-06	1
thread	7e-05	0
thresh	5e-06	0
expert	0.000273	0
formulation	0.00015800000000000002	0
someone	0.000118	0
condition	0.000817	0
calculated	1.1e-05	0
option	0.00020299999999999997	0
probable	0.000123	0
station	5.6999999999999996e-05	0
template	0.000462	0
treasurer	5e-06	0
cake	3.4e-05	0
geology	5e-06	1
assembler	6e-06	0
return	0.000301	0
caller	6.2e-05	0
annotation	0.000591	1
feedback	0.000194	0
correctly	0.0003	0
slot	0.000469	1
knight	1.1e-05	0
concord	1.8e-05	0
control	0.000384	0
messaging	7.000000000000001e-06	1
anaphora	0.00020299999999999997	1
unambiguous	0.00010400000000000001	0
mug	7.000000000000001e-06	0
previously	0.000264	0
direction	0.000294	0
expensive	0.00011	0
merged	2.8999999999999997e-05	0
president	0.000135	0
revision	0.000123	0
relational	0.000174	0
propose	0.0007030000000000001	0
circle	5.3e-05	0
chemist	6e-06	0
portal	1.2e-05	0
times	7.000000000000001e-06	0
logistic	3.3e-05	0
spec	2e-05	0
growth	8e-05	0
justification	7.6e-05	0
polymorphism	1.1e-05	1
theory	0.000743	1
ore	2.6000000000000002e-05	0
expanded	5e-06	0
complex	0.00045700000000000005	0
classifier	0.000392	1
scratch	3.8e-05	0
polarity	9.4e-05	1
misconception	6.1e-05	0
theme	0.000161	0
threshold	0.000252	0
connected	5.7999999999999994e-05	0
mower	6e-06	0
housewife	5e-06	0
laboratory	6.4e-05	0
exhibit	0.000133	0
destroyer	6e-06	0
kappa	4.7e-05	1
vision	4.5e-05	0
cochlea	8e-06	0
main	0.000526	0
preceding	1.2e-05	0
economy	4.7e-05	0
male	7.5e-05	0
categorize	0.000102	0
wan	1.8e-05	0
bell	1.2e-05	0
mark	0.000466	0
dort	5e-06	0
extract	0.000539	0
length	0.000471	0
trad	5e-06	0
swedish	2.8999999999999997e-05	0
coercion	5.5e-05	0
acetone	1.6e-05	0
calculate	0.000285	0
adjective	0.000408	1
eating	8e-06	0
formally	0.000113	0
indexing	0.000205	1
genus	6.3e-05	0
preliminary	0.000178	0
cradle	5e-06	0
utterance	0.000734	1
slice	3.8e-05	0
like	0.0011480000000000001	0
neighbour	7.000000000000001e-06	0
centum	5e-06	0
linking	9e-06	1
reflect	0.000314	0
recall	0.000408	0
capable	0.000161	0
bean	2.6000000000000002e-05	0
pornography	5e-06	0
fishing	6e-06	0
relationship	0.000472	0
separate	0.000336	0
ancestor	6.500000000000001e-05	0
guitar	6e-06	0
asia	5e-06	0
spreadsheet	2.2e-05	0
suffixes	5e-06	1
dissonance	6e-06	0
possibly	0.000221	0
additional	0.000413	0
coe	5e-06	0
arbitrary	0.00020099999999999998	0
intransitive	6.7e-05	0
celle	1.2e-05	0
possibility	0.000288	0
consequence	0.000188	0
elision	1.1e-05	0
lamp	1.6e-05	0
periodic	1.4000000000000001e-05	0
tomorrow	2.8000000000000003e-05	0
positive	0.00028199999999999997	0
lane	6e-06	0
coordination	0.000157	0
questioner	2.6000000000000002e-05	0
animation	4.3e-05	0
microprocessor	6e-06	1
employee	6.1e-05	0
suck	0.00011499999999999999	0
require	0.000872	0
electrical	2.1e-05	0
clarity	5.1e-05	0
rider	6e-06	0
processing	0.000662	1
recipient	3.2e-05	0
form	0.0017649999999999999	0
optimisation	2.6000000000000002e-05	1
dialect	8.8e-05	0
table	0.0005009999999999999	0
type	0.002121	0
keyboard	7.3e-05	0
conditioning	6.4e-05	0
matrix	0.000275	0
consonant	0.000218	0
transformation	0.000294	1
gig	8e-06	0
crude	3.5e-05	0
disease	0.000147	0
forty	2.1e-05	0
collation	8e-06	0
education	4.8e-05	0
animal	9.1e-05	0
input	0.000977	0
customization	3.3e-05	1
shopping	2.1e-05	0
manipulation	7.5e-05	0
fluency	3.4e-05	0
acceptable	0.000162	0
parallelization	7.000000000000001e-06	1
county	1.7e-05	0
target	0.000598	0
chad	5e-06	0
observation	0.000263	0
counterpart	9.7e-05	0
payoff	1.2e-05	0
gazetteer	7.900000000000001e-05	1
salient	0.000127	0
peak	5e-05	0
association	0.000341	0
ending	7e-05	0
squirrel	6e-06	0
interrogative	5.7999999999999994e-05	0
surveillance	8e-06	1
book	0.000308	0
argumentation	4.3e-05	1
difficult	0.000346	0
former	0.000173	0
budget	1.4000000000000001e-05	0
telephone	0.000156	0
easily	0.000305	0
sarcasm	7.000000000000001e-06	0
poetry	1.1e-05	0
gender	0.000145	0
diabetes	1.4000000000000001e-05	0
illustration	7.5e-05	1
happen	0.00019099999999999998	0
subordinate	0.000128	0
formation	0.000124	0
stone	3.6e-05	0
probability	0.0008880000000000001	1
concreteness	1.6e-05	1
movie	6.7e-05	0
plot	8e-05	0
infancy	8e-06	0
thesaurus	0.00019099999999999998	1
initialization	3.9e-05	0
topiary	5e-06	0
geneticist	6e-06	0
bash	5e-06	0
vertex	0.00010400000000000001	1
specialization	6.2e-05	0
adopt	0.000277	0
estimation	0.000205	1
spite	5.3e-05	0
debt	5.7999999999999994e-05	0
categorisation	1.9e-05	1
arithmetic	2.6000000000000002e-05	0
chien	6e-06	0
file	0.00034500000000000004	0
spa	6e-06	0
leaf	0.000134	1
fourth	0.00010400000000000001	0
tuning	3.9e-05	1
emergence	1.7e-05	0
limb	1.2e-05	0
soler	7.000000000000001e-06	0
neun	6e-06	0
lexicon	0.000709	1
typography	6e-06	1
kick	3.8e-05	0
segmented	0.00011100000000000001	0
meaningful	0.00013000000000000002	0
passive	0.000161	0
contra	5e-06	0
accept	0.00027400000000000005	0
structure	0.0017829999999999999	0
fulltime	5e-06	0
estimating	5e-06	0
george	7.000000000000001e-06	0
discipline	4.9e-05	1
hedge	1.3000000000000001e-05	0
impinge	6e-06	0
know	0.000802	0
environment	0.000335	0
hull	5e-06	0
adherence	8e-06	0
canonical	0.000135	0
comparison	0.000401	0
effort	0.000356	0
earley	5e-06	0
person	0.000502	0
represent	0.001075	0
collaboration	5.2000000000000004e-05	0
info	2.7000000000000002e-05	0
slang	1e-05	1
completely	0.00021600000000000002	0
rouge	7.000000000000001e-06	0
recently	0.000213	0
refining	1.4000000000000001e-05	0
action	0.0007610000000000001	0
create	0.000587	0
intersection	0.000124	0
orthographic	0.00011200000000000001	0
approach	0.001232	1
floor	3.5e-05	0
drain	1e-05	0
novel	0.000164	0
actual	0.000283	0
scale	0.000242	0
normalization	0.000127	1
interest	0.000308	0
covered	1.1e-05	0
price	9.8e-05	0
trial	0.00010700000000000001	0
toot	6e-06	0
nodes	5e-06	0
posterior	7.2e-05	1
forecasting	6e-06	1
syntactically	0.000192	0
extensibility	2e-05	0
analogy	0.00011100000000000001	1
desk	2.3e-05	0
opaque	2.8999999999999997e-05	0
dimensionality	4.9e-05	1
hopefully	3.9e-05	0
standard	0.000458	0
straightforward	0.00015800000000000002	0
homomorphism	2e-05	1
extreme	6.7e-05	0
glare	5e-06	0
needed	5e-06	0
destination	8.7e-05	0
presence	0.00020299999999999997	0
awe	6e-06	0
rap	5e-06	0
select	0.000509	0
benchmark	6.4e-05	1
business	0.00010700000000000001	0
hardware	6.7e-05	1
stern	5e-06	0
complete	0.000421	0
coordinative	7.000000000000001e-06	0
capital	7.3e-05	0
assay	5e-06	0
abbreviation	0.00014199999999999998	1
ned	5e-06	0
inverse	7.6e-05	0
passage	0.000156	1
bake	2.2e-05	0
nss	7.000000000000001e-06	0
ideogram	7.000000000000001e-06	0
inspection	6.1e-05	0
health	3.8e-05	0
champ	6e-06	0
structured	0.00011499999999999999	0
triage	1.2e-05	0
corner	5.6999999999999996e-05	0
terrier	5e-06	0
consortium	1.4999999999999999e-05	0
four	6e-06	0
polish	2.8000000000000003e-05	0
capture	0.000308	0
uniqueness	4e-05	0
history	0.00020899999999999998	0
tipster	6e-06	0
crane	2.4e-05	0
attack	0.00014	0
accordance	6.4e-05	0
spatial	0.000134	0
honorific	3.7e-05	0
fire	0.000124	0
generator	0.000251	0
conclude	0.000184	0
average	0.000344	0
difficulty	0.000587	0
scope	0.000281	0
hmm	5.9e-05	0
misc	5e-06	0
advice	7.2e-05	0
address	0.00033999999999999997	0
fully	0.000259	0
apt	1.7e-05	0
forest	0.000128	1
biochemistry	5e-06	0
presupposition	0.000138	1
house	0.000199	0
tie	0.000125	0
doc	1.9e-05	0
tokens	5e-06	1
press	8.499999999999999e-05	0
string	0.0007610000000000001	0
proposed	2.6000000000000002e-05	0
care	0.00011599999999999999	0
strum	5e-06	0
breathiness	5e-06	1
generative	0.000168	0
circumstance	9.7e-05	0
governor	4.8e-05	1
matching	0.000166	1
bankruptcy	1e-05	0
teaching	5.7999999999999994e-05	1
width	5.3e-05	0
ostrich	6e-06	0
pause	0.000144	1
literal	0.00014	0
valency	8.7e-05	1
membership	7.6e-05	0
encyclopaedia	6e-06	1
umbrage	6e-06	0
screening	5e-06	1
vague	6.500000000000001e-05	0
rate	0.000492	0
domain	0.0010869999999999999	0
previous	0.000556	0
exposition	3.1e-05	0
navigation	4.9e-05	1
nit	6e-06	0
haus	5e-06	0
superordinate	3.2e-05	0
recognizer	0.000231	1
phonemes	1.3000000000000001e-05	1
submatrix	8e-06	0
jargon	1.6e-05	0
incomplete	0.00013000000000000002	0
comparable	0.000173	0
goverment	6e-06	0
expect	0.00048499999999999997	0
accentuation	1.7e-05	0
tome	5e-06	0
assumption	0.000363	0
significantly	0.00024700000000000004	0
third	0.00029	0
explanation	0.000276	0
division	0.000118	0
starting	6e-06	0
opposite	7.4e-05	0
corpora	1e-05	1
illustrator	6e-06	0
retrieval	0.000391	0
linguist	0.00018700000000000002	1
motivated	5.6000000000000006e-05	0
assist	8e-05	0
linearization	3.2e-05	1
adore	1.4000000000000001e-05	0
phonological	0.000188	0
negation	0.00014099999999999998	1
gain	0.00021600000000000002	0
questionnaire	4.9e-05	1
speculation	1.4000000000000001e-05	0
reduction	0.000239	0
recovery	8.9e-05	0
consensus	6.7e-05	0
exhibition	1.1e-05	0
analyst	0.00017900000000000001	0
repeated	5e-06	0
enquire	5e-06	0
rainfall	9e-06	0
starch	5e-06	0
derivation	0.000357	1
coalescence	5e-06	0
turmeric	7.000000000000001e-06	0
audience	5.6000000000000006e-05	0
score	0.000849	0
potentially	0.000171	0
efficient	0.000259	0
underlying	6.3e-05	0
joe	6e-06	0
deterministic	0.000122	0
deception	6e-06	0
transcript	0.000124	1
forsyth	5e-06	0
participle	8.1e-05	0
conclusion	0.000357	0
stimulate	2.5e-05	0
streak	1.1e-05	0
abduction	2.8000000000000003e-05	1
lubrication	5e-06	0
actor	0.00014199999999999998	0
converse	2.9999999999999997e-05	0
longdistance	6e-06	0
windshield	1.1e-05	0
connection	0.000261	0
synchronisation	7.000000000000001e-06	1
ultima	6e-06	0
kita	5e-06	0
collocate	5.9e-05	1
thinking	2e-05	0
identification	0.000307	1
digression	1.6e-05	0
formed	5e-06	0
connecter	5e-06	0
cartographic	6e-06	0
wick	5e-06	0
situation	0.000458	0
assessment	0.000121	0
beginning	0.00016299999999999998	0
domains	5e-06	0
testability	5e-06	0
correlation	0.00023199999999999997	1
acquire	0.00023199999999999997	0
acceptance	7.900000000000001e-05	0
integrated	3.8e-05	0
homology	5e-06	0
overtake	1e-05	0
welsh	5e-06	0
visualization	5.5e-05	1
overhead	5.6000000000000006e-05	0
school	0.000126	0
greet	2e-05	0
tree	0.001275	1
pronunciation	0.000177	1
national	4.6e-05	0
prediction	0.000307	0
yang	4.8e-05	0
door	0.000106	0
project	0.000617	0
honesty	5e-06	0
normalized	8.4e-05	0
distributional	0.000121	0
wide	0.0002	0
weight	0.000407	0
site	0.000223	0
converge	8e-05	0
senten	5e-06	0
architecture	0.00029	0
smile	1.8e-05	0
sand	9e-06	0
bathroom	1.1e-05	0
localization	2.5e-05	1
modeling	0.000193	1
archival	7.000000000000001e-06	0
animate	9.4e-05	0
employment	2.6000000000000002e-05	0
everyone	3.7e-05	0
size	0.000508	0
remain	0.00042699999999999997	0
expectation	0.00021	0
nouns	6e-06	1
caw	5e-06	0
lingual	9e-06	0
hand	0.00048300000000000003	0
debug	4.6e-05	0
gold	0.000123	0
improving	2.6000000000000002e-05	0
standardization	2.2e-05	1
swale	5e-06	0
reader	0.000239	0
homonymy	1.9e-05	1
spoke	8e-06	0
test	0.001005	0
accented	2.9999999999999997e-05	0
bushel	5e-06	0
estimate	0.000386	0
kanji	4.1e-05	1
symbol	0.000522	1
hometown	5e-06	0
exact	0.00018	0
property	0.0006730000000000001	0
inhomogeneity	5e-06	0
capitalization	6.3e-05	1
vector	0.000364	0
strategy	0.000552	0
migraine	9e-06	0
lemma	0.000157	1
provide	0.001198	0
typically	0.000309	0
energy	0.00010800000000000001	0
worse	0.000125	0
typicality	2.4e-05	0
elicit	6.6e-05	0
suggested	7.000000000000001e-06	0
diagnosis	5.3e-05	0
proof	0.00021600000000000002	0
ferret	6e-06	0
introduce	0.000535	0
uncle	1.3000000000000001e-05	0
ente	5e-06	0
remedy	2.9999999999999997e-05	0
letter	0.000295	0
rare	0.000123	0
unit	0.000644	0
hindsight	5e-06	0
neighborhood	7.900000000000001e-05	0
corder	6e-06	0
correctness	0.00010800000000000001	0
rhyme	1.8e-05	0
alien	7.000000000000001e-06	0
benchmarking	6e-06	0
intelligent	9.6e-05	0
fact	0.000867	1
timeline	1.6e-05	0
frequent	0.00024300000000000002	0
calendar	6.2e-05	0
patent	7.6e-05	1
cell	0.000184	0
formalism	0.00034500000000000004	1
programming	0.000205	0
industry	7.2e-05	0
conversation	0.000315	1
transposition	1.7e-05	1
strongly	0.000172	0
normal	0.00022200000000000003	0
incidental	6e-06	0
splice	9e-06	0
indirect	0.000134	0
pipelining	5e-06	1
networking	5e-06	1
hybridization	6e-06	1
account	0.00043099999999999996	0
similitude	1.2e-05	0
clinical	5.7999999999999994e-05	0
silence	5.3e-05	1
reflexivity	6e-06	1
subset	0.000327	0
interpolation	7e-05	1
uncertainty	0.00011200000000000001	0
ripe	1.1e-05	0
particle	0.00018	1
trailer	6e-06	0
thanks	0.000139	0
augmentative	6e-06	0
perception	8.3e-05	0
sociology	1e-05	1
buffer	6.500000000000001e-05	1
therapy	3.8e-05	0
recommendation	4.6e-05	0
transport	2.7000000000000002e-05	0
decoder	0.0001	1
shutter	5e-06	0
transition	0.000317	0
separately	0.000146	0
rent	2.9999999999999997e-05	0
rhetoric	2.2e-05	0
ser	9e-06	0
insertion	0.000123	0
complexity	0.00032	0
plural	0.000157	0
flexibility	0.00011200000000000001	0
transportable	1.7e-05	0
subject	0.0006259999999999999	0
possing	5e-06	0
color	0.000165	0
querying	1e-05	1
newspaper	0.00018700000000000002	0
combined	2.4e-05	0
bagging	1e-05	1
corp	5e-06	0
variability	7.4e-05	0
soccer	1.6e-05	0
universe	5e-05	0
lead	0.00041900000000000005	0
counter	3.9e-05	0
gel	8e-06	0
projection	0.000138	1
brow	6e-06	0
factor	0.000389	0
delivery	3.4e-05	0
output	0.000715	0
cure	9e-06	0
promising	0.00011200000000000001	0
heaviness	5e-06	0
content	0.000408	0
synonymy	7.900000000000001e-05	1
discrimination	9.300000000000001e-05	0
audio	9e-05	0
causation	3.1e-05	0
predicate	0.00042199999999999996	0
wood	3.2e-05	0
simpler	0.000129	0
develop	0.000817	0
interpreter	0.000131	1
noun	0.0015480000000000001	0
precede	0.000297	0
shop	2.7000000000000002e-05	0
assoc	5e-06	0
likelihood	0.00023799999999999998	1
task	0.001092	0
folk	1.3000000000000001e-05	0
layering	6e-06	0
checking	8.7e-05	0
hidden	0.000105	0
interactive	0.000182	0
format	0.000305	0
explore	0.000244	0
linen	5e-06	0
traditional	0.000225	0
testing	0.000236	0
best	0.0005059999999999999	0
layout	5.9999999999999995e-05	0
great	0.000188	0
dagan	5e-06	0
poss	3.1e-05	0
heterogeneousness	5e-06	1
metathesis	8e-06	0
church	2.8999999999999997e-05	0
uni	1.4999999999999999e-05	0
han	1.6e-05	0
flat	9.8e-05	0
korean	0.00010400000000000001	0
agriculture	8e-06	0
suffix	0.00025699999999999996	1
automatically	0.00042699999999999997	0
tobacco	2e-05	0
status	0.000205	0
request	0.000331	0
partitioning	4.7e-05	1
lexeme	0.00015800000000000002	1
duration	0.000149	1
quant	2e-05	0
lacquer	5e-06	0
allure	1e-05	0
fall	0.00025	0
anybody	7.000000000000001e-06	0
freshman	7.000000000000001e-06	0
sound	0.000172	0
community	0.000174	1
cruse	5e-06	0
message	0.00045	1
bun	5e-06	0
write	0.0005200000000000001	0
glory	5e-06	0
tape	0.000102	0
epistemological	8e-06	0
regressor	6e-06	0
simultaneity	1.3000000000000001e-05	1
clothing	9e-06	0
anyone	4.2e-05	0
degradation	6.1e-05	0
snow	4.6e-05	0
personal	0.000182	0
title	0.00024300000000000002	0
disgust	5e-06	0
pharaoh	5e-06	0
eyebrow	7.000000000000001e-06	0
flute	6e-06	0
verifier	6e-06	0
interface	0.000421	0
policy	0.000123	0
subsequent	0.000185	0
explicit	0.000269	0
axis	7.7e-05	0
cutoff	5.4000000000000005e-05	1
surrounding	5e-06	0
programmer	5.2000000000000004e-05	0
fred	6e-06	0
buy	0.00011999999999999999	0
encyclopedia	5.5e-05	1
progress	0.000151	0
negotiation	7.3e-05	0
monitoring	2.2e-05	1
het	1.9e-05	0
ascent	1.1e-05	0
match	0.000586	0
percentage	0.00020299999999999997	0
second	0.000709	0
medical	0.000182	0
moon	2.8000000000000003e-05	0
gan	5e-06	0
technology	0.000288	1
commas	5e-06	0
checker	4.6e-05	1
multiple	0.000388	0
equipment	8e-05	0
instantiated	4.9e-05	0
utility	0.000129	0
advantage	0.000321	0
enthusiasm	7.000000000000001e-06	0
stay	5.4000000000000005e-05	0
recommend	6.500000000000001e-05	0
industrialization	5e-06	0
monomer	5e-06	0
depend	0.000383	0
lowest	0.00010700000000000001	0
contribution	0.00022200000000000003	0
lodge	5e-06	0
established	6e-06	0
essen	5e-06	0
running	1.2e-05	0
persuasion	7.000000000000001e-06	0
infrastructure	5.2000000000000004e-05	0
stem	0.000307	1
destin	5e-06	0
leary	6e-06	0
connectivity	4.4e-05	0
fragment	0.000333	0
succession	4.9e-05	0
contestation	5e-06	0
implementation	0.000396	1
oral	4.1e-05	0
communist	5e-06	0
developed	8e-06	0
objective	0.000167	0
pyx	5e-06	0
constituent	0.00045599999999999997	0
abbey	5e-06	0
party	8e-05	0
drudgery	5e-06	0
green	7.6e-05	0
recursion	8.9e-05	1
anterior	1.1e-05	0
distance	0.000491	0
query	0.000681	1
tactile	1.3000000000000001e-05	0
gravy	9e-06	0
examination	7.900000000000001e-05	0
existing	1.4000000000000001e-05	0
foot	0.000101	0
dar	5e-06	0
chart	0.00024300000000000002	0
dipper	1.4000000000000001e-05	0
push	0.0001	0
cowlick	5e-06	0
biking	6e-06	0
recognize	0.00045	0
modify	0.000381	0
review	0.000175	0
dagger	5e-06	0
feminine	4.4e-05	0
branching	6e-06	0
interval	0.00018700000000000002	0
intermediate	0.000164	0
statistic	8.3e-05	1
affect	0.000223	0
uptake	7.000000000000001e-06	0
similarity	0.000567	0
operation	0.000437	0
limited	0.00021400000000000002	0
source	0.000826	0
chemotherapy	5e-06	0
omission	7.2e-05	0
interlinear	7.000000000000001e-06	1
science	0.000134	0
obviously	0.00013700000000000002	0
coma	5e-06	0
verification	7.8e-05	0
random	0.000213	0
onethird	5e-06	0
cost	0.00033	0
sack	6e-06	0
exploit	0.00022400000000000002	0
attempt	0.00036899999999999997	0
brace	1.8e-05	0
headquarters	8e-06	0
view	0.000455	0
discussion	0.000443	0
equally	0.000143	0
referring	5e-06	0
claim	0.00025299999999999997	0
avoid	0.000344	0
mal	9e-06	0
priming	2.8000000000000003e-05	0
everybody	1.8e-05	0
recogniser	2.7000000000000002e-05	1
perfect	0.000131	0
identify	0.000755	0
scene	0.00013700000000000002	0
enrollment	9e-06	0
typical	0.000239	0
negative	0.000301	0
enrichment	2.3e-05	0
term	0.001497	1
proliferation	2.5e-05	0
declension	1.8e-05	0
treat	0.000335	0
drug	8.6e-05	0
disadvantage	7.3e-05	0
widespread	3.3e-05	0
bird	7.4e-05	0
belong	0.00035299999999999996	0
extraction	0.00044400000000000006	0
vow	5e-06	0
added	6e-06	0
wine	6.2e-05	0
anything	0.000103	0
diff	2.4e-05	0
ford	5e-06	0
inefficiency	2.2e-05	0
vegan	5e-06	0
chill	5e-06	0
conflict	0.000148	0
listening	6e-06	0
experience	0.000198	0
postal	9e-06	0
lang	6e-06	0
analysis	0.001174	0
balance	7.6e-05	0
equivalence	0.000168	0
resolve	0.00026000000000000003	0
orthography	5.4000000000000005e-05	1
hangup	6e-06	0
asian	2.5e-05	0
close	0.000261	0
detailed	0.000223	0
venture	5.6999999999999996e-05	0
worm	1.9e-05	0
truth	0.000129	0
definitional	4.3e-05	0
consistency	0.000152	0
arabic	5e-06	0
corporation	2.2e-05	0
influence	0.000176	0
dice	9e-06	1
stress	0.000246	1
iraq	1.3000000000000001e-05	0
incrementally	9.4e-05	0
hotel	7.099999999999999e-05	0
layer	0.000169	0
prognosis	7.000000000000001e-06	0
collection	0.00040300000000000004	0
flight	0.000195	0
pei	5e-06	0
conjunct	9.2e-05	1
lowercase	2.1e-05	0
coverage	0.000298	0
order	0.001236	0
extremely	0.00015800000000000002	0
turtle	6e-06	0
redundant	0.00011399999999999999	0
payment	2.2e-05	0
build	0.000592	0
tender	6e-06	0
cool	1e-05	0
conative	6e-06	0
electricity	1e-05	0
receptor	3.1e-05	0
romance	1.2e-05	0
derived	7.000000000000001e-06	0
der	0.00020299999999999997	0
jane	5e-06	0
ping	9e-06	0
browsing	2.2e-05	0
recharge	5e-06	0
assignment	0.00026000000000000003	0
editing	0.000109	1
traversal	6.8e-05	0
frazier	7.000000000000001e-06	0
bucket	4.7e-05	0
giant	1e-05	0
sumo	7.000000000000001e-06	0
exception	0.000175	0
accompaniment	6e-06	0
funding	2.2e-05	0
guessing	5e-06	0
preprocessor	5.6000000000000006e-05	1
somatotropin	7.000000000000001e-06	0
sire	1.8e-05	0
breakthrough	1.4999999999999999e-05	0
statistical	0.000425	0
expository	3.6e-05	0
publishing	1.2e-05	0
textual	0.000202	0
ongoing	8e-05	0
drawing	2.3e-05	0
proficient	9e-06	0
depart	4.8e-05	0
homonym	3.3e-05	1
describe	0.001231	0
expressiveness	2.8000000000000003e-05	0
everything	6.8e-05	0
direct	0.000371	0
acknowledge	8.6e-05	0
goggle	7.000000000000001e-06	0
bleu	5e-06	1
flare	8e-06	0
label	0.000805	0
ontological	9.9e-05	0
japanese	0.000391	0
measure	0.0007070000000000001	1
image	0.000226	0
ward	2e-05	0
enumeration	4.1e-05	0
sender	2e-05	0
amharic	6e-06	0
naturally	0.000148	0
quantification	8.2e-05	1
ding	8e-06	0
session	0.00020099999999999998	0
date	0.000226	0
construction	0.000562	0
hierarchical	0.000206	0
bill	4.7e-05	0
controller	5e-05	1
biology	3.8e-05	1
initiate	7.6e-05	0
applicable	0.000173	0
mouse	8.3e-05	0
merchandise	8e-06	0
boston	1.2e-05	0
possession	4.4e-05	0
trigger	0.000161	0
cinema	1.4000000000000001e-05	0
virtual	0.00010800000000000001	0
affiliate	7.000000000000001e-06	0
moment	0.000103	0
importation	5e-06	0
perl	9e-06	0
anger	2.8000000000000003e-05	0
laser	2.5e-05	0
leather	1.1e-05	0
occlusion	5e-06	0
failure	0.000196	0
intervention	5.9999999999999995e-05	0
modelling	6.7e-05	1
found	1.9e-05	0
potential	0.00028900000000000003	0
deductive	4.4e-05	0
argue	0.000277	0
move	0.00033999999999999997	0
curve	0.000168	0
optimism	6e-06	0
leading	1.2e-05	0
product	0.000288	0
imbalance	1.6e-05	0
quantifier	0.000206	1
required	4.8e-05	0
iterate	5e-05	0
spelling	0.00011	1
sample	0.00041500000000000006	0
independently	0.000166	0
baker	7.000000000000001e-06	0
free	0.000239	0
analyzing	1e-05	0
testa	6e-06	0
effect	0.000597	0
religion	3.8e-05	0
head	0.000582	0
principle	0.00038500000000000003	0
planar	1.1e-05	0
englishman	5e-06	0
gale	7.000000000000001e-06	0
package	0.00010400000000000001	0
semiconductor	1.1e-05	1
story	0.000303	0
boll	5e-06	0
sisterhood	7.000000000000001e-06	0
directness	5e-06	0
viewpoint	0.000102	0
foster	1.3000000000000001e-05	0
carpenter	8e-06	0
server	0.00015	1
combination	0.00047999999999999996	0
partially	0.000234	0
writing	8.2e-05	0
record	0.00028900000000000003	0
marketing	1.2e-05	1
maximum	0.000268	0
solve	0.000297	0
syntax	0.000343	1
decrease	0.000177	0
cessing	6e-06	0
corpse	5e-06	0
initiative	0.000121	0
stat	6e-06	0
training	0.0009710000000000001	1
generalization	0.00022200000000000003	0
significance	0.000152	0
warrant	4.4e-05	0
society	2.8999999999999997e-05	0
bias	0.000173	1
generate	0.000951	0
plausible	0.000145	0
accommodation	4.7e-05	0
broadcast	7.6e-05	0
singer	8e-06	0
gradability	9e-06	1
mathematics	2.8999999999999997e-05	1
apposition	4.6e-05	0
deposit	2e-05	0
design	0.000496	0
monologue	3.4e-05	1
paragraph	0.000258	1
literature	0.00021	0
statistics	0.000207	1
consistent	0.000217	0
gram	5.3e-05	0
insect	2.3e-05	0
inside	0.000135	0
tulip	5e-06	0
case	0.0018399999999999998	1
assume	0.000575	0
priority	0.000175	0
relay	7.000000000000001e-06	0
beetle	6e-06	0
relevance	0.00018999999999999998	0
vegetable	1.9e-05	0
empirical	0.000205	0
writer	0.00015900000000000002	0
stand	0.000154	0
airline	5.1e-05	0
infer	0.00026000000000000003	0
latin	1.4000000000000001e-05	0
singular	0.000522	0
carcinoma	1.2e-05	0
headword	8.9e-05	0
understatement	5e-06	0
computerized	2.8999999999999997e-05	0
alteration	3.4e-05	0
organise	4.1e-05	0
early	0.00018700000000000002	0
uniform	0.000125	0
density	0.000103	0
kid	1.9e-05	0
hough	5e-06	0
protein	0.00018	0
planning	0.000175	0
sense	0.00086	0
assistance	6.7e-05	0
ambiguous	0.000328	0
lemmas	5e-06	0
learning	0.000276	1
dancer	1e-05	0
finally	0.000356	0
etiology	5e-06	1
discontinuity	4.5e-05	0
unbounded	7.4e-05	0
rank	0.000223	0
algorithm	0.001542	1
monolingual	0.000135	0
attendant	9e-06	0
briefly	0.000118	0
sparseness	7.8e-05	0
make	0.0020629999999999997	0
hypothesis	0.000393	1
classical	0.000105	0
resource	0.000408	0
macintosh	5e-06	0
denotation	9.4e-05	1
abatement	6e-06	0
classified	3.1e-05	0
preparation	6.3e-05	0
reporting	2e-05	1
restricted	5e-05	0
clear	0.000295	0
sequence	0.0007469999999999999	0
paging	8e-06	0
gate	2.8000000000000003e-05	0
inventory	9.9e-05	0
showing	5e-06	0
valid	0.000193	0
reservation	4e-05	0
representative	0.000113	0
amount	0.000365	0
full	0.000377	0
probabilistic	0.000236	0
variance	9.1e-05	0
morning	5.1e-05	0
binary	0.000218	0
predicative	8.2e-05	0
swoop	6e-06	0
spotter	1e-05	1
reduced	3.9e-05	0
graphical	0.000139	0
affirm	8e-06	0
rill	5e-06	0
confusable	2e-05	0
vietnam	5e-06	0
internationalization	6e-06	0
sequent	4e-05	0
dass	8e-06	0
calculator	1.1e-05	0
kana	2.5e-05	0
medium	6.500000000000001e-05	0
introductory	2.7000000000000002e-05	0
demonstrate	0.000291	0
newscaster	5e-06	0
feasibility	5.9999999999999995e-05	0
prism	5e-06	0
angina	5e-06	0
classify	0.00037999999999999997	0
editor	9.7e-05	0
categorization	0.000127	1
error	0.0009119999999999999	0
information	0.002522	0
expected	4.1e-05	0
limitation	0.000162	0
documentation	8.8e-05	0
less	0.000475	0
setting	0.000168	0
diaeresis	5e-06	0
rite	1.9e-05	0
mapping	0.000297	1
exploratory	2.4e-05	0
irony	1.7e-05	0
slope	4.7e-05	0
spanish	0.000171	0
dutch	0.00011399999999999999	1
cyclic	4.5e-05	0
tiger	1.3000000000000001e-05	0
explosion	6.6e-05	0
endorsement	1.4000000000000001e-05	0
question	0.0011330000000000001	0
preferred	7.3e-05	0
love	8.1e-05	0
positional	6.1e-05	0
oar	6e-06	0
circumstantiate	5e-06	0
practice	0.00020899999999999998	0
levy	5e-06	0
kindness	6e-06	0
reuse	6.500000000000001e-05	0
approximation	0.00016	1
infixation	8e-06	1
range	0.000439	0
differ	0.000327	0
causative	5.7999999999999994e-05	0
concatenation	8.7e-05	0
formulae	5e-06	0
background	0.00020800000000000001	0
physics	5.2000000000000004e-05	0
randomized	6e-06	0
associative	6.9e-05	0
baseline	0.000248	0
convergence	6.9e-05	1
world	0.00035	0
clinton	9e-06	0
imprecise	1.7e-05	0
whatever	7.000000000000001e-06	0
outset	1.8e-05	0
standing	2.4e-05	0
buying	8e-06	0
welfare	5e-06	0
censor	5e-06	0
global	0.000244	0
lookout	1.9e-05	0
portion	0.000217	0
fairness	6e-06	0
norm	6.9e-05	1
imagery	1.7e-05	0
secrecy	5e-06	0
inhibit	3.2e-05	0
travel	0.00013000000000000002	0
clause	0.000858	0
skimmer	6e-06	1
proposal	0.00023199999999999997	0
onto	0.000173	0
worldwide	9e-06	0
high	0.000518	0
york	5e-06	0
intention	0.000218	1
decide	0.000334	0
overfitting	2.5e-05	0
simulator	2.7000000000000002e-05	1
subtraction	2.2e-05	0
catalan	8e-06	1
capacity	0.0001	0
acoustic	0.000204	0
substructure	6.6e-05	0
bistro	5e-06	0
dirt	6e-06	0
ultra	6e-06	0
hereafter	3.1e-05	0
essential	0.000166	0
weighted	0.000167	0
deliberation	1.1e-05	0
definition	0.000678	0
locality	7.6e-05	0
weather	0.00011100000000000001	0
skeleton	5.3e-05	0
restriction	0.00039	0
brew	5e-06	0
base	0.001253	0
confess	5e-06	0
breadth	2.4e-05	0
french	0.000275	1
tagging	0.000225	1
quantity	0.000124	0
deletion	0.000136	0
subscript	2.9999999999999997e-05	0
texture	9e-06	0
eager	1.1e-05	0
certainty	7e-05	0
vocabulary	0.000323	1
usability	4.4e-05	1
increase	0.00041600000000000003	0
trace	0.00015900000000000002	0
significant	0.000368	0
past	0.00024700000000000004	0
logical	0.000459	0
hearer	0.000221	0
mutual	0.000215	0
esp	6e-06	0
necessarily	0.0002	0
comprehend	2.6000000000000002e-05	0
polygon	1.2e-05	0
original	0.00042	0
semantics	0.00048600000000000005	0
release	7.900000000000001e-05	0
accessibility	4.7e-05	0
reflexive	6.1e-05	0
atom	9.2e-05	0
smith	1.3000000000000001e-05	0
ownership	1.6e-05	0
operator	0.000346	0
mono	8e-06	0
adept	5e-06	0
segment	0.000531	0
tax	4.2e-05	0
fabrication	1e-05	0
centering	5e-06	0
backbone	5e-05	0
sharing	6.3e-05	0
voyager	5e-06	0
read	0.000366	0
yell	1e-05	0
prostate	5e-06	0
transliteration	9.8e-05	1
cross	0.000165	0
state	0.001097	0
identifier	0.00011999999999999999	0
retina	5e-06	0
mortality	1.9e-05	0
democracy	2.1e-05	0
directly	0.000404	0
shirai	8e-06	0
square	0.000103	0
voice	0.000226	0
sector	1.2e-05	0
parameter	0.000504	0
shared	2.5e-05	0
core	0.000164	0
prosodic	0.00021099999999999998	0
calculation	0.00011899999999999999	0
member	0.00032	0
birth	2.8000000000000003e-05	0
pivot	5.9e-05	0
kind	0.00059	0
lees	5e-06	0
phrasing	7.7e-05	1
procedural	9.300000000000001e-05	0
part	0.001139	0
rejection	5.9e-05	0
menu	9.2e-05	0
designation	2e-05	0
logarithm	2.8999999999999997e-05	0
important	0.000557	0
edit	0.000152	0
achieve	0.000504	0
morph	6.2e-05	1
qualia	5e-06	0
field	0.000439	0
structuralist	5e-06	1
corresponds	5e-06	0
body	0.00018600000000000002	0
distin	5e-06	0
civilian	1.6e-05	0
asthma	1.2e-05	0
merge	0.000259	0
delegation	5e-06	0
analytical	4.3e-05	0
confusion	0.000113	0
subjective	0.00013700000000000002	0
fiction	3.7e-05	0
microphone	0.00013700000000000002	0
facility	0.00014199999999999998	0
rugby	8e-06	0
las	8e-06	0
protection	2.2e-05	0
acceptability	6.1e-05	0
highest	0.000234	0
browser	5.3e-05	1
recent	0.000266	0
indentation	8e-06	0
efficiency	0.000202	0
plausibility	8.3e-05	0
home	8.6e-05	0
planner	0.00015900000000000002	1
figure	0.002136	0
hospital	3.1e-05	0
human	0.00072	0
equivalent	0.00025299999999999997	0
pool	8.6e-05	0
fashion	0.00014	0
pilot	9.7e-05	0
repetition	0.00011399999999999999	0
alfresco	5e-06	0
author	0.00045999999999999996	0
mayonnaise	5e-06	0
comet	5e-06	0
networked	7.000000000000001e-06	0
mesh	1.8e-05	1
bracket	0.00020899999999999998	0
institute	1.2e-05	0
priori	8.3e-05	1
crawling	6e-06	1
pronouncer	6e-06	1
commentary	2.7000000000000002e-05	0
minimisation	6e-06	0
phone	0.00020899999999999998	0
margin	8.3e-05	0
reported	5e-06	0
fast	0.000148	0
summing	5e-06	0
expertise	7.2e-05	0
standalone	1.2e-05	0
affaire	7.000000000000001e-06	0
salience	0.000129	0
grant	0.00014099999999999998	0
convenience	3.9e-05	0
laugh	1.8e-05	0
contract	8.1e-05	0
concatenate	5.3e-05	0
japan	5e-06	0
semantic	0.0013570000000000001	1
sib	6e-06	0
repair	0.00018899999999999999	1
ternary	1.8e-05	0
disjoint	7.5e-05	0
angle	5.6999999999999996e-05	0
follow	0.001077	0
provenience	5e-06	0
dispenser	5e-06	1
beween	5e-06	0
reality	6.500000000000001e-05	0
necessitate	3.5e-05	0
adjacent	0.00018899999999999999	0
natural	0.000731	0
management	0.000149	0
turn	0.000392	0
exon	5e-06	0
analyze	0.000399	0
circuit	6.9e-05	0
development	0.00048600000000000005	0
processed	5e-06	0
realizer	3.3e-05	0
middle	8.6e-05	0
parsed	6.6e-05	0
housing	1.4000000000000001e-05	0
agency	0.000102	0
imperfective	1.7e-05	0
humor	3.3e-05	0
bonding	5e-06	0
bank	0.00018	0
goodness	3.2e-05	0
yesterday	7.099999999999999e-05	0
quadruple	2.2e-05	0
backtracking	2.4e-05	1
kaku	5e-06	0
summarizer	5.9999999999999995e-05	1
grapheme	6.2e-05	1
name	0.0015949999999999998	0
comparision	6e-06	0
poetic	1.1e-05	0
lection	7.000000000000001e-06	0
turnip	6e-06	0
etiquette	5e-06	0
manner	0.00023799999999999998	0
contact	8.6e-05	0
smart	1.7e-05	0
garden	4.9e-05	0
neigh	5e-06	0
manager	0.00015	0
dialog	0.000259	1
concern	0.000399	0
inexact	1.2e-05	0
survey	8.8e-05	0
naive	0.00013700000000000002	0
mispronunciation	6e-06	0
placement	6.7e-05	0
loop	0.00010700000000000001	0
homeland	5e-06	0
lexicography	2.8000000000000003e-05	1
distinction	0.000349	0
overt	4.6e-05	0
period	0.000178	0
idiom	0.00014099999999999998	1
motion	0.000101	0
blackboard	3.2e-05	0
critical	0.000133	0
ship	0.000123	0
encoder	2.4e-05	1
power	0.000245	0
bilingual	0.000251	0
glaucoma	1e-05	0
strong	0.000291	0
rob	1.8e-05	0
broom	6e-06	0
employ	0.00028700000000000004	0
auf	3.3e-05	0
transliterator	5e-06	1
credit	6.4e-05	0
sty	5e-06	0
script	0.00016299999999999998	0
upper	0.000181	0
addressee	7.5e-05	0
hospitality	5e-06	0
country	0.00021	0
elaborated	1.6e-05	0
learn	0.000736	0
plateau	1.6e-05	0
decision	0.00048499999999999997	0
plum	8e-06	0
contribute	0.000223	0
anchor	0.00016	1
shake	1.1e-05	0
distributed	5e-06	0
reading	0.000315	1
debugging	2.2e-05	1
informative	0.000126	0
taro	9e-06	0
pronominalization	4e-05	1
advertising	2.1e-05	0
augmented	6.500000000000001e-05	0
initially	0.000146	0
annotated	0.00018999999999999998	0
ord	5e-06	0
scholar	1.4999999999999999e-05	0
revolutionary	6e-06	0
sufficient	0.00021400000000000002	0
rede	5e-06	0
hypotheses	6e-06	1
larger	0.000307	0
alternative	0.000321	0
diathesis	2e-05	0
immunodeficiency	5e-06	0
expand	0.000245	0
generalisation	7.2e-05	1
enhance	0.000138	0
thought	4.6e-05	0
automatic	0.00038700000000000003	0
episode	4.4e-05	0
apple	9.300000000000001e-05	0
percent	0.000135	0
supervision	3.7e-05	0
distribution	0.000546	1
mad	2e-05	0
link	0.000592	0
citation	0.00015800000000000002	1
morphemes	5e-06	1
precedence	0.000106	0
incidence	2e-05	0
perform	0.000715	0
star	5.9e-05	0
ability	0.000279	0
grouping	7.099999999999999e-05	1
height	4.1e-05	0
bootstrap	5e-05	1
normalizing	9e-06	0
condensation	1.4000000000000001e-05	0
sleep	4.7e-05	0
hard	0.00018600000000000002	0
candle	1.8e-05	0
market	0.00013700000000000002	0
conductor	1.3000000000000001e-05	0
system	0.005187	0
clerk	2e-05	0
collocation	0.00026000000000000003	1
paramount	9e-06	0
restraint	5e-06	0
predication	8.7e-05	0
accent	0.000139	1
client	8.4e-05	0
conditional	0.000195	0
poor	0.000122	0
rood	9e-06	0
center	0.000246	0
append	5.7999999999999994e-05	0
indefinite	0.000101	0
repository	6.4e-05	0
native	0.00014	0
stability	4.1e-05	0
goal	0.000753	0
cache	9.2e-05	1
lowe	5e-06	0
defaulter	5e-06	0
breakfast	1.1e-05	0
paul	5e-06	0
communicator	9e-06	1
gather	9.8e-05	0
ellipsis	0.000145	1
transducer	0.000207	1
exploration	6.8e-05	0
atomic	0.00013700000000000002	0
phoneme	0.000217	1
pre	5e-06	0
recognition	0.000681	1
applicability	0.00010700000000000001	0
movement	0.000174	0
micron	8e-06	0
doom	7.000000000000001e-06	0
contrary	6.7e-05	0
flex	7.000000000000001e-06	0
functional	0.000254	0
semantically	0.00025	0
discovery	0.000106	0
extended	0.000133	0
compositional	0.00010800000000000001	0
precondition	0.00010400000000000001	0
bonus	4.1e-05	0
nobody	1.7e-05	0
circulation	6e-06	0
load	0.000124	0
nitrogen	1.7e-05	0
incoherence	1.8e-05	0
interaction	0.000425	0
sake	6.2e-05	0
usage	0.000221	0
compose	0.000215	0
psutka	5e-06	0
website	3.3e-05	0
loot	5e-06	0
frequency	0.0005610000000000001	0
reasoning	0.000246	1
hearsay	1e-05	0
raising	2.5e-05	0
northern	1.1e-05	0
minimum	0.000135	0
henceforth	6.3e-05	0
proceedings	4e-05	0
limit	0.000292	0
strand	1.7e-05	0
divergence	0.000102	0
conformance	8e-06	0
isolation	6.7e-05	0
discuss	0.000551	0
ninth	6e-06	0
lug	5e-06	0
kinase	1.8e-05	0
filter	0.00034700000000000003	0
realisation	5.6999999999999996e-05	0
external	0.000157	0
evidence	0.000414	0
statement	0.000292	0
entity	0.0007610000000000001	0
approximately	0.000198	0
sport	6.6e-05	0
prep	4.2e-05	0
smuggling	5e-06	0
animated	1.8e-05	0
incremental	0.000164	0
prototype	0.000183	0
concerned	3.2e-05	0
longer	0.000194	0
wat	6e-06	0
immersion	5e-06	0
tracking	3.5e-05	0
sulcus	1.2e-05	0
gross	2e-05	0
define	0.000944	0
tumor	2e-05	0
trajectory	2.9999999999999997e-05	0
dynamic	0.000236	0
creation	0.000143	0
conference	0.000118	0
expression	0.000949	0
valiant	5e-06	0
inversion	5.7999999999999994e-05	0
automated	4e-05	0
machine	0.0006580000000000001	0
style	0.000256	1
simultaneously	0.000138	0
swim	2.4e-05	0
medicine	3.4e-05	0
forward	0.000132	0
interrogation	1e-05	0
aircraft	8.499999999999999e-05	0
structuring	4.4e-05	1
telephony	9e-06	0
morphology	0.00021	1
character	0.0007379999999999999	0
closest	0.000105	0
arise	0.00022999999999999998	0
completion	0.000113	0
distinguish	0.00035299999999999996	0
attribute	0.0005139999999999999	0
factorization	2.7000000000000002e-05	1
decomposition	0.000133	1
choice	0.000449	0
hypertext	4.8e-05	0
koto	1.8e-05	0
scoring	0.000129	1
appearance	8e-05	0
parenthesis	7.3e-05	0
extraversion	7.000000000000001e-06	0
sedan	6e-06	0
marcher	9e-06	0
night	4.3e-05	0
mnemonic	1.9e-05	0
simultaneous	6.2e-05	0
month	0.00014199999999999998	0
basque	7.000000000000001e-06	1
configurations	6e-06	0
chip	2.8000000000000003e-05	0
interruption	7.099999999999999e-05	0
detector	4.1e-05	0
reprise	9e-06	1
spoken	1.6e-05	0
proposition	0.000375	1
class	0.0013189999999999999	0
smaller	0.000212	0
accepted	6e-06	0
definiteness	4.3e-05	0
fish	8.499999999999999e-05	0
descriptor	0.000145	0
croatian	5e-06	1
explicitly	0.000252	0
collie	5e-06	0
recombination	1.1e-05	0
applause	5e-06	0
finance	2.8000000000000003e-05	0
involve	0.000616	0
compound	0.000299	0
simple	0.0006360000000000001	0
proximity	8.2e-05	0
transformations	8e-06	0
receiver	2.1e-05	0
chap	5e-06	0
increment	5.6000000000000006e-05	0
firefighting	5e-06	0
turkey	9e-06	0
simplification	8e-05	0
disallow	3.7e-05	0
consist	0.000603	0
opinion	0.000165	1
coding	0.00011999999999999999	1
correct	0.0006129999999999999	0
correspond	0.00048600000000000005	0
predicating	5e-06	0
edict	5e-06	0
minimal	0.00021600000000000002	0
answering	8.8e-05	0
descent	2.2e-05	0
attitude	0.00011	0
importance	0.000207	0
supplier	1.1e-05	0
lei	8e-06	0
variable	0.00044100000000000004	0
phenomenon	0.00037	0
accurate	0.00020099999999999998	0
linguistic	0.000816	1
similar	0.0008349999999999999	0
particular	0.000796	0
avenue	2.3e-05	0
flexible	0.000148	0
parse	0.00114	1
equation	0.00023999999999999998	0
device	0.00023700000000000001	1
orientation	0.000102	0
side	0.00035	0
generally	0.000317	0
appropriateness	5.9e-05	0
comp	3.2e-05	0
heavy	0.000128	0
mace	5e-06	0
voting	6.3e-05	1
william	7.000000000000001e-06	0
laughter	1.3000000000000001e-05	0
berry	1.4000000000000001e-05	0
morphological	0.00043799999999999997	0
frown	6e-06	0
relation	0.001791	1
vote	8.9e-05	0
visual	0.000138	0
causality	3.8e-05	1
oracle	5.6999999999999996e-05	1
subjectivity	5.1e-05	1
grill	5e-06	0
sextant	5e-06	0
morgen	8e-06	0
sentiment	8.3e-05	1
inference	0.000411	0
many	0.000924	0
utilise	2.9999999999999997e-05	0
abrasion	6e-06	0
ambush	1.4999999999999999e-05	0
formalize	9.1e-05	0
conjunction	0.000272	0
post	0.000113	0
neural	9.7e-05	0
attached	5e-06	0
keyhole	7.000000000000001e-06	0
mirroring	7.000000000000001e-06	0
jura	5e-06	0
matter	0.000184	0
prog	6e-06	0
plan	0.000543	0
distinct	0.000239	0
stimulus	7.2e-05	0
stochastic	0.000147	0
cant	4.3e-05	0
timber	5e-06	0
promotion	2.8000000000000003e-05	0
engineering	0.00011100000000000001	0
radiology	1.1e-05	0
online	0.000123	0
area	0.000496	0
digraph	1.9e-05	0
editorial	2.6000000000000002e-05	0
blot	6e-06	0
introduction	0.000359	0
winnow	7.000000000000001e-06	0
journal	5.6000000000000006e-05	0
hour	0.000153	0
transaction	6.1e-05	0
replace	0.000307	0
addiction	5e-06	0
satellite	0.000102	0
anode	9e-06	0
metamodel	6e-06	1
skimming	6e-06	1
pointer	0.000132	0
rule	0.002384	0
perplexity	0.00011399999999999999	1
traveller	7.000000000000001e-06	0
commonly	0.000139	0
response	0.000452	0
lifestyle	5e-06	0
deb	5e-06	0
babble	5e-06	0
wrapper	2.2e-05	1
metalanguage	2.5e-05	1
mani	9e-06	0
text	0.002499	1
whether	0.000608	0
scenario	0.000213	0
affix	0.000126	1
readable	5.7999999999999994e-05	0
ail	9e-06	0
street	5.4000000000000005e-05	0
consolidation	1.9e-05	0
immediately	0.000225	0
include	0.001805	0
vocalization	1.3000000000000001e-05	1
portuguese	9e-06	0
dependent	0.00024300000000000002	0
modality	0.000145	1
occurrence	0.000368	0
model	0.0023710000000000003	0
onset	6.500000000000001e-05	0
implement	0.000434	0
confirmation	8.7e-05	0
discourse	0.000865	1
verbs	9e-06	0
literalness	7.000000000000001e-06	0
insight	0.00011899999999999999	0
encoding	0.000125	1
schema	0.00028199999999999997	1
abstraction	0.000131	0
vary	0.000241	0
symmetrization	1e-05	1
frustration	1.2e-05	0
automation	3.8e-05	0
anemia	7.000000000000001e-06	0
ante	1.3000000000000001e-05	0
ratio	0.000221	0
incorrect	0.000226	0
spade	6e-06	0
difference	0.000547	0
unseen	0.00011999999999999999	0
combinability	6e-06	0
object	0.001175	0
household	9e-06	0
formal	0.0003	0
interested	0.000165	0
several	0.000675	0
ontology	0.000278	1
assigning	5e-06	0
oak	7.000000000000001e-06	0
approximate	0.000144	0
exchange	0.00011499999999999999	0
weighting	0.000145	1
arnold	9e-06	0
entre	4.5e-05	0
specialized	2.3e-05	0
solver	4.7e-05	0
ins	6e-06	0
morgan	5e-06	0
conciseness	1.8e-05	0
terminative	6e-06	0
tendency	0.00011599999999999999	0
basis	0.00043099999999999996	0
improved	2.7000000000000002e-05	0
document	0.001151	1
utter	8.6e-05	0
confidence	0.000199	0
suitable	0.000199	0
focus	0.000504	0
scandal	5e-06	0
frequently	0.000248	0
representation	0.001048	0
scuba	5e-06	0
steal	2.2e-05	0
callan	5e-06	0
developer	0.00011899999999999999	0
dictionary	0.0008710000000000001	1
pattern	0.000962	0
automata	2.4e-05	1
participant	0.000301	0
stream	0.000136	0
wit	2.9999999999999997e-05	0
identity	0.000153	0
metal	3.8e-05	0
dans	5.9999999999999995e-05	0
passbook	6e-06	0
sophistication	2.7000000000000002e-05	0
highlight	0.00011399999999999999	0
sidewinder	2.4e-05	0
usual	0.00014	0
posy	8e-06	0
outline	0.000127	0
advanced	6.8e-05	0
unique	0.000248	0
evoked	1.1e-05	0
greater	0.000227	0
changed	5e-06	0
annotator	0.000241	1
averaging	1.4000000000000001e-05	0
waypoint	7.000000000000001e-06	0
administration	2.4e-05	0
cataloguing	5e-06	1
count	0.000375	0
teach	9.1e-05	0
methodology	0.000183	1
harvesting	5e-06	1
small	0.000534	0
shape	0.000175	0
circus	1e-05	0
note	0.00048499999999999997	0
creative	4.1e-05	0
bacterium	1.4000000000000001e-05	0
office	8.4e-05	0
substance	6.2e-05	0
intended	0.000118	0
deal	0.000315	0
amorphous	6e-06	0
admin	7.000000000000001e-06	0
glossary	3.2e-05	1
partial	0.000339	0
degree	0.00035299999999999996	0
look	0.000391	0
mass	0.000103	0
cosine	7.7e-05	0
capability	0.00021600000000000002	0
spot	4.7e-05	0
evaluate	0.000479	0
island	5.6000000000000006e-05	0
fraction	7e-05	0
concept	0.0008619999999999999	1
music	5e-05	0
premise	7.099999999999999e-05	0
keyword	0.000233	1
cation	0.00013700000000000002	0
food	0.00011999999999999999	0
mike	5e-06	0
faucet	6e-06	0
government	0.000195	0
macro	6.3e-05	0
detection	0.000225	0
absence	0.00014	0
essay	0.000109	1
walker	6e-06	0
finite	0.00023999999999999998	0
database	0.00055	1
stack	0.000239	0
summit	8e-06	0
convention	0.000128	0
column	0.000251	0
suggest	0.000531	0
drainage	2.1e-05	0
lattice	0.000215	1
empty	0.00023199999999999997	0
channel	0.00013000000000000002	0
sachet	6e-06	0
sort	0.000292	0
chat	5.9e-05	0
vat	7.000000000000001e-06	0
palatalization	9e-06	1
affricate	8e-06	0
large	0.000709	0
continental	6e-06	0
postprocessing	1.6e-05	1
kernel	0.000196	1
relaxation	7e-05	0
detail	0.000412	0
abaca	3.2e-05	0
tempo	1.4999999999999999e-05	0
grade	6.500000000000001e-05	0
continue	0.00025	0
tilt	1.3000000000000001e-05	0
mog	5e-06	0
deduction	8.9e-05	1
overcast	5e-06	0
candidate	0.0005610000000000001	0
serbian	8e-06	1
deco	5e-06	0
coherence	0.000193	1
brown	3.5e-05	0
last	0.00042300000000000004	0
crawler	1e-05	1
obvious	0.000181	0
satisfaction	0.00011899999999999999	0
abstracting	1e-05	1
study	0.000614	0
fertilisation	5e-06	0
regularization	3.9e-05	1
improvement	0.000324	0
grammars	5e-06	1
billing	5e-06	0
lunch	1.9e-05	0
adequacy	7.4e-05	0
elimination	6.500000000000001e-05	0
ling	1.8e-05	0
attribution	5.5e-05	0
integer	9.4e-05	0
pronominalisation	7.000000000000001e-06	1
topic	0.0006230000000000001	0
alternation	0.000175	0
replacement	9.300000000000001e-05	0
formatting	2.4e-05	0
approval	1e-05	0
productivity	4.8e-05	0
abstract	0.000465	0
indication	0.00011100000000000001	0
advisor	2.9999999999999997e-05	0
chine	7.000000000000001e-06	0
route	0.000164	0
radiation	8e-06	0
beer	2.8999999999999997e-05	0
den	9.2e-05	0
agreeableness	7.000000000000001e-06	0
tutorial	4.3e-05	0
converter	1.4000000000000001e-05	0
estonian	1e-05	0
fly	0.000127	0
partition	0.000152	0
stop	0.000182	0
remove	0.000319	0
stroke	7.4e-05	0
cotton	1.2e-05	0
tire	4.7e-05	0
stated	5e-06	0
work	0.001325	0
loss	0.000154	0
conjunctive	6.6e-05	0
communicative	0.000165	0
show	0.001374	0
widely	0.000157	0
mention	0.000357	0
observed	0.000117	0
adjectival	7.6e-05	0
video	7.900000000000001e-05	0
multimedia	6.4e-05	0
fido	1.2e-05	0
accusative	4.9e-05	0
theorem	0.00011599999999999999	1
circumscription	9e-06	0
inspiration	1.4000000000000001e-05	0
intractability	1e-05	1
theoretic	3.8e-05	0
recipe	7.2e-05	1
evaluation	0.000875	0
news	0.00031800000000000003	0
binding	0.000117	1
feature	0.002531	1
parser	0.0008869999999999999	1
denominator	3.4e-05	0
taste	2.8000000000000003e-05	0
positioning	2.1e-05	0
activity	0.000271	0
alcohol	1.8e-05	0
chaining	2.6000000000000002e-05	0
til	6e-06	0
fill	0.000292	0
node	0.001366	0
specific	0.000593	0
noncore	5e-06	0
precisely	0.000145	0
propaganda	5e-06	0
constituency	7e-05	0
dessert	7.000000000000001e-06	0
sketch	7.099999999999999e-05	0
time	0.001401	0
group	0.000772	0
verbalization	3.7e-05	1
repeat	0.000162	0
effectiveness	0.000152	0
inclusion	0.000135	0
mechanical	3.8e-05	0
value	0.0011480000000000001	0
dodo	7.000000000000001e-06	0
tha	4.6e-05	0
total	0.000309	0
signboard	5e-06	0
tutoring	3.8e-05	1
reanalysis	1.7e-05	0
cancer	3.2e-05	0
diagnosing	5e-06	0
dependence	7.6e-05	0
axiom	0.000182	0
learner	0.000217	1
numerical	9.6e-05	0
latter	0.000215	0
statistically	0.000133	0
locus	4e-05	0
teacher	9.499999999999999e-05	0
boundary	0.000452	0
noise	0.00020899999999999998	1
managing	5e-06	0
localise	5e-06	0
estimator	4.8e-05	1
subsumption	8.4e-05	1
lib	6e-06	0
future	0.000261	0
climb	4.1e-05	0
data	5e-06	0
chapter	7.7e-05	0
metonymy	8.9e-05	1
mum	6e-06	0
mining	6.6e-05	1
furl	5e-06	0
hope	0.000139	0
expediency	5e-06	0
event	0.000867	0
boa	7.000000000000001e-06	0
synchronization	2.8000000000000003e-05	1
graph	0.000417	0
reverse	8.8e-05	0
applied	8e-06	0
consistently	0.000109	0
button	8.1e-05	0
translator	0.000172	1
excel	7.000000000000001e-06	0
infeasible	2.1e-05	0
sugar	1.4000000000000001e-05	0
pour	0.000124	0
burmese	5e-06	0
refinement	0.0001	0
tea	1.9e-05	0
wall	3.4e-05	0
prior	0.000218	0
ent	2.6000000000000002e-05	0
determine	0.0006580000000000001	0
romanticism	5e-06	0
equality	6.6e-05	0
regard	0.000256	0
synthetic	4.5e-05	0
activation	0.00014099999999999998	0
board	9e-05	0
publication	7.2e-05	0
modules	1.7e-05	0
ground	0.000152	0
transform	0.000181	0
referral	5e-06	0
sister	7.2e-05	0
factorisation	7.000000000000001e-06	1
synchronous	7.2e-05	0
krupka	5e-06	0
criterion	0.00035	0
ripper	5e-06	0
german	0.0003	0
papers	0.00021099999999999998	0
artificial	9.7e-05	0
experiment	0.000791	0
level	0.000924	0
communication	0.000291	0
discord	1.1e-05	0
simply	0.000398	0
local	0.00047999999999999996	0
manufacturing	8e-06	1
chemical	3.8e-05	0
something	0.000252	0
builder	2.6000000000000002e-05	0
conceptual	0.000295	0
uniformity	2.9999999999999997e-05	0
progressivity	5e-06	0
collect	0.00022	0
disambiguate	0.00019099999999999998	0
thai	8e-06	0
update	0.000195	0
bobble	5e-06	0
pump	5.7999999999999994e-05	0
drop	0.000139	0
pressure	6.500000000000001e-05	0
bye	6e-06	0
mellish	6e-06	0
sigma	7.000000000000001e-06	0
biotechnology	6e-06	1
redwood	5e-06	0
computing	6.2e-05	1
composition	0.000185	1
correction	0.000223	0
item	0.000576	0
practical	0.000221	0
reversibility	2.2e-05	0
additionally	0.000123	0
notation	0.000206	0
evolution	5.1e-05	0
sparse	0.000105	0
rose	1.9e-05	0
final	0.000462	0
bulk	2.8000000000000003e-05	0
redone	6e-06	0
swift	5e-06	0
gaze	2.7000000000000002e-05	0
aggregation	8.9e-05	0
kat	6e-06	0
decoding	7.3e-05	1
framework	0.00043099999999999996	0
wishful	5e-06	0
agent	0.000545	0
shallow	0.000147	0
rating	0.00011100000000000001	1
catalogue	2.3e-05	0
ern	7.000000000000001e-06	0
indicator	0.000192	0
forth	5.9e-05	0
success	0.000188	0
sandy	5e-06	0
service	0.000233	0
substitutability	2.1e-05	1
store	0.000266	0
ses	1e-05	0
reinforcement	2.4e-05	0
readability	6.500000000000001e-05	0
half	0.000124	0
city	0.000234	0
jack	9e-06	0
engine	0.000277	0
uppercase	2.1e-05	0
modem	1e-05	0
integration	0.00016	0
informativeness	3.1e-05	0
front	0.0001	0
penny	5e-06	0
transitivity	5.4000000000000005e-05	1
hiragana	1.4999999999999999e-05	0
king	3.4e-05	0
fuhr	9e-06	0
sampling	5.4000000000000005e-05	1
suite	6.500000000000001e-05	0
hyphenation	2.8000000000000003e-05	1
general	0.000661	0
attorney	2.4e-05	0
allen	5e-06	0
throw	6.6e-05	0
fence	1.4000000000000001e-05	0
notion	0.000365	0
polysemous	8.7e-05	0
robin	7.000000000000001e-06	0
permutation	7.900000000000001e-05	1
umlaut	1.4000000000000001e-05	0
biomedical	8.1e-05	0
vowels	5e-06	0
speaking	8.2e-05	0
mask	1.8e-05	0
shift	0.00020099999999999998	0
robot	9.6e-05	1
bound	9.8e-05	0
cash	1.3000000000000001e-05	0
american	8.1e-05	0
purpose	0.000407	0
transitive	0.000135	0
affordable	7.000000000000001e-06	0
young	6.8e-05	0
admiral	1.7e-05	0
rest	0.000197	0
theoretical	0.000193	0
coaching	9e-06	0
default	0.000309	0
freight	6e-06	0
elevator	8e-06	0
manslaughter	6e-06	0
rape	5e-06	0
comma	9.4e-05	0
jurisprudence	5e-06	0
special	0.000337	0
reasonable	0.000192	0
cycle	0.000134	0
comprehensibility	1.1e-05	1
exchangeability	6e-06	0
java	7.000000000000001e-06	1
truncation	8e-06	1
suit	9.7e-05	0
firing	2.1e-05	0
norwegian	1.6e-05	1
optimization	0.000144	1
latent	5.6999999999999996e-05	0
defining	1.4999999999999999e-05	0
synthesizer	4.1e-05	1
team	0.000122	0
believe	0.000407	0
iterative	0.00011	0
annotate	0.00028399999999999996	0
meanings	5e-06	1
computational	0.00039	0
biographical	2.1e-05	0
dim	7.000000000000001e-06	0
cognition	2.7000000000000002e-05	0
refer	0.000886	0
miscommunication	2.2e-05	0
resulting	5e-06	0
naturalness	2.9999999999999997e-05	0
path	0.0005009999999999999	0
implicit	0.00018700000000000002	0
unlabeled	0.00011100000000000001	0
stage	0.000377	0
chunk	0.000262	1
flavor	3.8e-05	0
clarification	9.4e-05	0
efficiently	0.000133	0
politeness	2.8999999999999997e-05	0
font	5.6000000000000006e-05	0
application	0.000884	0
jump	6.3e-05	0
production	0.000298	0
left	0.00023199999999999997	0
pronoun	0.000852	1
discriminative	9.300000000000001e-05	0
break	0.00018999999999999998	1
rainbow	5e-06	0
expansion	0.000234	0
excerpt	5.6000000000000006e-05	0
vast	6.4e-05	0
economics	1.3000000000000001e-05	0
translate	0.00041600000000000003	0
yeast	2.8999999999999997e-05	0
headline	8.2e-05	0
biological	5.9999999999999995e-05	0
annotating	1.1e-05	0
partner	9.6e-05	0
commercial	0.00011200000000000001	0
substitution	0.000192	0
risk	0.0001	0
three	1.3000000000000001e-05	0
spirit	4.9e-05	0
first	0.001194	0
sonny	6e-06	0
checkmate	5e-06	0
cover	0.000312	0
tile	0.0005740000000000001	1
disregard	3.4e-05	0
stallion	5e-06	0
typing	4.8e-05	0
intensity	4.8e-05	0
boycott	9e-06	0
needs	5e-06	0
parent	0.000205	0
travail	8e-06	0
planarity	9e-06	0
overlook	1.9e-05	0
largo	5e-06	0
incorporate	0.00028900000000000003	0
rely	0.000271	0
active	0.000279	0
worker	3.6e-05	0
unmasking	7.000000000000001e-06	0
interlace	7.000000000000001e-06	0
let	0.000343	0
medication	1.6e-05	0
marked	6.2e-05	0
sign	0.000195	0
identical	0.000233	0
initial	0.00048300000000000003	0
jive	5e-06	0
header	5.4000000000000005e-05	0
guide	0.000168	0
father	5.5e-05	0
facile	6e-06	0
transcribed	8e-06	0
spray	1.2e-05	0
continuity	3.9e-05	0
fieldwork	5e-06	0
tool	0.000478	0
spill	1.9e-05	0
piece	0.000226	0
window	0.000271	0
jing	1.4000000000000001e-05	0
sharp	3.1e-05	0
dinner	1.9e-05	0
baseball	1.4000000000000001e-05	0
accessing	6e-06	0
referential	0.000134	0
closely	0.000174	0
reconstruction	5.6000000000000006e-05	0
frame	0.000607	1
code	0.00040300000000000004	0
consideration	0.000215	0
scientific	0.000118	0
scalability	3.2e-05	1
constraint	0.001049	0
ghost	7.000000000000001e-06	0
banana	2.7000000000000002e-05	0
paraphrase	0.00020899999999999998	1
mais	9e-06	0
technique	0.00062	1
elevation	7.000000000000001e-06	0
numerator	1.8e-05	0
epenthesis	1.4000000000000001e-05	0
extension	0.000309	0
experimental	0.000256	0
anticipated	1.3000000000000001e-05	0
derive	0.0005139999999999999	0
long	0.000331	0
daily	4.1e-05	0
nothing	0.000128	0
outcome	0.000103	0
embedding	9e-05	0
dis	6e-06	0
vice	0.00010800000000000001	0
diversity	5.6999999999999996e-05	0
curriculum	1.9e-05	0
focused	2.4e-05	0
edge	0.000364	0
shallowest	5e-06	0
tion	0.00016	0
essence	4.7e-05	0
multiplicity	1.7e-05	0
platform	8.2e-05	0
cohort	1.3000000000000001e-05	0
requirement	0.000299	0
labeled	5e-06	0
tuna	6e-06	0
robust	0.000225	0
beat	5.6999999999999996e-05	0
week	0.000133	0
modern	7.3e-05	0
affected	1.1e-05	0
fewer	0.000143	0
signature	0.000123	0
historically	9e-06	0
attachment	0.000266	0
crystal	6e-06	0
genie	5e-06	0
prioritization	7.000000000000001e-06	1
chain	0.000327	0
man	0.000349	0
establishment	2.2e-05	0
telecommunication	9e-06	1
largest	0.000124	0
telephoning	5e-06	0
subclass	8.499999999999999e-05	1
earlier	0.000246	0
salad	2.1e-05	0
festival	1e-05	0
classification	0.000519	1
primarily	0.000168	0
vehicle	0.00011100000000000001	0
lur	5e-06	0
increased	8e-06	0
share	0.00037200000000000004	0
hit	0.000125	0
assigner	6e-06	0
process	0.001105	1
vectors	5e-06	0
summons	7.000000000000001e-06	0
advance	0.000126	0
specialist	8.2e-05	0
speed	0.000184	0
proper	0.000356	0
apology	9e-06	0
brazil	6e-06	0
tissue	1.7e-05	0
intrinsically	1.8e-05	0
romanian	1.8e-05	0
independence	0.000106	0
individual	0.000429	0
extent	0.0002	0
unity	1.6e-05	0
command	0.000195	0
idea	0.00040300000000000004	0
dialogue	0.0007559999999999999	0
battery	3.2e-05	0
segmentation	0.000482	1
intonation	9.7e-05	1
goodbye	6e-06	0
though	0.000317	0
assimilation	3.1e-05	0
turnaround	6e-06	0
organization	0.00034700000000000003	0
inst	7.000000000000001e-06	0
hamza	1.1e-05	0
trend	9e-05	0
narration	1.4000000000000001e-05	0
specification	0.000315	0
functionality	0.00010400000000000001	0
subsection	6.4e-05	0
gong	6e-06	0
unlike	0.000174	0
structural	0.000319	0
serve	0.000305	0
lemon	9e-06	0
outward	9e-06	0
tutor	0.0001	0
pass	0.000239	0
arty	5e-06	0
broad	0.000139	0
assistant	3.6e-05	0
contextual	0.000234	0
variety	0.000266	0
finding	0.000109	0
internet	2.6000000000000002e-05	1
television	3.7e-05	1
tempt	1e-05	0
resonant	1.2e-05	0
explain	0.000305	0
slightly	0.000205	0
enhancement	5.7999999999999994e-05	0
understand	0.000344	0
cryptography	5e-06	1
acquisition	0.00025	0
exist	0.000576	0
violation	9.8e-05	0
commencer	1.4999999999999999e-05	0
levantine	7.000000000000001e-06	0
labor	5.7999999999999994e-05	0
argumentative	6.1e-05	0
determination	0.00011200000000000001	0
variant	0.000229	0
mann	5e-06	0
toki	5e-06	0
royalty	5e-06	0
align	0.000265	0
hole	0.00016299999999999998	0
helpful	0.000178	0
nucleus	0.00011599999999999999	1
hypothesizing	5e-06	1
smoothing	0.000134	1
mammal	3.4e-05	0
collaborative	7.7e-05	0
establish	0.000283	0
weighty	5e-06	0
indian	1.7e-05	0
fertility	4.5e-05	0
park	4.3e-05	0
phrase	0.001451	1
march	1.4000000000000001e-05	0
disjunction	0.000126	1
monadic	1.8e-05	0
pharmacology	5e-06	0
lambda	5.1e-05	1
metaphor	0.000195	1
seltzer	6e-06	0
spontaneous	0.000125	0
literacy	1.4000000000000001e-05	0
maintenance	8.2e-05	0
summarisation	4.2e-05	1
cart	2.4e-05	0
phi	8e-06	0
attributive	5.3e-05	0
investigation	0.000162	0
genera	5e-06	0
geography	1.4999999999999999e-05	0
thanking	5e-06	0
availability	0.0001	0
heading	2e-05	0
research	0.000685	0
prise	7.000000000000001e-06	0
opportunity	0.000101	0
anatomy	9e-06	0
froth	5e-06	0
wrong	0.000176	0
majority	0.000151	0
clue	0.000172	0
pseudo	3.3e-05	0
adjunct	0.00015	1
collegiate	6e-06	0
switchboard	4.4e-05	0
life	0.00010800000000000001	0
tier	6.1e-05	0
cognitive	0.00016299999999999998	1
inspector	1.1e-05	0
explorer	7.000000000000001e-06	0
analyzer	0.00018	1
train	0.000393	0
problem	0.001359	0
configuration	0.000241	0
separation	8.6e-05	0
compression	0.00011100000000000001	0
split	0.000167	0
comedy	6e-06	0
mail	4.8e-05	0
dementia	5e-06	0
termination	5.9999999999999995e-05	0
carry	0.00032900000000000003	0
katakana	3.8e-05	1
auxiliary	0.000185	0
judgement	0.00010400000000000001	0
related	0.00021899999999999998	0
aspect	0.000424	0
nature	0.000267	0
adverb	0.000199	1
chance	0.000123	0
thing	0.00028700000000000004	0
current	0.0006230000000000001	0
eastern	1.1e-05	0
conversion	0.00016	0
tiebreaker	5e-06	0
chronological	2.5e-05	0
elder	5e-06	0
manual	0.000231	0
speaker	0.000698	0
extra	0.000144	0
plant	0.000126	0
mixed	0.0001	0
aria	5e-06	0
guo	6e-06	0
benefit	0.000172	0
recording	7e-05	0
temporal	0.000337	0
produce	0.000788	0
bracketing	6.9e-05	1
excimer	1.8e-05	0
optimality	1.9e-05	0
grounding	1.9e-05	1
cooperative	8e-05	0
des	0.00035099999999999997	0
rio	6e-06	0
calculus	0.00011100000000000001	0
ology	5e-06	0
seasick	5e-06	0
children	5e-06	0
synonym	0.000213	1
support	0.000576	0
guage	1.9e-05	0
following	0.000328	0
primary	0.00020899999999999998	0
reflex	1.1e-05	0
commonsense	4.4e-05	0
woman	0.00011599999999999999	0
newswire	6.6e-05	0
concordance	6.8e-05	1
talent	1.2e-05	0
fraud	6e-06	0
plane	0.000121	0
lack	0.000206	0
compatible	0.00014099999999999998	0
tone	0.000575	1
converted	6e-06	0
favor	0.000127	0
written	1.4999999999999999e-05	0
chose	8e-06	0
pair	0.000849	0
entry	0.000644	0
conversational	0.00014099999999999998	0
numeral	4.6e-05	0
ink	1.6e-05	0
heuristics	5e-06	1
presentation	0.000195	0
pathology	7.000000000000001e-06	1
instrument	7.6e-05	0
deep	0.00016999999999999999	0
vietnamese	1.9e-05	0
recorded	1.1e-05	0
puissance	6e-06	0
cultural	2.8999999999999997e-05	0
remaining	9e-06	0
five	5e-06	0
specifier	3.9e-05	0
suppose	0.00022	0
characteristic	0.00023999999999999998	0
compulsory	1e-05	0
guess	0.00010800000000000001	0
talk	0.000226	0
sulfur	6e-06	0
russian	7.2e-05	1
redundancy	0.00010700000000000001	0
adaptive	6.2e-05	0
register	0.00011	0
newsprint	6e-06	0
computer	0.000533	0
induction	0.00011999999999999999	1
wizard	3.8e-05	0
creole	6e-06	0
systematic	0.000147	0
english	0.000389	0
displacement	1.3000000000000001e-05	0
residue	2.1e-05	0
agenda	7.2e-05	0
abet	6e-06	0
strain	7.000000000000001e-06	0
coda	3.3e-05	0
sell	7.4e-05	0
child	0.000394	0
bard	6e-06	0
classifying	5e-06	0
boy	8.9e-05	0
involved	2.6000000000000002e-05	0
diffusion	6e-06	0
assumed	1.7e-05	0
landmark	3.9e-05	0
force	0.000256	0
fairly	0.000181	0
sortie	6e-06	0
reordering	8.8e-05	1
verb	0.0017629999999999998	1
empathy	1.4000000000000001e-05	0
denotes	6e-06	0
crucial	0.000164	0
topical	7.8e-05	0
version	0.000557	0
mismatch	9.1e-05	0
enquiry	1.2e-05	0
reptile	5e-06	0
hamburger	1.1e-05	0
opponent	1.6e-05	0
adjoining	5.4000000000000005e-05	0
effective	0.00026000000000000003	0
give	0.002026	0
demand	0.000129	0
performance	0.000789	0
denoted	7.000000000000001e-06	0
analyses	5e-06	0
example	0.0032689999999999998	0
proa	5e-06	0
open	0.000246	0
unofficial	8e-06	0
quest	1.1e-05	0
windows	5e-06	0
program	0.0006929999999999999	0
overlap	0.00023799999999999998	0
ensemble	8.2e-05	0
often	0.000573	0
measurement	0.00011100000000000001	0
exclusion	3.4e-05	0
knowledge	0.001032	1
agreement	0.000407	0
filler	0.000167	0
equal	0.000215	0
sweetness	6e-06	0
persistence	1.7e-05	0
formula	0.000148	0
journalism	5e-06	0
underway	2.2e-05	0
schizophrenia	5e-06	0
advertisement	1.4999999999999999e-05	0
marking	2.5e-05	0
prepositional	0.000178	0
pound	2.4e-05	0
prod	6e-06	0
conjecture	4.7e-05	0
words	5e-06	1
phonology	0.0001	0
shrinkage	1e-05	0
directional	5.1e-05	0
safety	2.2e-05	0
end	0.000466	0
dot	6.1e-05	0
defense	2.4e-05	0
aspectual	9.300000000000001e-05	0
legacy	1e-05	0
asymmetric	4.4e-05	0
extractor	5.9999999999999995e-05	1
chemistry	1.4000000000000001e-05	0
inland	7.000000000000001e-06	0
escape	3.3e-05	0
corrupt	1.3000000000000001e-05	0
impossible	0.000152	0
darwish	5e-06	0
transportation	2.8999999999999997e-05	0
demonstration	8.4e-05	0
summarising	7.000000000000001e-06	0
rich	0.000143	0
genre	0.000182	1
modularization	1.4000000000000001e-05	1
aniline	5e-06	0
slam	6e-06	0
manually	0.000273	0
adversarial	5e-06	0
theorising	5e-06	0
ester	7.000000000000001e-06	0
single	0.000587	0
anthropology	6e-06	1
lune	1.3000000000000001e-05	0
lexicographer	7e-05	1
harry	2.2e-05	0
region	0.00022400000000000002	0
ter	2.3e-05	0
necessity	7.099999999999999e-05	0
listing	4.1e-05	1
faster	9.499999999999999e-05	0
splitting	6.6e-05	1
regional	1.7e-05	0
terminology	0.000156	1
crocodile	5e-06	0
critique	3.8e-05	0
independent	0.000293	0
reform	1.6e-05	0
batch	5.1e-05	0
irrelevant	0.000118	0
secretary	3.6e-05	0
encode	0.00035	0
smolka	5e-06	0
trim	1.3000000000000001e-05	0
akkadian	7.000000000000001e-06	0
barrel	1.2e-05	0
software	0.000248	0
acronym	6.9e-05	1
verbal	0.00023799999999999998	0
erg	5e-06	0
competence	7e-05	0
persian	7.000000000000001e-06	1
concession	1.4999999999999999e-05	1
selecting	1.8e-05	0
completeness	8.9e-05	0
haji	5e-06	0
seed	0.000151	1
peter	8e-06	0
function	0.000907	0
carp	2.9999999999999997e-05	0
sim	5e-06	0
pitch	0.000188	1
method	0.001328	1
overview	0.00010700000000000001	0
pruning	0.000134	1
investigative	5e-06	0
beam	0.000105	1
logo	7.000000000000001e-06	0
material	0.000373	0
prosody	0.000102	1
subversion	7.000000000000001e-06	1
lifetime	8e-06	0
schedule	6.9e-05	0
afield	5e-06	0
origin	7.900000000000001e-05	0
solution	0.00041799999999999997	0
encouragement	1.9e-05	0
ease	0.00010800000000000001	0
monotonic	4.7e-05	0
flag	7.4e-05	0
deviation	0.000103	0
definite	0.000251	0
textbook	4.4e-05	1
execution	0.000109	0
track	0.000162	0
preposition	0.0003	1
investigate	0.000283	0
topology	4.2e-05	1
detect	0.00031800000000000003	0
sal	7.000000000000001e-06	0
collagen	5e-06	0
mood	7.099999999999999e-05	1
closer	9.9e-05	0
notice	0.00011	0
discretisation	6e-06	1
vowel	0.00024900000000000004	1
evoke	5.9e-05	0
simplicity	0.000102	0
queue	4.5e-05	0
absolute	0.000126	0
puzzle	3.2e-05	0
geographical	3.9e-05	0
este	5e-06	0
markup	9e-05	1
mine	3.3e-05	0
sluice	1.7e-05	0
contrast	0.00031600000000000004	0
compiler	6.8e-05	1
technical	0.000197	0
generating	5e-06	0
china	5e-06	0
judge	0.000234	0
relatum	6e-06	0
labeling	1.6e-05	1
communal	5e-06	0
likely	0.000411	0
schemata	7.000000000000001e-06	0
superior	8.499999999999999e-05	0
toaster	6e-06	0
phase	0.000346	0
series	0.00018999999999999998	0
modal	0.000101	0
supervised	0.00013000000000000002	0
italian	0.000134	0
description	0.0008380000000000001	0
position	0.000661	0
thesauri	5e-06	0
partiality	1e-05	0
union	0.000125	0
bottom	9.8e-05	0
hall	1e-05	0
printout	8e-06	0
zip	5e-06	0
john	5e-05	0
unification	0.000264	1
cruise	5e-06	0
intuition	0.00015	0
logically	6.3e-05	0
siding	7.000000000000001e-06	0
committee	8e-05	0
elaboration	7.7e-05	0
characterization	9.300000000000001e-05	0
patience	8e-06	0
duty	3.1e-05	0
tester	9e-06	0
conceptualization	3.5e-05	1
place	0.000468	0
true	0.000482	0
blank	3.9e-05	0
authorship	2.2e-05	1
express	0.000425	0
infantry	5e-06	0
granularity	0.000106	0
analyser	5.6999999999999996e-05	1
minimization	3.9e-05	0
dislike	1.1e-05	0
reduce	0.000491	0
nickel	7.000000000000001e-06	0
language	0.0029690000000000003	0
compare	0.000592	0
comfort	8e-06	0
competition	8e-05	0
iteration	0.000188	0
equivalency	6e-06	0
culture	3.3e-05	1
root	0.000449	0
wool	6e-06	0
morphemic	2.9999999999999997e-05	0
department	5.2000000000000004e-05	0
accuracy	0.000608	0
gesture	0.00015800000000000002	1
physiology	1.1e-05	0
pomme	1.1e-05	0
ginning	5e-06	0
handwriting	2e-05	1
access	0.000296	0
quality	0.00032900000000000003	0
rubric	7.000000000000001e-06	0
mixture	0.000131	0
step	0.000609	0
denote	0.000384	0
measuring	6e-06	1
tableau	2.3e-05	1
lamb	1.3000000000000001e-05	0
license	6.8e-05	0
nearest	7.5e-05	0
ranking	0.000164	1
pull	4.4e-05	0
customer	9.300000000000001e-05	0
civilization	5e-06	0
multimodal	0.00013000000000000002	0
banking	1.2e-05	0
expressivity	1.9e-05	0
determiner	0.00031600000000000004	1
sentence	0.003365	1
population	0.00011100000000000001	0
alphabet	9.7e-05	1
interesting	0.000283	0
black	9.9e-05	0
hod	7.000000000000001e-06	0
punctuation	0.000177	1
triste	8e-06	0
indices	6e-06	0
zero	7e-05	0
generation	0.000611	1
referencing	7.000000000000001e-06	0
temp	1.8e-05	0
frontier	5.9e-05	0
windy	5e-06	0
complement	0.000264	0
computation	0.000229	0
missing	1.7e-05	0
entailment	0.00011399999999999999	1
essentially	0.00018700000000000002	0
occur	0.000795	0
marker	0.00032	0
rev	5e-06	0
recency	3.9e-05	0
baton	5e-06	0
infinitive	9e-05	0
succumb	7.000000000000001e-06	0
complementary	8.2e-05	0
archive	3.8e-05	0
headfirst	5e-06	0
hello	1.3000000000000001e-05	0
inhibitory	8e-06	0
handle	0.000395	0
compatibility	8e-05	0
couple	9.9e-05	0
ball	8.1e-05	0
retrieve	0.00020800000000000001	0
unlimited	3.5e-05	0
ancient	3.2e-05	0
point	0.000962	0
whole	0.000264	0
relatedness	5.7999999999999994e-05	0
tube	3.8e-05	0
predeterminer	7.000000000000001e-06	1
real	0.000309	0
penalty	0.00011599999999999999	0
convertibility	5e-06	0
contexts	5e-06	0
simulation	0.00011399999999999999	0
krypton	5e-06	0
lexical	0.00118	0
ranger	1.4000000000000001e-05	0
motor	3.5e-05	0
distinguishing	2.1e-05	0
choose	0.000563	0
classier	7.000000000000001e-06	0
report	0.000573	0
either	0.000307	0
currently	0.000337	0
grid	5.6000000000000006e-05	1
patch	2.9999999999999997e-05	0
sic	9e-06	0
cause	0.00040199999999999996	0
ensure	0.000231	0
highly	0.00028900000000000003	0
causal	0.00010800000000000001	0
major	0.000348	0
listener	0.000135	0
preciseness	5e-06	0
list	0.001005	0
efficacy	2.5e-05	0
garner	5e-06	0
israel	1e-05	0
conventional	0.000168	0
internal	0.000226	0
decisionmaking	5e-06	1
stent	5e-06	0
prince	2.5e-05	0
mcdonald	8e-06	0
arrow	8.8e-05	0
dependency	0.000547	0
arson	7.000000000000001e-06	0
merging	5e-06	0
higher	0.000394	0
realization	0.000206	0
spike	8e-06	0
today	0.00011599999999999999	0
referent	0.000308	0
multilevel	2e-05	0
elementary	0.000171	0
allemand	5e-06	0
space	0.000553	0
compute	0.000334	0
quickly	0.000184	0
mode	0.000244	0
compilation	9.8e-05	0
entropy	0.000226	1
mineral	1.1e-05	0
finder	2e-05	0
retrieving	7.000000000000001e-06	1
section	0.000788	0
considerably	0.000128	0
fail	0.000275	0
aerospace	8e-06	0
treatment	0.00024900000000000004	0
fusion	6.7e-05	0
inheritance	0.000144	1
aphasia	7.000000000000001e-06	0
sat	6e-06	0
obtain	0.000676	0
paradigm	0.00021400000000000002	0
sitter	5e-06	0
delimiting	8e-06	0
briefing	1.9e-05	0
comment	0.000254	0
opposition	4.2e-05	0
mai	5e-06	0
boat	5.3e-05	0
mimic	3.1e-05	0
mechanism	0.000413	0
walk	0.00010800000000000001	0
word	0.006359	1
merit	5.6999999999999996e-05	0
formulate	0.00016	0
parler	5e-06	0
reduplication	4e-05	0
declaration	5.9e-05	0
proving	7.000000000000001e-06	0
coauthor	5e-06	0
implication	0.000133	0
intelligence	7.4e-05	1
antecedent	0.000275	0
begin	0.000348	0
spurious	0.00011	0
display	0.000254	0
library	0.000101	0
computed	9.4e-05	0
departure	6.4e-05	0
understanding	0.0003	1
roughly	0.00018700000000000002	0
exemplification	7.000000000000001e-06	0
undoing	7.000000000000001e-06	0
storage	0.0001	0
mind	0.00013000000000000002	0
money	0.000124	0
agree	0.000199	0
runtime	5.9999999999999995e-05	1
transcription	0.000239	1
judgment	0.000171	0
turkish	8.499999999999999e-05	0
emphasis	0.00010700000000000001	0
diagram	0.000117	0
preserve	0.000133	0
belief	0.00035099999999999997	0
extend	0.00042199999999999996	0
transduction	5.9999999999999995e-05	1
gene	0.00013700000000000002	0
easy	0.00023799999999999998	0
may	5e-06	0
game	0.000215	0
arguing	5e-06	0
separated	2e-05	0
relevant	0.0005200000000000001	0
network	0.000542	0
start	0.00040199999999999996	0
fusing	8e-06	0
pragmatic	0.00022400000000000002	0
building	0.000161	0
yield	0.000304	0
reliability	0.00010700000000000001	0
regent	1.2e-05	0
arcs	5e-06	0
speakership	8e-06	0
czech	0.000123	0
lap	6e-06	0
disjunct	4.3e-05	0
validation	0.000117	1
vin	1e-05	0
digging	5e-06	0
sable	7.000000000000001e-06	0
filtering	6e-06	0
corm	5e-06	0
drink	7.099999999999999e-05	0
search	0.000698	1
compounding	3.1e-05	1
tiler	6e-06	1
mother	0.000131	0
terminal	0.000173	0
gemination	1.6e-05	0
portability	6.4e-05	1
handling	6.7e-05	0
groupe	7.000000000000001e-06	0
harmonisation	6e-06	1
anyhow	5e-06	0
intelligibility	2.1e-05	1
instantiate	0.000138	0
validity	8.1e-05	0
round	9.4e-05	0
incident	9.4e-05	0
daughter	0.000145	0
argument	0.000766	0
concrete	0.000113	0
copy	0.000145	0
introspection	1e-05	0
fallout	1.9e-05	0
propagation	8.3e-05	0
clement	7.000000000000001e-06	0
ting	1.1e-05	0
meeting	0.00022	0
means	0.000334	0
acid	3.2e-05	0
screen	0.000125	0
sub	7e-05	0
none	0.000162	0
year	0.000459	0
pipeline	7.3e-05	0
directory	6.3e-05	0
lily	5e-06	0
specifically	0.000204	0
compliance	1.3000000000000001e-05	0
manpower	8e-06	0
initiation	2.4e-05	0
stock	0.000103	0
machinery	5.3e-05	0
noisy	0.00011999999999999999	0
warren	6e-06	0
matt	5e-06	0
lisp	8e-06	1
tabulation	1.3000000000000001e-05	1
focal	2.3e-05	0
next	0.00041	0
suicide	1e-05	0
corpus	0.001693	0
induced	5.7999999999999994e-05	0
mistake	0.00011999999999999999	0
usefulness	9.499999999999999e-05	0
motivation	0.000131	0
dislocation	1.2e-05	0
properties	5e-06	0
distortion	6.2e-05	0
polysemy	8.4e-05	1
stemmer	8e-06	1
encoded	1.4999999999999999e-05	0
spotting	5e-06	0
making	1.1e-05	0
reason	0.000393	0
resolution	0.00033	0
connective	0.00014099999999999998	0
rebus	5e-06	0
change	0.00056	0
role	0.000705	0
married	9e-06	0
suppletion	5e-06	0
interactivity	1.4999999999999999e-05	1
continuation	8e-05	0
workstation	5.6000000000000006e-05	0
logic	0.000314	1
python	6e-06	0
procedure	0.000579	1
organized	5e-06	0
gradient	3.2e-05	0
token	0.00038500000000000003	0
parallelism	9.2e-05	1
effectively	0.000162	0
temperature	6.2e-05	0
removal	7.4e-05	0
entire	0.000245	0
remainder	9e-05	0
outside	0.00014	0
apprentice	2.4e-05	0
smoking	1.7e-05	0
heuristic	0.000359	1
fun	1.2e-05	0
indexer	1.7e-05	1
construct	0.00042699999999999997	0
prolog	1e-05	1
remains	5e-06	0
addition	0.000449	0
recommender	6e-06	1
ambiguity	0.00043200000000000004	1
hostage	1.4000000000000001e-05	0
spacing	7.000000000000001e-06	0
awake	7.000000000000001e-06	0
unsupervised	0.000155	0
morphologic	1.7e-05	1
hierarchy	0.000332	0
disk	7.7e-05	1
picture	0.000165	0
morpheme	0.000246	1
versus	6.6e-05	0
summary	0.000482	0
weak	0.000148	0
app	9e-06	0
company	0.000309	0
signal	0.00023999999999999998	1
index	0.00035299999999999996	1
need	0.0007	0
crosstalk	6e-06	0
grammatical	0.00043499999999999995	0
novice	4.3e-05	0
central	0.000182	0
personality	2.8000000000000003e-05	0
room	0.00015800000000000002	0
tableaux	6e-06	1
buch	5e-06	0
linkage	5.5e-05	0
find	0.001202	0
sensitive	0.000123	0
tail	5.1e-05	0
dictation	2.7000000000000002e-05	0
syllabification	2.6000000000000002e-05	1
robustness	0.00011899999999999999	0
scheme	0.000365	0
ethology	5e-06	1
comic	6e-06	0
setup	6.3e-05	0
slipper	5e-06	0
printing	1.2e-05	0
marl	5e-06	0
oversimplification	7.000000000000001e-06	0
homogeneity	2.7000000000000002e-05	0
good	0.000523	0
predict	0.00037	0
similarly	0.000231	0
adjacency	6.7e-05	0
magnitude	8.4e-05	0
indifference	5e-06	0
doubt	7.2e-05	0
branch	0.000188	0
provost	1.7e-05	0
etch	8e-06	0
fern	8e-06	0
acceptor	2.6000000000000002e-05	0
singhal	6e-06	0
adaptation	0.00014	0
prefix	0.000166	0
tense	0.00022200000000000003	0
instrumentation	9e-06	1
linear	0.000285	0
satisfy	0.000261	0
regular	0.00026000000000000003	0
imaging	5e-06	0
array	0.00011499999999999999	1
mapped	9e-06	0
irish	1.1e-05	0
self	2.8999999999999997e-05	0
linguistically	0.00016	0
correspondence	0.000227	0
improve	0.000489	0
illustrate	0.000341	0
milk	4.8e-05	0
mean	0.000595	0
experimenter	2.5e-05	0
overleaf	5e-06	0
stark	6e-06	0
right	0.000417	0
schul	5e-06	0
modification	0.000231	0
memory	0.000331	0
transfer	0.00031800000000000003	0
scanner	2.8999999999999997e-05	0
gapping	1.9e-05	1
coupling	3.2e-05	1
reference	0.000612	0
paratactic	1e-05	0
metric	0.000254	0
nominal	0.000212	0
hinter	6e-06	0
radio	4.8e-05	0
designer	9.499999999999999e-05	0
lexicology	8e-06	1
psychology	4.9e-05	0
respective	0.00011499999999999999	0
modifier	0.000314	1
grammar	0.0017239999999999998	1
paper	0.0008529999999999999	0
emotion	0.000106	1
red	0.000133	0
estimated	9e-06	0
optional	0.000157	0
equalization	7.000000000000001e-06	0
syntactic	0.000991	0
alt	1.2e-05	0
recurrent	3.3e-05	0
correcter	5e-06	0
delimitation	1.6e-05	0
apply	0.0008990000000000001	0
hansard	7.000000000000001e-06	0
guidance	4.7e-05	0
chinese	0.00033	0
bear	0.000147	0
contents	0.00015800000000000002	0
span	0.000184	0
translation	0.0015660000000000001	0
indonesian	7.000000000000001e-06	0
creativity	9e-06	0
incorporation	6.500000000000001e-05	0
syllable	0.000251	0
kennedy	8e-06	0
parallel	0.000344	0
scheduling	3.9e-05	0
meaning	0.0006519999999999999	1
dissatisfaction	6e-06	0
since	0.0011279999999999999	0
easier	0.000152	0
sometimes	0.000236	0
formalization	5.5e-05	1
dissimilation	5e-06	0
page	0.000296	0
ment	6.7e-05	0
opt	3.7e-05	0
viscosity	5e-06	0
parle	1.3000000000000001e-05	0
prose	3.9e-05	0
hold	0.000319	0
educational	2.8999999999999997e-05	0
patient	0.000175	0
family	0.000177	0
advisory	1.2e-05	0
incorporated	6e-06	0
face	0.000139	0
entertainment	1.3000000000000001e-05	0
answer	0.000621	0
reliable	0.00016299999999999998	0
block	0.000248	0
implicative	9e-06	0
cooperation	5.6000000000000006e-05	0
lower	0.000334	0
log	0.000164	0
vienne	6e-06	0
databases	5e-06	1
speech	0.001127	0
phonetic	0.000182	0
legal	0.00011899999999999999	0
adequate	0.000152	0
flow	0.00014	0
randomization	1.9e-05	1
exercise	0.000106	0
brevity	3.5e-05	0
intent	6.3e-05	0
light	0.000157	0
number	0.002248	0
relative	0.000465	0
automaton	0.00021899999999999998	1
synthesis	0.00013700000000000002	1
precision	0.00045599999999999997	1
much	0.00056	0
appointee	5e-06	0
line	0.0004969999999999999	0
joint	0.000192	0
nasalization	6e-06	1
upward	3.9e-05	0
surface	0.00043099999999999996	0
ordering	5.4000000000000005e-05	0
location	0.00040599999999999995	0
fixed	5.3e-05	0
player	0.000103	0
combine	0.000442	0
laptop	8e-06	0
paraphrasing	6.9e-05	1
zone	6.6e-05	0
counseling	6e-06	0
extraposition	4.4e-05	0
summarization	0.000221	1
viverrine	5e-06	0
rant	8e-06	0
comprehension	0.000105	1
diacritic	4.9e-05	0
hunt	6e-06	0
len	6e-06	0
pronominal	0.00011399999999999999	0
result	0.0022719999999999997	0
politics	2.1e-05	0
recorder	1e-05	0
spit	5e-06	0
chess	1.4000000000000001e-05	0
triplet	3.3e-05	0
yacht	6e-06	0
cvt	7.000000000000001e-06	0
canada	6e-06	0
successfully	0.000165	0
specificity	7.7e-05	0
call	0.00061	0
hybrid	0.000109	0
observe	0.000294	0
present	0.000731	0
indirection	5e-06	0
stereotype	2.8999999999999997e-05	0
working	1.6e-05	0
back	0.00022400000000000002	0
student	0.000502	0
foundation	5.7999999999999994e-05	0
exemplify	8e-05	0
false	0.000306	0
attention	0.00026000000000000003	0
security	5.9e-05	0
thesis	7.4e-05	0
intersperse	1.2e-05	0
inflectional	0.00011100000000000001	0
solar	7.000000000000001e-06	0
experimentation	6.4e-05	0
multilingual	0.000138	0
subsequence	5.6000000000000006e-05	0
rheumatology	5e-06	0
variation	0.000298	0
regression	8.6e-05	1
recursive	0.000132	0
bond	3.2e-05	0
recalculation	7.000000000000001e-06	0
international	8.4e-05	0
progression	3.1e-05	0
taxonomy	0.000145	1
pickup	9e-06	0
context	0.001158	0
rise	0.000156	0
repetitive	2.3e-05	0
median	3.4e-05	0
successful	0.000192	0
article	0.00101	0
finality	6e-06	0
copying	5.2000000000000004e-05	0
playground	8e-06	0
zoning	6e-06	1
little	0.000258	0
