use	0	444
screw	1	269
panel	1	611
hole	0	560
surface	1	618
drill	1	786
side	0	918
wood	1	97
make	0	647
cut	1	791
edge	0	59
paint	1	624
base	0	739
table	0	833
fit	0	602
board	1	296
frame	0	901
bit	0	13
mark	0	182
wall	0	815
together	0	441
position	0	663
front	0	172
rear	0	626
top	0	919
piece	0	285
work	0	641
sand	0	625
section	0	616
glue	0	235
strip	0	280
place	0	19
first	0	799
leg	0	529
saw	1	494
angle	0	438
template	0	318
joint	1	554
part	0	422
apply	0	836
light	1	69
fasten	0	196
shelf	0	331
head	0	699
insert	0	834
also	0	411
tip	0	467
mount	0	380
want	0	881
face	1	770
pencil	1	89
workpiece	0	507
dowel	1	214
clamp	1	342
fix	0	311
always	0	544
paper	1	856
centre	1	888
back	0	239
guide	0	571
cordless	0	43
door	0	290
rail	1	654
line	0	145
construction	0	658
long	0	537
screwdriver	1	821
corner	0	471
spray	0	902
inside	0	738
dry	0	920
bed	0	778
join	0	34
sure	0	404
diameter	0	141
support	0	885
assemble	0	279
way	0	841
see	0	464
follow	0	650
plate	0	897
form	0	76
timber	1	717
outer	0	30
material	0	281
wheel	1	570
seat	0	603
bracket	0	839
size	0	664
bottom	0	255
remove	0	436
step	0	365
wax	0	200
blade	1	849
ring	0	46
cable	1	389
drawing	0	644
groove	1	294
good	0	476
onto	0	645
carcass	1	424
upper	0	415
rout	1	747
low	0	66
flush	0	77
nut	1	204
suspension	0	8
enough	0	61
small	0	260
length	0	533
curve	0	240
short	0	752
require	0	434
instruction	0	473
box	0	6
sander	1	99
mirror	0	140
ensure	0	373
design	0	306
countersink	1	793
assembly	0	828
grit	1	456
drilling	1	329
procedure	0	457
canopy	0	869
attach	0	742
drawer	0	825
align	0	435
visible	0	177
set	0	1
precisely	0	143
connect	0	379
cover	0	769
different	0	784
flat	0	385
later	0	582
jigsaw	1	118
point	0	417
metal	1	744
cutout	0	295
bolt	1	202
cloth	1	807
fixture	0	460
depth	0	12
draw	0	229
stain	0	578
perspex	0	906
leave	0	94
outline	0	233
need	0	421
tree	0	715
tray	0	42
opening	1	147
area	0	261
time	0	860
consist	0	236
second	0	38
well	0	868
unit	0	631
fine	0	478
bar	0	547
roof	0	142
fitting	1	787
end	0	606
secure	0	511
prepare	0	913
shape	0	518
measure	0	465
along	0	400
beam	0	298
inner	0	320
wide	0	504
surround	0	923
square	1	818
steering	1	237
rod	0	308
compartment	0	762
plastic	0	238
chamfer	1	746
fill	0	374
start	0	827
system	0	926
adjust	0	501
scrap	0	662
parallel	0	398
wooden	1	419
task	0	54
brake	0	661
large	0	414
slide	0	642
right	0	852
press	0	660
bench	1	36
note	0	910
connector	1	433
cross	1	186
choose	0	446
straight	0	538
store	0	123
post	0	830
minimalist	0	225
case	0	361
hang	0	292
even	0	643
fibre	0	273
technical	0	753
thick	1	396
slat	1	217
look	0	67
narrow	1	310
round	0	911
spacer	0	230
recommend	0	301
direction	0	319
refer	0	174
easy	0	883
foot	0	905
fixings	1	139
type	0	384
varnish	1	543
condition	0	725
hanger	0	257
quickly	0	475
without	0	51
upholstery	0	216
marked	0	692
block	1	875
remain	0	493
thread	1	155
film	0	26
axle	0	119
suitable	0	727
exactly	0	532
desk	0	755
stool	1	813
fabric	0	293
process	0	383
turn	0	689
room	0	85
deep	0	558
find	0	847
properly	1	161
putty	0	390
possible	0	605
application	0	420
pressure	0	573
big	0	780
downwards	0	890
within	0	312
partition	1	395
adhesive	0	604
contour	0	80
target	0	596
throne	0	665
conical	0	908
miniature	0	756
cylindrical	0	726
imaginative	0	307
shank	0	222
simply	0	378
buffer	0	169
stop	0	231
next	0	862
circular	0	430
trace	0	397
quick	1	651
carefully	0	708
since	0	681
example	0	700
perfect	0	669
safety	0	487
completely	0	83
arm	0	325
radius	0	714
necessary	0	462
result	0	448
take	0	218
upwards	0	551
prime	1	696
grain	1	848
furniture	0	372
armchair	0	272
burr	1	595
rim	0	274
protective	0	601
gable	0	27
imagination	0	266
centring	0	423
achieve	0	837
know	0	519
finally	0	512
dust	0	855
tape	0	768
coat	0	248
seating	1	284
horizontal	0	210
circle	0	208
excess	0	748
describe	0	98
list	0	921
transfer	0	350
put	0	252
shaped	0	850
lie	0	481
treatment	0	131
skip	0	523
gun	0	844
console	0	321
specialist	0	488
illustration	0	598
absorbent	0	648
carpenter	1	557
ideally	0	256
belt	0	267
compact	0	120
tank	0	167
log	0	564
stroke	0	659
thickness	0	127
grip	0	453
middle	0	56
prevent	0	418
compass	0	409
required	0	227
wear	0	745
floor	0	300
nice	0	676
handle	0	439
vertical	0	802
router	1	133
run	0	668
let	0	355
wild	0	323
left	0	735
touch	0	838
jet	0	78
unsightly	0	270
attachment	0	345
project	0	843
avoid	0	763
lid	0	846
hinge	0	510
speed	0	86
height	0	148
goal	0	649
advice	0	188
primer	1	865
equipment	0	211
stage	0	263
evenly	0	737
correctly	0	259
shell	0	521
available	0	758
attention	1	5
mitre	1	585
rest	0	455
plinth	0	102
already	0	805
finish	0	440
check	0	495
copy	0	567
filler	0	262
colour	0	565
wipe	0	254
damp	0	358
accordance	0	548
device	0	508
longitudinal	0	640
time-consuming	0	366
scratch	0	794
seal	0	164
display	1	638
window	0	552
pay	0	112
tool	1	375
spruce	0	542
slightly	0	207
latter	0	369
ask	0	50
slot	0	741
glass	0	891
taper	0	876
tube	0	68
show	0	536
underneath	0	701
complete	0	354
build	0	629
match	0	718
term	0	569
therefore	0	915
newspaper	0	503
distribute	0	234
distance	0	156
conceal	0	62
least	0	896
masonry	0	734
protrude	0	106
absorb	0	90
trickle	0	153
create	0	672
carriage	0	732
smooth	0	105
arrange	0	449
home	0	782
workability	0	526
deck	0	546
offer	0	21
especially	0	674
exact	0	286
collar	0	693
generally	0	870
rotary	0	872
hammer	1	282
flatten	0	666
rib	0	130
high	0	368
risk	0	162
hard	0	114
slip	1	925
sharp	1	91
movable	0	922
control	0	87
rubber	0	534
cord	0	531
band	0	340
measurement	0	333
plank	1	608
lounger	0	348
fence	1	615
delta	0	427
handy	0	527
versatile	0	194
hard-to-reach	0	160
little	0	72
get	0	243
otherwise	0	482
viscosity	0	15
suit	0	324
slowly	0	113
setscrew	1	128
teak	0	138
lap	0	81
extract	0	545
marking	1	541
switch	0	525
ideal	0	757
provide	0	652
spread	0	275
change	0	63
beforehand	0	720
corresponding	1	64
coarse	0	470
performance	0	447
appealing	0	70
often	0	491
detail	0	580
intersect	0	461
cutting	1	702
disappear	0	724
whether	0	316
purpose	0	9
due	0	201
accordingly	0	393
outside	0	766
space	0	335
suspend	0	713
reason	1	695
solid	0	792
strong	0	528
aluminium	0	599
pedestal	0	247
width	0	197
plywood	1	499
read	0	203
handling	0	496
thoroughly	0	428
sufficient	0	730
alone	0	678
buff	0	646
half	0	88
day	0	302
working	1	151
quality	0	539
hold	0	408
weather	0	878
pin	1	592
individual	0	477
adapt	0	909
wire	1	32
hardener	1	412
generously	0	57
mix	0	728
flow	0	832
nozzle	0	79
test	0	35
water	0	315
symbol	0	351
random	0	132
orbit	0	886
feed	0	221
alternative	0	116
house	0	809
smoking	0	469
notch	0	339
anything	0	593
lining	0	356
concrete	0	134
special	0	391
reach	0	150
joist	1	100
barrier	0	278
root	0	877
save	0	733
around	0	219
ceiling	0	122
become	0	416
warm	0	549
afterwards	0	823
ball	0	137
leaf	0	633
go-kart	0	619
burn	0	370
range	0	179
treasure	0	899
various	0	73
price	0	450
however	0	628
thus	0	190
upright	0	53
effortlessly	0	653
detailed	0	634
link	0	65
resistance	0	530
robinia	0	577
certain	0	857
trolley	0	187
experienced	0	352
practice	0	515
painter	1	322
twist	1	687
sample	0	627
mixture	0	520
triangle	0	914
durability	0	334
reinforcement	0	675
carry	0	173
dilute	0	149
countertop	0	180
able	0	743
easily	0	729
left-hand	0	165
tongue	1	170
away	0	326
bowl	0	48
particular	0	776
strongly	0	622
essentially	0	213
file	1	711
pour	0	831
phase	0	710
bevel	1	594
particularly	0	108
determine	0	579
duct	0	635
rub	0	607
sponge	0	328
rope	1	613
roller	0	694
open	0	472
main	0	811
ruler	0	812
manufacturer	0	205
painted	1	313
holder	1	480
important	0	109
directly	0	853
vertically	0	405
third	0	775
layer	0	697
cleanly	0	673
decorative	0	572
rafter	0	377
split	1	568
multiplex	1	559
substructure	0	458
drive	0	703
normal	0	835
overlap	0	126
medium	0	309
everything	0	4
move	0	71
less	0	429
previous	0	584
hand	0	154
mask	0	18
towel	0	620
soft	0	288
polish	1	209
brush	1	808
immediately	0	679
outlet	0	344
several	0	2
painting	1	336
washstand	0	484
fashion	0	829
bathroom	0	777
mechanism	0	858
mean	0	341
damage	0	903
oak	1	198
repeat	0	806
rack	0	498
right-hand	0	801
ease	0	550
give	0	277
previously	0	246
appear	0	220
pane	0	60
beech	0	867
behind	0	566
knob	0	121
sideboard	1	804
securely	0	7
spring	0	244
centrally	0	37
piano	0	371
finely	0	33
increase	0	873
overall	0	773
clean	0	82
sill	0	189
birch	0	513
backing	0	17
tear	0	788
opt	0	338
used	0	330
replace	0	563
soon	0	800
triangular	0	912
normally	0	337
perform	1	483
smoothly	0	264
common	0	95
approximately	0	706
pull	0	555
beginner	0	609
storage	0	707
perfectly	0	115
guarantee	0	524
bedside	0	817
birdhouse	0	851
never	0	303
branch	0	798
acrylic	0	655
counterpart	0	387
observe	0	28
double	0	556
pedal	0	166
occasionally	0	502
job	0	224
like	0	41
simple	0	191
many	0	432
polyurethane	1	206
old	0	754
basin	0	907
course	1	49
barely	0	410
plunge	0	364
dinner	0	58
auger	1	864
trunk	0	866
shallow	0	716
introduction	0	386
chest	0	767
version	0	359
unprotected	0	621
lower	0	183
sun	0	820
dimension	0	506
kitchen	0	184
hook	0	803
axis	0	287
designer	0	822
natural	0	771
blind	1	522
fibreboard	0	819
retail	0	363
fully	0	258
dab	0	152
single	0	581
shield	0	29
glare	0	722
oil	0	406
globe	0	466
ladder	1	789
appropriate	0	93
still	0	135
accurately	0	795
classic	0	96
recess	0	540
festive	0	637
underlay	1	265
rectangular	0	3
hacksaw	1	765
safe	0	10
fold	0	168
stand	0	759
rule	0	497
priming	0	667
string	0	863
wash	0	840
contrast	0	816
allow	0	882
bedroom	0	178
loft	0	474
pen	0	859
remember	0	276
broad	0	588
beautiful	0	612
difficult	0	889
spirit	0	452
level	1	610
wardrobe	0	425
walk-in	0	500
per	0	489
pendant	0	892
bunny	0	195
loose	0	779
untidy	0	575
loop	0	553
steel	0	185
thin	0	353
full	0	437
flowerbed	0	591
armrest	0	691
relevant	0	431
coffee	0	129
plug	1	589
plant	0	740
turnbuckle	1	44
close	0	74
row	0	271
diagonally	0	157
absolutely	0	163
amount	0	24
folding	0	574
via	0	709
firmly	0	283
fruit	0	212
lateral	0	14
uppermost	0	31
gap	0	16
overhead	0	686
staple	1	810
cosy	0	146
lengthways	0	704
pass	0	587
lounge	0	597
afraid	0	826
one	0	671
invest	0	402
fluorescent	0	171
method	0	614
connection	0	535
protect	0	814
tacker	1	688
pose	0	916
watch	0	760
highly	0	486
treat	0	223
ready	0	124
tile	0	468
facing	0	751
bore	0	879
bottle	0	394
swivel	1	297
final	0	451
practical	0	52
great	0	327
universal	1	562
stick	1	514
precise	0	600
tightly	0	426
motif	0	445
hand-held	0	871
skirt	0	517
enjoy	0	343
fairy	0	785
electric	1	590
lock	1	797
crown	0	764
lay	0	107
diagonal	0	796
structure	0	332
milky	0	783
combine	0	47
object	0	824
rework	0	854
lamp	1	136
routing	1	657
elegant	0	904
garden	1	381
blue	0	505
shaft	0	684
robust	0	781
self-made	0	670
something	0	228
really	0	144
handrail	1	632
release	0	110
scribe	0	894
formula	0	900
seamlessly	0	101
past	0	299
padding	0	199
washer	1	680
picture	0	683
accommodate	0	347
injury	0	442
pronounced	0	884
gabled	0	576
entrance	0	55
accessory	0	636
forget	1	158
tighten	1	623
retailer	0	490
diamond	0	268
slope	0	413
paintbrush	1	561
detach	0	723
far	0	403
disfigure	1	289
decide	0	719
enable	0	887
cutter	1	360
pointed	0	731
push	0	630
towards	0	479
transverse	0	924
intermediate	1	698
eye-catcher	0	232
crepe	0	175
bank	0	492
bear	0	215
optimum	0	25
exclusive	0	376
cool	0	39
atmosphere	0	842
attractive	0	861
bulb	0	485
protection	0	20
casual	0	251
writing	0	11
advisable	0	712
loosely	0	317
divider	0	927
undercoat	0	75
red	0	401
unscrew	1	92
print	0	790
return	0	40
lucky	0	193
location	0	893
lift	0	845
raise	0	454
tiger	0	176
span	0	45
awkward	0	249
perpendicular	0	103
nowadays	0	895
laser	0	304
organiser	0	685
option	0	367
either	0	749
dream	0	23
realign	0	583
separate	0	750
correct	0	357
prior	0	226
laborious	0	22
rate	0	774
fleece	0	349
vice	0	874
tight	0	736
curb	0	241
install	0	362
finished	0	639
score	0	509
separately	0	253
buy	0	407
grid	0	617
track	0	705
upholsterer	1	291
knock	0	772
earlier	0	84
lacquer	1	516
peg	0	117
pilot	0	880
begin	0	242
pole	0	656
foam	0	399
impact	0	898
worth	0	125
landing	0	104
cost	0	250
drawers	0	305
occasional	0	463
dining	0	761
additionally	0	159
silicon	0	917
refined	0	682
element	0	388
supporting	0	111
penetrate	0	677
tack	0	586
screen	0	346
anyway	0	245
plan	0	459
confusion	0	392
simultaneously	0	382
opposite	0	192
biscuit	0	690
invisible	0	721
opportunity	0	314
simplex	0	443
shade	0	181
