use	0.018763
screw	0.013630000000000001
panel	0.013391
hole	0.01212
surface	0.011456000000000001
drill	0.010761
side	0.009915
wood	0.008773999999999999
make	0.008348999999999999
cut	0.007675
edge	0.007647
paint	0.006913
base	0.006534000000000001
table	0.005903
fit	0.00587
board	0.005744
frame	0.005539
bit	0.005528
mark	0.005306
wall	0.005213000000000001
together	0.005149
position	0.005071
front	0.005006
rear	0.004875
top	0.004817
piece	0.004524
work	0.004497
sand	0.004468
section	0.004333
glue	0.004307
strip	0.004129
place	0.004111999999999999
first	0.004102000000000001
leg	0.004039
saw	0.003889
angle	0.003761
template	0.003691
joint	0.0036899999999999997
part	0.003679
apply	0.0036560000000000004
light	0.0035759999999999998
fasten	0.003571
shelf	0.0035299999999999997
head	0.0034630000000000004
insert	0.003437
also	0.003418
tip	0.003401
mount	0.003397
want	0.0033490000000000004
face	0.0033299999999999996
pencil	0.00328
workpiece	0.0031079999999999997
dowel	0.003029
clamp	0.003018
fix	0.003003
always	0.00288
paper	0.002859
centre	0.00285
back	0.002826
guide	0.002802
cordless	0.002774
door	0.0027600000000000003
rail	0.0027489999999999997
line	0.00274
construction	0.002702
long	0.00267
screwdriver	0.002665
corner	0.002644
spray	0.002633
inside	0.00263
dry	0.002623
bed	0.00262
join	0.002578
sure	0.002531
diameter	0.00249
support	0.002483
assemble	0.002421
way	0.002389
see	0.002385
follow	0.002369
plate	0.002327
form	0.002311
timber	0.002303
outer	0.002283
material	0.0022670000000000004
wheel	0.0022660000000000002
seat	0.002263
bracket	0.002246
size	0.0022199999999999998
bottom	0.002199
remove	0.00218
step	0.002157
wax	0.002156
blade	0.002133
ring	0.002116
cable	0.002114
drawing	0.002113
groove	0.002112
good	0.0020859999999999997
onto	0.002081
carcass	0.002079
upper	0.0020440000000000002
rout	0.002025
low	0.002009
flush	0.002003
nut	0.00199
suspension	0.001983
enough	0.0019809999999999997
small	0.00198
length	0.001963
curve	0.001959
short	0.001954
require	0.001947
instruction	0.001945
box	0.0019399999999999999
sander	0.0019379999999999998
mirror	0.001927
ensure	0.0019260000000000002
design	0.001925
countersink	0.001877
assembly	0.001866
grit	0.0018329999999999998
drilling	0.001829
procedure	0.0018149999999999998
canopy	0.0017980000000000001
attach	0.001789
drawer	0.0017640000000000002
align	0.0017510000000000002
visible	0.0017460000000000002
set	0.001736
precisely	0.0017289999999999999
connect	0.0017280000000000002
cover	0.0017109999999999998
different	0.0017100000000000001
flat	0.001703
later	0.0017010000000000003
jigsaw	0.0016920000000000001
point	0.001673
metal	0.0016460000000000001
cutout	0.0016350000000000002
bolt	0.001634
cloth	0.001627
Christmas	0.00161
fixture	0.0016079999999999998
depth	0.001599
draw	0.0015949999999999998
stain	0.0015890000000000001
perspex	0.0015890000000000001
leave	0.0015869999999999999
outline	0.001585
need	0.001584
tree	0.001577
tray	0.0015630000000000002
opening	0.0015609999999999999
area	0.001558
time	0.0015480000000000001
consist	0.001544
second	0.001539
well	0.001529
unit	0.001524
fine	0.001523
bar	0.001518
fitting	0.001516
roof	0.001516
end	0.001513
secure	0.0015019999999999999
prepare	0.001486
shape	0.0014759999999999999
measure	0.001469
along	0.001463
beam	0.00146
inner	0.00146
wide	0.00144
surround	0.001413
square	0.0014089999999999999
steering	0.0013830000000000001
rod	0.00137
compartment	0.001364
plastic	0.001363
chamfer	0.0013570000000000001
fill	0.001351
start	0.001349
system	0.001341
adjust	0.001334
scrap	0.0013289999999999999
parallel	0.001327
wooden	0.001326
task	0.001323
brake	0.0013210000000000001
large	0.001318
slide	0.0013160000000000001
right	0.001306
press	0.0012900000000000001
bench	0.001285
note	0.001282
connector	0.001277
cross	0.0012720000000000001
choose	0.001271
straight	0.0012699999999999999
store	0.001269
post	0.001251
minimalist	0.001241
case	0.001239
hang	0.0012380000000000002
even	0.001218
fibre	0.001216
technical	0.001207
thick	0.001206
slat	0.0012050000000000001
look	0.001201
castor	0.0011970000000000001
narrow	0.001196
spacer	0.001183
round	0.001183
recommend	0.001167
direction	0.001165
depend	0.001161
refer	0.001161
easy	0.0011539999999999999
foot	0.001153
fixings	0.00114
type	0.001123
varnish	0.00112
condition	0.001116
hanger	0.001114
quickly	0.0010960000000000002
without	0.0010949999999999998
upholstery	0.001093
marked	0.001088
block	0.0010869999999999999
remain	0.001076
thread	0.0010689999999999999
film	0.001064
axle	0.001064
suitable	0.00106
steer	0.00106
exactly	0.001053
desk	0.001053
stool	0.001051
process	0.001047
fabric	0.001047
turn	0.001045
deep	0.001045
room	0.001045
find	0.001031
properly	0.0010279999999999998
putty	0.001026
possible	0.0010220000000000001
application	0.001017
pressure	0.0010140000000000001
big	0.00101
downwards	0.001008
within	0.001006
partition	0.001004
adhesive	0.001001
contour	0.001
target	0.000997
conical	0.0009939999999999999
imaginative	0.0009939999999999999
cylindrical	0.0009939999999999999
throne	0.0009939999999999999
shank	0.0009939999999999999
miniature	0.0009939999999999999
simply	0.000984
stop	0.00098
buffer	0.00098
next	0.000976
circular	0.000974
trace	0.000968
quick	0.000965
carefully	0.000965
since	0.000958
example	0.0009570000000000001
perfect	0.000956
safety	0.000951
completely	0.00095
arm	0.000949
radius	0.000949
necessary	0.0009460000000000001
result	0.0009449999999999999
take	0.0009310000000000001
upwards	0.000925
prime	0.000925
grain	0.000923
furniture	0.0009220000000000001
armchair	0.000919
rim	0.000915
burr	0.000915
gable	0.0009140000000000001
protective	0.0009140000000000001
imagination	0.000908
centring	0.000908
achieve	0.000904
know	0.0009
finally	0.000898
dust	0.000895
specification	0.0008939999999999999
tape	0.000889
coat	0.0008880000000000001
seating	0.0008869999999999999
horizontal	0.00088
circle	0.000872
excess	0.0008699999999999999
describe	0.000869
list	0.0008640000000000001
transfer	0.0008609999999999999
put	0.0008609999999999999
accord	0.000859
shaped	0.000857
lie	0.0008560000000000001
treatment	0.0008550000000000001
skip	0.0008539999999999999
gun	0.00085
specialist	0.0008460000000000001
console	0.0008460000000000001
illustration	0.0008449999999999999
locate	0.0008439999999999999
absorbent	0.000843
specify	0.000842
carpenter	0.0008380000000000001
trestle	0.0008359999999999999
ideally	0.0008349999999999999
compact	0.000834
belt	0.000834
tank	0.0008320000000000001
log	0.000826
stroke	0.000826
DIY	0.000825
thickness	0.000824
grip	0.000824
Lay	0.000822
middle	0.00082
prevent	0.000819
compass	0.000816
required	0.0008150000000000001
wear	0.000814
floor	0.0008119999999999999
nice	0.000807
handle	0.0008060000000000001
vertical	0.000802
router	0.000801
run	0.000799
let	0.000799
wild	0.000799
left	0.000798
touch	0.000797
jet	0.000796
unsightly	0.000795
attachment	0.000793
project	0.000792
avoid	0.00079
lid	0.000781
hinge	0.000776
height	0.000775
speed	0.000775
goal	0.0007740000000000001
advice	0.000773
primer	0.000771
equipment	0.000769
stage	0.000769
evenly	0.000763
correctly	0.000762
shell	0.0007610000000000001
available	0.0007599999999999999
attention	0.000755
mitre	0.000754
rest	0.0007509999999999999
plinth	0.0007469999999999999
already	0.000746
finish	0.000745
copy	0.0007440000000000001
check	0.0007440000000000001
filler	0.000742
colour	0.00074
damp	0.000739
wipe	0.000739
accordance	0.0007379999999999999
device	0.000737
longitudinal	0.000736
seal	0.000735
bump	0.000735
pore	0.000735
time-consuming	0.000735
scratch	0.000735
display	0.000734
window	0.000726
enclose	0.000723
pay	0.000722
tool	0.000719
spruce	0.000715
slightly	0.000713
latter	0.000712
Multi	0.0007070000000000001
Easter	0.0007059999999999999
ask	0.0007030000000000001
slot	0.0007
glass	0.000697
taper	0.000696
show	0.000695
tube	0.000695
underneath	0.000695
complete	0.000692
build	0.000691
match	0.0006900000000000001
therefore	0.000688
term	0.000688
Philips	0.000688
newspaper	0.000684
distribute	0.000684
component	0.000681
distance	0.0006799999999999999
conceal	0.0006799999999999999
laminate	0.000677
masonry	0.000677
least	0.000677
protrude	0.000672
trickle	0.00067
create	0.00067
absorb	0.00067
carriage	0.000667
smooth	0.000663
arrange	0.000662
workability	0.000657
home	0.000657
deck	0.000656
offer	0.0006519999999999999
especially	0.000648
exact	0.000646
generally	0.00064
collar	0.00064
hammer	0.0006360000000000001
rotary	0.0006360000000000001
rib	0.000633
flatten	0.000633
high	0.0006320000000000001
risk	0.000629
hard	0.000628
slip	0.000627
sharp	0.0006259999999999999
movable	0.0006230000000000001
cord	0.0006219999999999999
rubber	0.0006219999999999999
control	0.0006219999999999999
band	0.00062
measurement	0.0006190000000000001
plank	0.000618
lounger	0.000615
hard-to-reach	0.000612
handy	0.000612
delta	0.000612
fence	0.000612
versatile	0.000612
late	0.000608
otherwise	0.000599
little	0.000599
get	0.000599
viscosity	0.000595
suit	0.000593
setscrew	0.000592
slowly	0.000592
Forstner	0.000591
lap	0.000589
teak	0.000589
extract	0.000588
First	0.000587
marking	0.000587
switch	0.000586
ideal	0.000586
provide	0.000585
change	0.0005809999999999999
spread	0.0005809999999999999
beforehand	0.0005780000000000001
degree	0.0005769999999999999
corresponding	0.0005769999999999999
coarse	0.0005769999999999999
appealing	0.000576
performance	0.000576
Furniture	0.000576
often	0.000576
detail	0.000576
intersect	0.000575
cutting	0.000575
disappear	0.0005740000000000001
whether	0.000573
purpose	0.000571
due	0.0005690000000000001
accordingly	0.0005679999999999999
outside	0.000566
space	0.000562
reason	0.0005610000000000001
suspend	0.0005610000000000001
solid	0.00056
strong	0.000558
width	0.000557
pedestal	0.000557
plywood	0.000557
aluminium	0.000557
handling	0.000553
read	0.000553
thoroughly	0.000553
alone	0.000549
sufficient	0.000549
buff	0.000547
half	0.000546
day	0.000546
working	0.000546
quality	0.000544
hold	0.000544
weather	0.000543
pin	0.000541
individual	0.000541
wire	0.00054
adapt	0.00054
hardener	0.000537
generously	0.000537
mix	0.000537
flow	0.000535
test	0.000535
nozzle	0.000535
water	0.000534
symbol	0.000534
orbit	0.000531
random	0.000531
feed	0.000529
ventilate	0.000525
alternative	0.000525
smoking	0.000525
drink	0.000525
house	0.000525
eat	0.000525
construct	0.000524
notch	0.000524
anything	0.000524
concrete	0.000524
lining	0.000524
special	0.000523
reach	0.000522
joist	0.000522
save	0.000518
root	0.000518
around	0.000518
barrier	0.000518
ceiling	0.000517
ball	0.000517
scrunch	0.000517
warm	0.000517
afterwards	0.000517
become	0.000517
leaf	0.000516
go-kart	0.000515
overheat	0.0005139999999999999
burn	0.0005139999999999999
occur	0.0005139999999999999
criterion	0.000513
Torx	0.000513
category	0.000512
price	0.000512
range	0.000512
treasure	0.000512
various	0.000512
however	0.0005099999999999999
thus	0.0005099999999999999
upright	0.000509
effortlessly	0.000508
detailed	0.000505
entitle	0.000505
link	0.000505
resistance	0.000503
robinia	0.000503
certain	0.000503
trolley	0.0005009999999999999
twist	0.0005
mixture	0.0005
practice	0.0005
experienced	0.0005
sample	0.0005
painter	0.0005
triangle	0.0005
durability	0.000499
carry	0.0004980000000000001
reinforcement	0.0004980000000000001
dilute	0.000495
able	0.0004940000000000001
easily	0.0004940000000000001
countertop	0.0004940000000000001
tongue	0.000493
left-hand	0.000493
away	0.000492
bowl	0.000492
particular	0.000491
essentially	0.00049
strongly	0.00049
file	0.000489
pour	0.000484
rinse	0.000482
select	0.000482
phase	0.000482
bevel	0.00047999999999999996
particularly	0.000479
determine	0.000478
duct	0.00047699999999999994
sponge	0.00047599999999999997
rub	0.00047599999999999997
rope	0.00047599999999999997
roller	0.000475
open	0.000475
main	0.000475
ruler	0.000472
manufacturer	0.000472
painted	0.000471
holder	0.00047000000000000004
important	0.00047000000000000004
property	0.000469
third	0.000468
directly	0.000468
vertically	0.000468
layer	0.000466
cleanly	0.000465
decorative	0.000463
rafter	0.000462
split	0.00046100000000000004
multiplex	0.00046100000000000004
everything	0.00045999999999999996
overlap	0.00045999999999999996
normal	0.00045999999999999996
substructure	0.00045999999999999996
medium	0.00045999999999999996
centimetre	0.00045999999999999996
drive	0.00045999999999999996
less	0.000459
move	0.000459
previous	0.000459
hand	0.00045700000000000005
blemish	0.00045599999999999997
residue	0.00045599999999999997
mask	0.00045599999999999997
towel	0.000454
soft	0.000452
gleam	0.000452
brush	0.000452
polish	0.000452
immediately	0.00045099999999999996
outlet	0.00044699999999999997
several	0.000446
Delta	0.00044500000000000003
painting	0.00044500000000000003
washstand	0.000443
bathroom	0.000443
fashion	0.000443
X-shaped	0.000442
Pour	0.000442
mechanism	0.00044100000000000004
mean	0.00044100000000000004
damage	0.000439
repeat	0.00043799999999999997
oak	0.00043799999999999997
rack	0.000437
right-hand	0.00043499999999999995
ease	0.000434
previously	0.000433
give	0.000433
appear	0.00043200000000000004
pane	0.00043099999999999996
beech	0.00043
behind	0.00043
knob	0.000429
sideboard	0.000429
securely	0.00042800000000000005
spring	0.00042800000000000005
piano	0.00042699999999999997
centrally	0.00042699999999999997
overall	0.000426
finely	0.000426
increase	0.000426
clean	0.000424
sill	0.00042300000000000004
backing	0.000421
birch	0.000421
opt	0.00041799999999999997
glove	0.00041799999999999997
tear	0.00041799999999999997
replace	0.000417
used	0.000417
soon	0.000417
triangular	0.00041600000000000003
normally	0.00041600000000000003
smoothly	0.000413
perform	0.000413
common	0.000413
approximately	0.000412
comprise	0.000412
pull	0.000407
storage	0.00040300000000000004
beginner	0.00040300000000000004
perfectly	0.0004
guarantee	0.000399
bedside	0.000396
birdhouse	0.000395
branch	0.000393
never	0.000393
acrylic	0.000389
counterpart	0.000388
observe	0.000388
double	0.00038700000000000003
pedal	0.00038700000000000003
occasionally	0.00038199999999999996
job	0.000381
simple	0.000381
like	0.000381
many	0.00037799999999999997
polyurethane	0.000377
old	0.000377
course	0.000376
basin	0.000376
plunge	0.000375
barely	0.000375
dinner	0.000373
trunk	0.00037200000000000004
auger	0.00037200000000000004
introduction	0.00037
shallow	0.00037
chest	0.00037
version	0.00037
unprotected	0.000367
sun	0.000366
lower	0.000366
dimension	0.000365
kitchen	0.000365
hook	0.000364
axis	0.000361
designer	0.00036
natural	0.00036
blind	0.000359
fibreboard	0.00035800000000000003
retail	0.000357
dab	0.000354
fully	0.000354
single	0.000352
shield	0.00035099999999999997
oil	0.00035099999999999997
glare	0.00035099999999999997
ladder	0.000348
globe	0.000348
rung	0.000348
appropriate	0.000346
accurately	0.00034500000000000004
classic	0.00034500000000000004
still	0.00034500000000000004
recess	0.00033999999999999997
festive	0.000339
underlay	0.000338
rectangular	0.000338
hacksaw	0.000337
safe	0.000336
stand	0.000335
rule	0.000335
fold	0.000335
priming	0.000332
string	0.000332
wash	0.000327
allow	0.00032599999999999996
loft	0.00032599999999999996
bedroom	0.00032599999999999996
contrast	0.00032599999999999996
L-shaped	0.00032599999999999996
pen	0.000325
feel	0.000325
remember	0.000324
broad	0.000323
beautiful	0.000321
slant	0.00032
lead	0.000317
spirit	0.000317
difficult	0.000317
level	0.000317
walk-in	0.00031600000000000004
wardrobe	0.00031600000000000004
per	0.00031299999999999996
pendant	0.000312
bunny	0.00031099999999999997
untidy	0.00031
loose	0.00031
loop	0.000308
steel	0.000307
thin	0.000303
full	0.000301
flowerbed	0.0003
produce	0.000299
armrest	0.000299
relevant	0.000298
plug	0.000296
coffee	0.000296
plant	0.000295
grow	0.000295
turnbuckle	0.000294
close	0.000293
row	0.000292
stagger	0.000292
diagonally	0.000292
amount	0.000291
absolutely	0.000291
folding	0.00029
firmly	0.00028900000000000003
lateral	0.00028900000000000003
via	0.00028900000000000003
fruit	0.00028900000000000003
uppermost	0.000286
gap	0.000286
overhead	0.000283
staple	0.00028
cosy	0.000278
lengthways	0.000278
pass	0.00027400000000000005
one	0.000272
invest	0.000272
afraid	0.000272
lounge	0.000272
Velcro	0.00027
fluorescent	0.000268
Valentine	0.000266
method	0.000265
connection	0.000264
protect	0.000263
watch	0.000262
tacker	0.000262
pose	0.000262
ready	0.000261
highly	0.000261
treat	0.000261
facing	0.00026000000000000003
tile	0.00026000000000000003
bore	0.00026000000000000003
bottle	0.000259
swivel	0.000259
Tip	0.000259
final	0.000259
pad	0.000258
universal	0.00025699999999999996
practical	0.00025699999999999996
Clamp	0.00025699999999999996
great	0.00025699999999999996
precise	0.000256
stick	0.000256
tightly	0.00025499999999999996
motif	0.00025499999999999996
skirt	0.000254
hand-held	0.000254
enjoy	0.00025299999999999997
electric	0.00025299999999999997
lock	0.00025299999999999997
fairy	0.00025299999999999997
diagonal	0.000252
lay	0.000252
crown	0.000252
structure	0.000252
milky	0.00025
combine	0.00024900000000000004
object	0.000246
rework	0.000244
lamp	0.00024300000000000002
routing	0.000241
elegant	0.00023999999999999998
Hang	0.00023700000000000001
shaft	0.00023700000000000001
blue	0.00023700000000000001
garden	0.00023700000000000001
robust	0.000236
something	0.00023500000000000002
really	0.00023500000000000002
self-made	0.00023500000000000002
scribe	0.000234
handrail	0.000234
release	0.000234
calculate	0.00023199999999999997
formula	0.00023199999999999997
seamlessly	0.00023199999999999997
padding	0.000231
past	0.000231
Mark	0.000229
washer	0.00022799999999999999
accommodate	0.000227
injury	0.000227
picture	0.000227
pronounced	0.000226
gabled	0.000225
accessory	0.00022400000000000002
forget	0.00022400000000000002
entrance	0.00022400000000000002
retailer	0.000223
diamond	0.000223
tighten	0.000223
detach	0.000221
paintbrush	0.000221
slope	0.000221
cutter	0.00022
enable	0.00022
far	0.00022
decide	0.00022
pointed	0.00022
disfigure	0.00022
push	0.000218
towards	0.000217
transverse	0.00021600000000000002
intermediate	0.00021400000000000002
eye-catcher	0.000212
crepe	0.000212
bear	0.00021099999999999998
bank	0.00021099999999999998
Stretch	0.00021
exclusive	0.00021
cool	0.00021
protection	0.00021
atmosphere	0.00021
optimum	0.00021
bulb	0.00021
attractive	0.00021
casual	0.000199
writing	0.000199
loosely	0.000198
divider	0.000198
undercoat	0.000198
advisable	0.000198
Bosch	0.000197
Ace	0.000197
define	0.000197
print	0.000197
red	0.000197
unscrew	0.000197
return	0.000196
lucky	0.000195
Oak	0.000195
lift	0.000194
location	0.000194
raise	0.000194
tiger	0.000194
perpendicular	0.000192
span	0.000192
awkward	0.000192
include	0.00019099999999999998
protrusion	0.00018999999999999998
nowadays	0.00018899999999999999
lean	0.00018899999999999999
laser	0.00018899999999999999
organiser	0.00018899999999999999
option	0.00018899999999999999
either	0.000188
dream	0.000188
guest	0.000188
prior	0.00018700000000000002
candle	0.00018700000000000002
install	0.00018700000000000002
curb	0.00018700000000000002
realign	0.00018700000000000002
fleece	0.00018700000000000002
correct	0.00018700000000000002
vice	0.00018700000000000002
separate	0.00018700000000000002
rate	0.00018700000000000002
laborious	0.00018700000000000002
tight	0.00018700000000000002
pilot	0.00018600000000000002
porthole	0.00018600000000000002
impact	0.00018600000000000002
foam	0.00018600000000000002
grid	0.00018600000000000002
worth	0.00018600000000000002
machine	0.00018600000000000002
adhere	0.00018600000000000002
separately	0.00018600000000000002
upholsterer	0.00018600000000000002
landing	0.00018600000000000002
buy	0.00018600000000000002
knock	0.00018600000000000002
lacquer	0.00018600000000000002
begin	0.00018600000000000002
finished	0.00018600000000000002
earlier	0.00018600000000000002
pole	0.00018600000000000002
score	0.00018600000000000002
track	0.00018600000000000002
peg	0.00018600000000000002
element	0.000185
silicon	0.000185
differ	0.000185
refined	0.000185
additionally	0.000185
drawers	0.000185
cost	0.000185
dining	0.000185
supporting	0.000185
occasional	0.000185
tack	0.000184
penetrate	0.000184
screen	0.000184
plan	0.000184
anyway	0.000184
opposite	0.000183
invisible	0.000183
U-shaped	0.000183
retain	0.000183
biscuit	0.000183
confusion	0.000183
simultaneously	0.000183
shade	0.000182
simplex	0.000182
opportunity	0.000182
