trestle	0.000836
pointed	0.00022
centrally	0.000427
movable	0.000623
shallow	0.00037
template	0.003691
Furniture	0.000576
fibre	0.001216
imaginative	0.000994
partition	0.001004
pedal	0.000387
door	0.00276
suspension	0.001983
properly	0.001028
attention	0.000755
overheat	0.000514
treatment	0.000855
precisely	0.001729
suitable	0.00106
opt	0.000418
large	0.001318
glass	0.000697
bedside	0.000396
alone	0.000549
essentially	0.00049
bore	0.00026
assemble	0.002421
extract	0.000588
carcass	0.002079
example	0.000957
application	0.001017
rafter	0.000462
suit	0.000593
equipment	0.000769
reach	0.000522
job	0.000381
parallel	0.001327
tree	0.001577
fixings	0.00114
marking	0.000587
ready	0.000261
opening	0.001561
longitudinal	0.000736
least	0.000677
finely	0.000426
self-made	0.000235
Velcro	0.00027
base	0.006534
cleanly	0.000465
gable	0.000914
used	0.000417
opportunity	0.000182
directly	0.000468
garden	0.000237
accord	0.000859
glare	0.000351
avoid	0.00079
lower	0.000366
middle	0.00082
holder	0.00047
appear	0.000432
part	0.003679
metal	0.001646
casual	0.000199
pose	0.000262
protrude	0.000672
coat	0.000888
console	0.000846
pen	0.000325
shield	0.000351
tape	0.000889
intersect	0.000575
nozzle	0.000535
ladder	0.000348
second	0.001539
precise	0.000256
simultaneously	0.000183
window	0.000726
tile	0.00026
row	0.000292
length	0.001963
main	0.000475
cutout	0.001635
rim	0.000915
durability	0.000499
damage	0.000439
painter	0.0005
protection	0.00021
case	0.001239
show	0.000695
stand	0.000335
pin	0.000541
dining	0.000185
pedestal	0.000557
leave	0.001587
next	0.000976
span	0.000192
describe	0.000869
upholsterer	0.000186
achieve	0.000904
behind	0.00043
provide	0.000585
mix	0.000537
drawer	0.001764
accurately	0.000345
foot	0.001153
Multi	0.000707
hammer	0.000636
tray	0.001563
price	0.000512
flush	0.002003
diameter	0.00249
experienced	0.0005
fence	0.000612
finish	0.000745
cost	0.000185
normally	0.000416
axis	0.000361
great	0.000257
curb	0.000187
rod	0.00137
mirror	0.001927
priming	0.000332
together	0.005149
carry	0.000498
individual	0.000541
bump	0.000735
dust	0.000895
evenly	0.000763
steer	0.00106
screw	0.01363
outlet	0.000447
grip	0.000824
condition	0.001116
knock	0.000186
procedure	0.001815
plate	0.002327
result	0.000945
fasten	0.003571
eye-catcher	0.000212
pay	0.000722
close	0.000293
vice	0.000187
mitre	0.000754
frame	0.005539
fold	0.000335
join	0.002578
fairy	0.000253
tongue	0.000493
skip	0.000854
protect	0.000263
fully	0.000354
either	0.000188
completely	0.00095
painted	0.000471
silicon	0.000185
counterpart	0.000388
way	0.002389
outer	0.002283
later	0.001701
handle	0.000806
rubber	0.000622
acrylic	0.000389
element	0.000185
generously	0.000537
day	0.000546
everything	0.00046
measurement	0.000619
accordance	0.000738
burn	0.000514
joist	0.000522
especially	0.000648
saw	0.003889
realign	0.000187
plant	0.000295
entitle	0.000505
diamond	0.000223
handling	0.000553
appealing	0.000576
bench	0.001285
straight	0.00127
cable	0.002114
centimetre	0.00046
deep	0.001045
lamp	0.000243
wall	0.005213
detach	0.000221
bed	0.00262
primer	0.000771
retain	0.000183
method	0.000265
earlier	0.000186
flat	0.001703
look	0.001201
property	0.000469
awkward	0.000192
height	0.000775
rotary	0.000636
fruit	0.000289
jigsaw	0.001692
imagination	0.000908
versatile	0.000612
side	0.009915
many	0.000378
one	0.000272
prior	0.000187
roof	0.001516
grit	0.001833
construction	0.002702
adapt	0.00054
switch	0.000586
DIY	0.000825
bunny	0.000311
drawers	0.000185
give	0.000433
scrunch	0.000517
prepare	0.001486
facing	0.00026
belt	0.000834
touch	0.000797
hold	0.000544
bulb	0.00021
spacer	0.001183
smoking	0.000525
type	0.001123
confusion	0.000183
sun	0.000366
onto	0.002081
burr	0.000915
define	0.000197
lean	0.000189
router	0.000801
drawing	0.002113
filler	0.000742
board	0.005744
due	0.000569
conical	0.000994
afterwards	0.000517
First	0.000587
wood	0.008774
flatten	0.000633
remain	0.001076
draw	0.001595
sponge	0.000476
shape	0.001476
effortlessly	0.000508
select	0.000482
atmosphere	0.00021
Clamp	0.000257
decide	0.00022
Christmas	0.00161
inner	0.00146
already	0.000746
worth	0.000186
triangle	0.0005
dilute	0.000495
Oak	0.000195
particular	0.000491
performance	0.000576
right	0.001306
knob	0.000429
watch	0.000262
vertically	0.000468
hand	0.000457
leaf	0.000516
sample	0.0005
short	0.001954
various	0.000512
safe	0.000336
read	0.000553
carefully	0.000965
enjoy	0.000253
supporting	0.000185
display	0.000734
rest	0.000751
throne	0.000994
coarse	0.000577
tighten	0.000223
size	0.00222
see	0.002385
forget	0.000224
scratch	0.000735
rope	0.000476
plank	0.000618
push	0.000218
soon	0.000417
simple	0.000381
cover	0.001711
check	0.000744
birch	0.000421
enclose	0.000723
feel	0.000325
mean	0.000441
enough	0.001981
circle	0.000872
retailer	0.000223
uppermost	0.000286
stool	0.001051
technical	0.001207
towel	0.000454
store	0.001269
rework	0.000244
quickly	0.001096
horizontal	0.00088
excess	0.00087
scrap	0.001329
hole	0.01212
brake	0.001321
whether	0.000573
around	0.000518
remember	0.000324
decorative	0.000463
ring	0.002116
wooden	0.001326
untidy	0.00031
fibreboard	0.000358
project	0.000792
working	0.000546
position	0.005071
detailed	0.000505
cylindrical	0.000994
screen	0.000184
undercoat	0.000198
laminate	0.000677
unscrew	0.000197
robust	0.000236
put	0.000861
tear	0.000418
lock	0.000253
root	0.000518
dowel	0.003029
classic	0.000345
overall	0.000426
thread	0.001069
wash	0.000327
thin	0.000303
several	0.000446
washer	0.000228
sill	0.000423
auger	0.000372
save	0.000518
assembly	0.001866
drilling	0.001829
centre	0.00285
grain	0.000923
need	0.001584
previous	0.000459
transfer	0.000861
cosy	0.000278
track	0.000186
install	0.000187
area	0.001558
left-hand	0.000493
correctly	0.000762
milky	0.00025
complete	0.000692
bolt	0.001634
via	0.000289
upholstery	0.001093
deck	0.000656
centring	0.000908
depth	0.001599
seamlessly	0.000232
hook	0.000364
half	0.000546
resistance	0.000503
within	0.001006
castor	0.001197
crown	0.000252
screwdriver	0.002665
begin	0.000186
use	0.018763
backing	0.000421
depend	0.001161
thus	0.00051
late	0.000608
handrail	0.000234
end	0.001513
birdhouse	0.000395
stagger	0.000292
category	0.000512
light	0.003576
robinia	0.000503
practice	0.0005
smooth	0.000663
designer	0.00036
sand	0.004468
note	0.001282
armchair	0.000919
face	0.00333
beautiful	0.000321
mark	0.005306
penetrate	0.000184
paper	0.002859
spring	0.000428
object	0.000246
important	0.00047
roller	0.000475
bottom	0.002199
drill	0.010761
appropriate	0.000346
corresponding	0.000577
back	0.002826
advisable	0.000198
level	0.000317
well	0.001529
differ	0.000185
washstand	0.000443
divider	0.000198
separate	0.000187
firmly	0.000289
head	0.003463
comprise	0.000412
round	0.001183
slip	0.000627
log	0.000826
spread	0.000581
staple	0.00028
lateral	0.000289
perfectly	0.0004
smoothly	0.000413
previously	0.000433
unsightly	0.000795
festive	0.000339
glove	0.000418
concrete	0.000524
cool	0.00021
sander	0.001938
adhere	0.000186
finally	0.000898
protrusion	0.00019
Bosch	0.000197
diagonally	0.000292
possible	0.001022
shaft	0.000237
like	0.000381
open	0.000475
loosely	0.000198
optimum	0.00021
finished	0.000186
split	0.000461
corner	0.002644
big	0.00101
guide	0.002802
tack	0.000184
final	0.000259
advice	0.000773
rib	0.000633
peg	0.000186
accommodate	0.000227
return	0.000196
pull	0.000407
lift	0.000194
delta	0.000612
flowerbed	0.0003
available	0.00076
highly	0.000261
tacker	0.000262
strip	0.004129
ensure	0.001926
aluminium	0.000557
cutter	0.00022
motif	0.000255
simply	0.000984
rub	0.000476
underlay	0.000338
taper	0.000696
entrance	0.000224
connection	0.000264
exact	0.000646
really	0.000235
work	0.004497
invest	0.000272
home	0.000657
protective	0.000914
Mark	0.000229
go-kart	0.000515
manufacturer	0.000472
left	0.000798
course	0.000376
putty	0.001026
twist	0.0005
high	0.000632
ease	0.000434
trunk	0.000372
different	0.00171
trace	0.000968
change	0.000581
mixture	0.0005
along	0.001463
ideal	0.000586
swivel	0.000259
safety	0.000951
good	0.002086
stick	0.000256
gun	0.00085
low	0.002009
able	0.000494
double	0.000387
copy	0.000744
house	0.000525
Lay	0.000822
turn	0.001045
purpose	0.000571
gap	0.000286
marked	0.001088
duct	0.000477
blue	0.000237
workpiece	0.003108
Delta	0.000445
lid	0.000781
ideally	0.000835
small	0.00198
formula	0.000232
simplex	0.000182
axle	0.001064
cord	0.000622
invisible	0.000183
box	0.00194
never	0.000393
therefore	0.000688
choose	0.001271
table	0.005903
medium	0.00046
guarantee	0.000399
transverse	0.000216
canopy	0.001798
link	0.000505
arm	0.000949
carpenter	0.000838
conceal	0.00068
allow	0.000326
shell	0.000761
difficult	0.000317
injury	0.000227
amount	0.000291
multiplex	0.000461
landing	0.000186
narrow	0.001196
hard-to-reach	0.000612
risk	0.000629
gabled	0.000225
eat	0.000525
rung	0.000348
padding	0.000231
laser	0.000189
branch	0.000393
range	0.000512
loop	0.000308
spruce	0.000715
buff	0.000547
hardener	0.000537
ceiling	0.000517
globe	0.000348
distribute	0.000684
Valentine	0.000266
wardrobe	0.000316
newspaper	0.000684
easy	0.001154
film	0.001064
spirit	0.000317
random	0.000531
nut	0.00199
tip	0.003401
release	0.000234
chest	0.00037
immediately	0.000451
nice	0.000807
flow	0.000535
varnish	0.00112
bevel	0.00048
combine	0.000249
wipe	0.000739
barely	0.000375
align	0.001751
top	0.004817
per	0.000313
long	0.00267
exclusive	0.00021
teak	0.000589
lie	0.000856
single	0.000352
stroke	0.000826
observe	0.000388
past	0.000231
notch	0.000524
match	0.00069
cut	0.007675
trolley	0.000501
overlap	0.00046
drink	0.000525
lead	0.000317
plinth	0.000747
raise	0.000194
Stretch	0.00021
old	0.000377
introduction	0.00037
perspex	0.001589
pressure	0.001014
turnbuckle	0.000294
direction	0.001165
ball	0.000517
beam	0.00146
step	0.002157
intermediate	0.000214
fluorescent	0.000268
construct	0.000524
post	0.001251
wire	0.00054
candle	0.000187
speed	0.000775
weather	0.000543
Philips	0.000688
bowl	0.000492
shank	0.000994
trickle	0.00067
occur	0.000514
skirt	0.000254
cordless	0.002774
triangular	0.000416
component	0.000681
plan	0.000184
slide	0.001316
armrest	0.000299
bear	0.000211
red	0.000197
gleam	0.000452
cross	0.001272
outline	0.001585
exactly	0.001053
hang	0.001238
steering	0.001383
rack	0.000437
chamfer	0.001357
recommend	0.001167
elegant	0.00024
tool	0.000719
spray	0.002633
jet	0.000796
width	0.000557
consist	0.001544
prime	0.000925
substructure	0.00046
unit	0.001524
instruction	0.001945
illustration	0.000845
repeat	0.000438
crepe	0.000212
dry	0.002623
lap	0.000589
adjust	0.001334
fix	0.003003
machine	0.000186
term	0.000688
become	0.000517
normal	0.00046
pole	0.000186
quality	0.000544
location	0.000194
Pour	0.000442
version	0.00037
structure	0.000252
U-shaped	0.000183
natural	0.00036
Torx	0.000513
option	0.000189
full	0.000301
sharp	0.000626
rate	0.000187
mechanism	0.000441
create	0.00067
grid	0.000186
walk-in	0.000316
additionally	0.000185
wide	0.00144
bracket	0.002246
ruler	0.000472
towards	0.000217
phase	0.000482
quick	0.000965
often	0.000576
floor	0.000812
enable	0.00022
little	0.000599
process	0.001047
unprotected	0.000367
list	0.000864
wheel	0.002266
buffer	0.00098
rear	0.004875
Easter	0.000706
paintbrush	0.000221
compartment	0.001364
vertical	0.000802
treasure	0.000512
retail	0.000357
upper	0.002044
always	0.00288
rectangular	0.000338
circular	0.000974
slot	0.0007
time	0.001548
form	0.002311
lounger	0.000615
perpendicular	0.000192
ask	0.000703
securely	0.000428
right-hand	0.000435
practical	0.000257
Forstner	0.000591
easily	0.000494
downwards	0.001008
angle	0.003761
bar	0.001518
setscrew	0.000592
laborious	0.000187
blemish	0.000456
polyurethane	0.000377
blind	0.000359
storage	0.000403
overhead	0.000283
shade	0.000182
minimalist	0.001241
universal	0.000257
print	0.000197
perfect	0.000956
find	0.001031
rinse	0.000482
contrast	0.000326
connect	0.001728
attachment	0.000793
device	0.000737
barrier	0.000518
brush	0.000452
build	0.000691
strongly	0.00049
offer	0.000652
pendant	0.000312
task	0.001323
produce	0.000299
lining	0.000524
biscuit	0.000183
press	0.00129
compass	0.000816
adhesive	0.001001
certain	0.000503
carriage	0.000667
impact	0.000186
secure	0.001502
lengthways	0.000278
handy	0.000612
hanger	0.001114
start	0.001349
test	0.000535
polish	0.000452
piano	0.000427
separately	0.000186
design	0.001925
still	0.000345
shelf	0.00353
slightly	0.000713
suspend	0.000561
tight	0.000187
piece	0.004524
time-consuming	0.000735
rout	0.002025
upright	0.000509
fit	0.00587
plug	0.000296
buy	0.000186
outside	0.000566
L-shaped	0.000326
pad	0.000258
support	0.002483
hand-held	0.000254
correct	0.000187
lay	0.000252
sure	0.002531
edge	0.007647
include	0.000191
compact	0.000834
seating	0.000887
bit	0.005528
thickness	0.000824
fine	0.001523
know	0.0009
fleece	0.000187
hinge	0.000776
move	0.000459
target	0.000997
wild	0.000799
tiger	0.000194
far	0.00022
X-shaped	0.000442
coffee	0.000296
wax	0.002156
specify	0.000842
slat	0.001205
dimension	0.000365
countertop	0.000494
insert	0.003437
stop	0.00098
control	0.000622
panel	0.013391
guest	0.000188
tightly	0.000255
block	0.001087
fixture	0.001608
less	0.000459
place	0.004112
score	0.000186
string	0.000332
shaped	0.000857
hard	0.000628
beech	0.00043
necessary	0.000946
leg	0.004039
rule	0.000335
grow	0.000295
require	0.001947
Hang	0.000237
opposite	0.000183
section	0.004333
since	0.000958
pronounced	0.000226
writing	0.000199
specification	0.000894
organiser	0.000189
dream	0.000188
dinner	0.000373
reason	0.000561
beginner	0.000403
loft	0.000326
stage	0.000769
detail	0.000576
stain	0.001589
warm	0.000517
slope	0.000221
criterion	0.000513
occasionally	0.000382
fabric	0.001047
workability	0.000657
distance	0.00068
pour	0.000484
attach	0.001789
paint	0.006913
colour	0.00074
wear	0.000814
alternative	0.000525
picture	0.000227
lacquer	0.000186
viscosity	0.000595
lucky	0.000195
foam	0.000186
routing	0.000241
recess	0.00034
file	0.000489
plunge	0.000375
mount	0.003397
treat	0.000261
timber	0.002303
absorbent	0.000843
latter	0.000712
countersink	0.001877
miniature	0.000994
away	0.000492
inside	0.00263
plywood	0.000557
solid	0.00056
calculate	0.000232
pane	0.000431
attractive	0.00021
ventilate	0.000525
water	0.000534
apply	0.003656
however	0.00051
room	0.001045
contour	0.001
generally	0.00064
accordingly	0.000568
drive	0.00046
clean	0.000424
required	0.000815
seal	0.000735
visible	0.001746
common	0.000413
cloth	0.001627
pass	0.000274
curve	0.001959
beforehand	0.000578
absolutely	0.000291
front	0.005006
square	0.001409
band	0.00062
degree	0.000577
anything	0.000524
tube	0.000695
thoroughly	0.000553
slowly	0.000592
locate	0.000844
sufficient	0.000549
anyway	0.000184
bathroom	0.000443
bedroom	0.000326
porthole	0.000186
clamp	0.003018
dab	0.000354
set	0.001736
increase	0.000426
seat	0.002263
orbit	0.000531
slant	0.00032
space	0.000562
measure	0.001469
want	0.003349
collar	0.00064
rail	0.002749
damp	0.000739
arrange	0.000662
without	0.001095
residue	0.000456
Ace	0.000197
get	0.000599
follow	0.002369
soft	0.000452
material	0.002267
special	0.000523
replace	0.000417
diagonal	0.000252
prevent	0.000819
desk	0.001053
thick	0.001206
feed	0.000529
make	0.008349
underneath	0.000695
disfigure	0.00022
third	0.000468
sideboard	0.000429
fill	0.001351
cutting	0.000575
determine	0.000478
kitchen	0.000365
specialist	0.000846
mask	0.000456
even	0.001218
run	0.000799
something	0.000235
goal	0.000774
occasional	0.000185
absorb	0.00067
let	0.000799
fashion	0.000443
otherwise	0.000599
disappear	0.000574
connector	0.001277
reinforcement	0.000498
bottle	0.000259
loose	0.00031
take	0.000931
refined	0.000185
glue	0.004307
masonry	0.000677
radius	0.000949
point	0.001673
particularly	0.000479
broad	0.000323
blade	0.002133
remove	0.00218
perform	0.000413
afraid	0.000272
pore	0.000735
groove	0.002112
layer	0.000466
first	0.004102
also	0.003418
pencil	0.00328
joint	0.00369
upwards	0.000925
plastic	0.001363
fitting	0.001516
symbol	0.000534
system	0.001341
oak	0.000438
scribe	0.000234
line	0.00274
surround	0.001413
strong	0.000558
refer	0.001161
Tip	0.000259
approximately	0.000412
steel	0.000307
nowadays	0.000189
lounge	0.000272
hacksaw	0.000337
electric	0.000253
relevant	0.000298
furniture	0.000922
painting	0.000445
pilot	0.000186
bank	0.000211
tank	0.000832
surface	0.011456
basin	0.000376
accessory	0.000224
oil	0.000351
folding	0.00029
