use	0	628
screw	1	838
panel	1	604
drill	1	625
hole	0	158
surface	1	799
side	0	763
wood	1	52
make	0	303
edge	0	705
cut	1	852
wall	0	246
paint	1	868
table	0	690
base	0	5
together	0	660
fit	0	564
mark	0	826
board	1	550
bit	0	645
piece	0	623
sand	0	343
frame	0	801
glue	0	892
angle	0	317
rear	0	267
work	0	11
joint	1	59
apply	0	356
leg	0	599
section	0	24
part	0	157
position	0	367
paper	1	607
fasten	0	489
top	0	46
strip	0	233
guide	0	667
first	0	389
saw	1	230
clamp	1	210
tip	0	502
template	0	786
workpiece	0	500
front	0	66
insert	0	21
place	0	145
dowel	1	807
corner	0	836
want	0	603
mount	0	562
shelf	0	383
rail	1	391
always	0	323
also	0	402
pencil	1	374
face	1	497
bed	0	341
construction	0	339
head	0	268
leave	0	234
sure	0	270
spray	0	794
fix	0	766
dry	0	819
cable	1	330
light	1	731
grit	1	773
log	0	589
centre	1	648
follow	0	188
remove	0	214
parallel	0	401
line	0	400
door	0	431
seat	0	512
cordless	0	443
scrap	0	115
diameter	0	272
screwdriver	1	813
good	0	452
join	0	34
press	0	887
long	0	146
well	0	465
assemble	0	280
way	0	597
instruction	0	717
sander	1	617
see	0	641
assembly	0	156
material	0	685
later	0	737
outer	0	700
wax	0	309
groove	1	329
small	0	94
block	1	635
visible	0	397
drawing	0	49
straight	0	802
countersink	1	844
ring	0	554
pressure	0	333
buffer	0	755
step	0	803
drawer	0	526
plate	0	761
secure	0	652
cloth	1	760
wheel	1	643
blade	1	439
onto	0	876
drilling	1	631
form	0	250
support	0	659
nut	1	738
low	0	23
box	0	481
ensure	0	709
enough	0	200
timber	1	283
depth	0	221
length	0	193
avoid	0	194
mirror	0	259
time	0	856
unsightly	0	655
size	0	606
bracket	0	118
suspension	0	536
second	0	515
roof	0	682
evenly	0	168
carcass	1	582
upper	0	624
achieve	0	509
distribute	0	346
back	0	765
require	0	76
rout	1	98
fine	0	366
procedure	0	778
jigsaw	1	399
connect	0	513
design	0	815
tray	0	622
canopy	0	134
different	0	141
short	0	325
tree	0	544
curve	0	694
along	0	735
area	0	835
point	0	460
attach	0	378
precisely	0	701
align	0	405
fixture	0	549
consist	0	252
flat	0	857
shape	0	419
bolt	1	886
set	0	427
prepare	0	474
cutout	0	812
flush	0	438
inside	0	297
fill	0	706
room	0	477
putty	0	728
unit	0	10
large	0	220
system	0	511
rod	0	407
draw	0	555
start	0	680
metal	1	573
fibre	0	782
wide	0	219
steering	1	106
seating	1	698
need	0	764
wooden	1	249
beam	0	258
marked	0	286
bar	0	314
take	0	306
fitting	1	720
condition	0	406
thick	1	865
outline	0	411
stain	0	413
choose	0	179
perspex	0	409
cover	0	788
compartment	0	885
opening	1	338
recommend	0	894
chamfer	1	164
bottom	0	371
easy	0	104
adjust	0	547
technical	0	806
hang	0	135
task	0	28
varnish	1	785
post	0	800
even	0	129
inner	0	727
partition	1	653
end	0	114
spacer	0	321
brake	0	362
bench	1	896
possible	0	656
safety	0	206
without	0	349
narrow	1	43
note	0	824
properly	1	795
stool	1	142
armchair	0	833
direction	0	428
measure	0	891
necessary	0	482
quick	1	229
turn	0	55
foot	0	257
application	0	225
quickly	0	196
tank	0	198
upholstery	0	739
cross	1	67
look	0	58
fixings	1	863
console	0	789
desk	0	122
hanger	0	640
furniture	0	421
shank	0	510
treasure	0	163
conical	0	6
imaginative	0	261
barrier	0	707
throne	0	632
miniature	0	639
plastic	0	254
chest	0	612
cylindrical	0	240
root	0	775
control	0	32
refer	0	12
mitre	1	255
surround	0	244
connector	1	218
type	0	601
case	0	109
axle	0	470
big	0	184
gable	0	464
slide	0	386
prime	1	853
contour	0	77
process	0	881
exactly	0	552
film	0	670
radius	0	586
remain	0	568
stroke	0	878
deep	0	531
grain	1	4
within	0	14
example	0	209
carefully	0	147
protective	0	516
suitable	0	390
round	0	473
grip	0	493
wear	0	238
describe	0	418
burr	1	787
gun	0	307
slat	1	519
perfect	0	676
coat	0	747
router	1	160
lid	0	336
tape	0	140
right	0	441
know	0	305
smoking	0	654
finally	0	883
treatment	0	136
shaped	0	442
imagination	0	811
square	1	485
find	0	208
completely	0	630
centring	0	732
result	0	851
project	0	387
left	0	392
since	0	669
compact	0	287
belt	0	461
create	0	313
target	0	316
speed	0	436
fabric	0	354
arm	0	337
upwards	0	637
list	0	408
excess	0	759
specialist	0	190
buff	0	236
already	0	712
dust	0	281
transfer	0	365
circular	0	577
downwards	0	445
stop	0	177
shell	0	455
nice	0	893
rim	0	264
thickness	0	414
thread	1	277
copy	0	873
touch	0	176
height	0	487
window	0	124
horizontal	0	845
water	0	646
display	1	780
finish	0	754
simply	0	65
next	0	600
dilute	0	560
underneath	0	768
circle	0	381
equipment	0	19
absorbent	0	480
illustration	0	808
slightly	0	533
middle	0	180
term	0	528
put	0	882
stage	0	650
get	0	818
glass	0	699
rest	0	447
attention	1	130
ball	0	137
warm	0	466
become	0	423
protrude	0	496
working	1	715
vertical	0	64
carriage	0	890
jet	0	116
slot	0	97
available	0	753
store	0	475
lie	0	148
trace	0	7
filler	0	84
let	0	395
run	0	587
therefore	0	216
pay	0	293
goal	0	804
offer	0	294
skip	0	664
prevent	0	666
ideally	0	192
generally	0	117
alternative	0	215
required	0	231
primer	1	251
compass	0	161
thoroughly	0	530
handling	0	563
read	0	437
carpenter	1	545
spruce	0	340
spread	0	776
sharp	1	716
hard-to-reach	0	506
delta	0	48
handy	0	841
versatile	0	697
plinth	0	559
floor	0	167
seal	0	651
scratch	0	101
time-consuming	0	830
suit	0	27
accordance	0	275
newspaper	0	748
cutting	1	679
workability	0	823
home	0	178
slowly	0	877
damp	0	618
wipe	0	139
masonry	0	723
little	0	594
check	0	809
hard	0	90
latter	0	8
flatten	0	132
suspend	0	269
tube	0	796
slip	1	425
beforehand	0	213
generously	0	228
teak	0	9
ideal	0	433
least	0	159
advice	0	126
duct	0	503
arrange	0	733
longitudinal	0	711
house	0	384
birch	0	703
multiplex	1	884
risk	0	615
otherwise	0	181
smooth	0	793
corresponding	1	310
show	0	253
device	0	105
rotary	0	579
hammer	1	457
conceal	0	879
match	0	693
hardener	1	817
intersect	0	347
plywood	1	571
mix	0	538
adhesive	0	273
reach	0	62
correctly	0	588
carry	0	578
lounger	0	532
day	0	524
coarse	0	746
provide	0	695
however	0	468
high	0	860
taper	0	839
rafter	0	369
often	0	99
detail	0	276
performance	0	186
appealing	0	888
accordingly	0	100
solid	0	162
tongue	1	463
setscrew	1	290
pour	0	373
change	0	119
extract	0	415
effortlessly	0	204
movable	0	226
full	0	681
collar	0	282
mixture	0	790
plunge	0	42
save	0	379
practice	0	199
sample	0	498
painter	1	556
experienced	0	710
around	0	169
trickle	0	18
absorb	0	82
strong	0	241
various	0	684
price	0	322
range	0	248
colour	0	874
certain	0	274
weather	0	729
resistance	0	26
robinia	0	488
attachment	0	451
phase	0	611
tear	0	86
complete	0	657
switch	0	581
roller	0	613
damage	0	495
rubber	0	17
hinge	0	2
ask	0	87
disappear	0	828
trolley	0	53
fence	1	80
quality	0	191
layer	0	417
link	0	396
detailed	0	224
pin	1	584
beech	0	107
rib	0	636
especially	0	770
countertop	0	348
feed	0	647
concrete	0	507
lining	0	324
anything	0	29
sill	0	172
triangle	0	40
overlap	0	363
nozzle	0	749
test	0	686
flow	0	211
go-kart	0	672
oak	1	491
exact	0	772
viscosity	0	674
particular	0	638
joist	1	79
build	0	299
handle	0	108
third	0	50
main	0	662
space	0	572
measurement	0	847
aluminium	0	166
burn	0	212
towel	0	37
special	0	22
thus	0	616
symbol	0	35
manufacturer	0	541
reinforcement	0	862
bevel	1	165
spring	0	771
essentially	0	583
durability	0	47
purpose	0	784
ceiling	0	149
width	0	278
tool	1	446
replace	0	380
used	0	744
soon	0	762
half	0	783
substructure	0	328
appear	0	38
pull	0	781
strongly	0	508
right-hand	0	591
particularly	0	372
lap	0	834
adapt	0	609
minimalist	0	195
split	1	444
important	0	435
due	0	121
reason	1	426
repeat	0	574
afterwards	0	832
mask	0	675
bowl	0	592
approximately	0	71
increase	0	792
pedestal	0	227
finely	0	472
previous	0	575
cord	0	301
decorative	0	551
band	0	44
painted	1	469
trunk	0	535
festive	0	642
backing	0	870
outside	0	295
auger	1	410
soft	0	633
brush	1	691
polish	1	370
untidy	0	95
bedside	0	478
whether	0	144
observe	0	344
beginner	0	359
simple	0	182
marking	1	75
sufficient	0	89
alone	0	183
fibreboard	0	197
centrally	0	388
pane	0	663
acrylic	0	92
overall	0	103
ease	0	31
give	0	880
counterpart	0	596
away	0	840
random	0	30
rack	0	326
orbit	0	81
rub	0	522
distance	0	432
sponge	0	315
file	1	454
opt	0	155
polyurethane	1	726
immediately	0	416
securely	0	471
previously	0	187
open	0	668
still	0	256
smoothly	0	424
common	0	3
perform	1	462
shallow	0	546
upright	0	889
never	0	171
left-hand	0	872
outlet	0	791
clean	0	869
holder	1	734
basin	0	237
blind	1	304
individual	0	239
knob	0	730
storage	0	504
dinner	0	152
hold	0	767
glare	0	718
shield	0	683
directly	0	327
drive	0	263
vertically	0	805
rope	1	590
ruler	0	661
cleanly	0	566
globe	0	688
several	0	557
wire	1	814
kitchen	0	332
like	0	837
move	0	85
lower	0	265
sun	0	33
sideboard	1	757
steel	0	797
thin	0	127
unprotected	0	570
plank	1	689
able	0	866
easily	0	318
ladder	1	150
armrest	0	629
remember	0	331
natural	0	153
mean	0	138
mechanism	0	350
painting	1	696
old	0	368
perfectly	0	831
branch	0	131
loft	0	243
bedroom	0	687
fully	0	377
loose	0	610
washstand	0	207
accurately	0	740
triangular	0	456
normally	0	110
determine	0	375
appropriate	0	335
deck	0	543
bunny	0	262
leaf	0	292
difficult	0	553
wash	0	453
twist	1	677
normal	0	704
medium	0	154
piano	0	523
occasionally	0	810
hand	0	185
coffee	0	619
recess	0	298
job	0	743
something	0	385
self-made	0	537
really	0	382
guarantee	0	60
everything	0	598
pedal	0	133
allow	0	692
notch	0	774
barely	0	825
many	0	271
safe	0	724
priming	0	777
amount	0	175
flowerbed	0	745
pass	0	827
broad	0	520
gap	0	483
double	0	529
axis	0	357
lateral	0	291
designer	0	296
loop	0	41
behind	0	74
per	0	39
level	1	602
connection	0	88
spirit	0	742
classic	0	634
course	1	539
less	0	376
plug	1	361
rule	0	722
via	0	450
cosy	0	875
pronounced	0	128
string	0	848
object	0	151
fruit	0	829
retail	0	353
fold	0	78
loosely	0	302
lamp	1	521
one	0	15
practical	0	580
structure	0	289
hook	0	895
dab	0	702
pose	0	820
watch	0	205
pen	0	534
method	0	756
contrast	0	232
rectangular	0	608
beautiful	0	202
rework	0	69
fairy	0	846
enjoy	0	364
electric	1	614
hacksaw	1	398
relevant	0	576
uppermost	0	72
walk-in	0	403
wardrobe	0	849
tacker	1	25
turnbuckle	1	308
swivel	1	412
facing	0	561
pendant	0	260
tighten	1	312
diagonally	0	816
oil	0	111
milky	0	96
single	0	93
hand-held	0	449
lengthways	0	897
picture	0	864
close	0	422
routing	1	476
birdhouse	0	393
introduction	0	548
past	0	752
protect	0	16
handrail	1	352
fluorescent	0	736
blue	0	867
firmly	0	779
ready	0	394
far	0	842
row	0	334
disfigure	1	525
folding	0	859
decide	0	871
stick	1	490
bulb	0	593
garden	1	125
skirt	0	300
bottle	0	569
underlay	1	714
diagonal	0	850
injury	0	855
staple	1	626
shaft	0	223
washer	1	61
precise	0	45
combine	0	429
highly	0	56
lay	0	486
divider	0	358
version	0	585
elegant	0	501
transverse	0	665
lock	1	319
forget	1	434
prior	0	741
release	0	671
laborious	0	527
intermediate	1	266
lounge	0	288
afraid	0	605
bank	0	279
invest	0	565
crepe	0	595
eye-catcher	0	499
additionally	0	858
organiser	0	342
nowadays	0	173
lift	0	113
optimum	0	448
location	0	822
option	0	20
raise	0	644
protection	0	854
confusion	0	621
undercoat	0	420
writing	0	708
casual	0	567
invisible	0	725
robust	0	769
dream	0	83
advisable	0	222
silicon	0	63
formula	0	459
motif	0	68
final	0	91
element	0	750
unscrew	1	54
red	0	73
supporting	0	284
scribe	0	235
span	0	494
awkward	0	51
slope	0	458
gabled	0	174
lucky	0	247
seamlessly	0	721
perpendicular	0	540
enable	0	758
penetrate	0	542
paintbrush	1	558
accommodate	0	345
treat	0	320
push	0	57
shade	0	189
padding	0	751
tightly	0	170
simultaneously	0	36
towards	0	505
cutter	1	713
refined	0	658
dining	0	821
finished	0	102
rate	0	843
occasional	0	360
either	0	311
biscuit	0	1
opposite	0	479
dimension	0	285
great	0	404
universal	1	70
screen	0	201
pointed	0	351
opportunity	0	440
crown	0	143
buy	0	719
accessory	0	355
absolutely	0	430
diamond	0	112
tiger	0	678
landing	0	620
retailer	0	518
pilot	0	467
worth	0	120
return	0	484
atmosphere	0	798
foam	0	245
fleece	0	673
impact	0	492
pole	0	649
detach	0	13
tile	0	242
separate	0	514
entrance	0	123
separately	0	203
earlier	0	217
vice	0	517
upholsterer	1	627
grid	0	861
