use	0	358
screw	1	789
panel	1	196
drill	1	365
hole	0	3
surface	1	68
side	0	76
wood	1	518
make	0	351
edge	0	891
cut	1	87
wall	0	128
paint	1	753
table	0	423
base	0	591
together	0	548
fit	0	138
mark	0	822
board	1	129
bit	0	321
piece	0	303
sand	0	278
frame	0	605
glue	0	586
angle	0	366
rear	0	338
work	0	301
joint	1	250
apply	0	705
leg	0	349
section	0	77
part	0	103
position	0	27
paper	1	549
fasten	0	81
top	0	180
strip	0	178
guide	0	854
first	0	704
saw	1	506
clamp	1	803
tip	0	610
template	0	42
workpiece	0	489
front	0	322
insert	0	675
place	0	63
dowel	1	98
corner	0	552
want	0	94
mount	0	342
shelf	0	69
rail	1	339
always	0	433
also	0	884
pencil	1	152
face	1	251
bed	0	168
construction	0	427
head	0	35
leave	0	137
sure	0	352
spray	0	767
fix	0	614
dry	0	4
cable	1	759
light	1	238
grit	1	340
log	0	878
centre	1	52
follow	0	40
remove	0	155
parallel	0	587
line	0	314
door	0	361
seat	0	208
cordless	0	880
scrap	0	792
diameter	0	419
screwdriver	1	458
good	0	407
join	0	663
press	0	852
long	0	283
well	0	739
assemble	0	101
way	0	22
instruction	0	426
sander	1	737
see	0	359
assembly	0	699
material	0	93
later	0	511
outer	0	259
wax	0	485
groove	1	140
small	0	16
block	1	402
visible	0	58
drawing	0	132
straight	0	141
countersink	1	892
ring	0	619
pressure	0	229
buffer	0	752
step	0	116
drawer	0	51
plate	0	567
secure	0	801
cloth	1	874
wheel	1	557
blade	1	781
onto	0	685
drilling	1	185
form	0	696
support	0	408
nut	1	482
low	0	117
box	0	775
ensure	0	146
enough	0	818
timber	1	243
depth	0	842
length	0	400
avoid	0	868
mirror	0	281
time	0	639
unsightly	0	85
size	0	786
bracket	0	453
suspension	0	65
second	0	100
roof	0	29
evenly	0	257
carcass	1	309
upper	0	702
achieve	0	45
distribute	0	467
back	0	272
require	0	503
rout	1	741
fine	0	652
procedure	0	297
jigsaw	1	623
connect	0	470
design	0	510
tray	0	749
canopy	0	725
different	0	23
short	0	601
tree	0	706
curve	0	420
along	0	413
area	0	143
point	0	398
attach	0	670
precisely	0	800
align	0	744
fixture	0	298
consist	0	726
flat	0	754
shape	0	394
bolt	1	841
set	0	385
prepare	0	294
cutout	0	112
flush	0	353
inside	0	28
fill	0	810
room	0	44
putty	0	895
unit	0	216
large	0	665
system	0	131
rod	0	697
draw	0	547
start	0	415
metal	1	664
fibre	0	164
wide	0	873
steering	1	89
seating	1	232
need	0	175
wooden	1	291
beam	0	691
marked	0	275
bar	0	659
take	0	438
fitting	1	43
condition	0	836
thick	1	585
outline	0	248
stain	0	717
choose	0	75
perspex	0	411
cover	0	668
compartment	0	640
opening	1	170
recommend	0	264
chamfer	1	452
bottom	0	807
easy	0	592
adjust	0	371
technical	0	114
hang	0	710
task	0	821
varnish	1	850
post	0	703
even	0	462
inner	0	461
partition	1	150
end	0	343
spacer	0	769
brake	0	481
bench	1	644
possible	0	859
safety	0	95
without	0	167
narrow	1	679
note	0	718
properly	1	645
stool	1	440
armchair	0	672
direction	0	631
measure	0	504
necessary	0	323
quick	1	776
turn	0	654
foot	0	130
application	0	372
quickly	0	39
tank	0	331
upholstery	0	395
cross	1	574
look	0	763
fixings	1	318
console	0	449
desk	0	657
hanger	0	50
furniture	0	738
shank	0	740
treasure	0	558
conical	0	10
imaginative	0	120
barrier	0	787
throne	0	240
miniature	0	545
plastic	0	61
chest	0	857
cylindrical	0	730
root	0	522
control	0	688
refer	0	660
mitre	1	669
surround	0	578
connector	1	588
type	0	778
case	0	712
axle	0	37
big	0	119
gable	0	686
slide	0	241
prime	1	817
contour	0	148
process	0	393
exactly	0	161
film	0	806
radius	0	313
remain	0	6
stroke	0	193
deep	0	215
grain	1	728
within	0	550
example	0	594
carefully	0	258
protective	0	583
suitable	0	121
round	0	881
grip	0	516
wear	0	17
describe	0	21
burr	1	249
gun	0	236
slat	1	386
perfect	0	311
coat	0	295
router	1	381
lid	0	745
tape	0	756
right	0	320
know	0	133
smoking	0	139
finally	0	142
treatment	0	546
shaped	0	805
imagination	0	198
square	1	655
find	0	457
completely	0	872
centring	0	288
result	0	512
project	0	750
left	0	135
since	0	262
compact	0	319
belt	0	473
create	0	689
target	0	731
speed	0	300
fabric	0	502
arm	0	513
upwards	0	25
list	0	292
excess	0	312
specialist	0	30
buff	0	217
already	0	537
dust	0	575
transfer	0	15
circular	0	357
downwards	0	700
stop	0	344
shell	0	515
nice	0	435
rim	0	220
thickness	0	254
thread	1	416
copy	0	643
touch	0	205
height	0	447
window	0	490
horizontal	0	391
water	0	445
display	1	186
finish	0	345
simply	0	239
next	0	748
dilute	0	105
underneath	0	53
circle	0	484
equipment	0	804
absorbent	0	714
illustration	0	761
slightly	0	92
middle	0	201
term	0	267
put	0	9
stage	0	495
get	0	326
glass	0	200
rest	0	542
attention	1	707
ball	0	334
warm	0	442
become	0	390
protrude	0	531
working	1	401
vertical	0	256
carriage	0	111
jet	0	451
slot	0	835
available	0	877
store	0	67
lie	0	727
trace	0	666
filler	0	830
let	0	889
run	0	620
therefore	0	235
pay	0	565
goal	0	508
offer	0	414
skip	0	444
prevent	0	837
ideally	0	561
generally	0	720
alternative	0	523
required	0	173
primer	1	635
compass	0	348
thoroughly	0	436
handling	0	56
read	0	621
carpenter	1	468
spruce	0	871
spread	0	149
sharp	1	572
hard-to-reach	0	875
delta	0	711
handy	0	466
versatile	0	350
plinth	0	378
floor	0	224
seal	0	245
scratch	0	637
time-consuming	0	680
suit	0	206
accordance	0	544
newspaper	0	392
cutting	1	783
workability	0	849
home	0	163
slowly	0	363
damp	0	681
wipe	0	833
masonry	0	626
little	0	797
check	0	690
hard	0	237
latter	0	782
flatten	0	656
suspend	0	289
tube	0	88
slip	1	356
beforehand	0	848
generously	0	638
teak	0	743
ideal	0	488
least	0	629
advice	0	197
duct	0	189
arrange	0	471
longitudinal	0	757
house	0	329
birch	0	82
multiplex	1	618
risk	0	661
otherwise	0	479
smooth	0	104
corresponding	1	459
show	0	814
device	0	535
rotary	0	172
hammer	1	153
conceal	0	376
match	0	14
hardener	1	559
intersect	0	633
plywood	1	812
mix	0	337
adhesive	0	617
reach	0	179
correctly	0	157
carry	0	79
lounger	0	160
day	0	777
coarse	0	828
provide	0	270
however	0	858
high	0	497
taper	0	773
rafter	0	169
often	0	698
detail	0	802
performance	0	634
appealing	0	233
accordingly	0	412
solid	0	388
tongue	1	268
setscrew	1	434
pour	0	534
change	0	785
extract	0	864
effortlessly	0	505
movable	0	110
full	0	47
collar	0	465
mixture	0	147
plunge	0	732
save	0	600
practice	0	183
sample	0	187
painter	1	73
experienced	0	184
around	0	265
trickle	0	829
absorb	0	566
strong	0	247
various	0	893
price	0	24
range	0	475
colour	0	60
certain	0	897
weather	0	74
resistance	0	827
robinia	0	729
attachment	0	403
phase	0	555
tear	0	285
complete	0	815
switch	0	32
roller	0	118
damage	0	360
rubber	0	856
hinge	0	476
ask	0	562
disappear	0	536
trolley	0	210
fence	1	790
quality	0	425
layer	0	824
link	0	658
detailed	0	302
pin	1	255
beech	0	355
rib	0	310
especially	0	242
countertop	0	813
feed	0	579
concrete	0	166
lining	0	260
anything	0	483
sill	0	218
triangle	0	580
overlap	0	816
nozzle	0	570
test	0	430
flow	0	214
go-kart	0	271
oak	1	55
exact	0	602
viscosity	0	203
particular	0	627
joist	1	246
build	0	171
handle	0	328
third	0	774
main	0	156
space	0	765
measurement	0	424
aluminium	0	346
burn	0	64
towel	0	486
special	0	279
thus	0	370
symbol	0	529
manufacturer	0	182
reinforcement	0	221
bevel	1	709
spring	0	794
essentially	0	174
durability	0	62
purpose	0	649
ceiling	0	456
width	0	367
tool	1	477
replace	0	647
used	0	18
soon	0	158
half	0	5
substructure	0	528
appear	0	514
pull	0	80
strongly	0	26
right-hand	0	448
particularly	0	831
lap	0	290
adapt	0	551
minimalist	0	869
split	1	212
important	0	177
due	0	569
reason	1	826
repeat	0	19
afterwards	0	722
mask	0	405
bowl	0	316
approximately	0	538
increase	0	595
pedestal	0	377
finely	0	304
previous	0	882
cord	0	38
decorative	0	324
band	0	222
painted	1	723
trunk	0	519
festive	0	274
backing	0	651
outside	0	368
auger	1	846
soft	0	84
brush	1	234
polish	1	840
untidy	0	533
bedside	0	751
whether	0	327
observe	0	480
beginner	0	439
simple	0	428
marking	1	253
sufficient	0	162
alone	0	863
fibreboard	0	431
centrally	0	181
pane	0	11
acrylic	0	695
overall	0	199
ease	0	571
give	0	677
counterpart	0	209
away	0	83
random	0	682
rack	0	450
orbit	0	492
rub	0	277
distance	0	195
sponge	0	347
file	1	123
opt	0	213
polyurethane	1	716
immediately	0	333
securely	0	708
previously	0	373
open	0	607
still	0	70
smoothly	0	498
common	0	7
perform	1	855
shallow	0	771
upright	0	308
never	0	793
left-hand	0	742
outlet	0	613
clean	0	493
holder	1	59
basin	0	261
blind	1	838
individual	0	299
knob	0	190
storage	0	263
dinner	0	91
hold	0	766
glare	0	526
shield	0	383
directly	0	369
drive	0	735
vertically	0	406
rope	1	870
ruler	0	107
cleanly	0	823
globe	0	851
several	0	464
wire	1	266
kitchen	0	693
like	0	770
move	0	683
lower	0	499
sun	0	809
sideboard	1	36
steel	0	2
thin	0	487
unprotected	0	48
plank	1	315
able	0	375
easily	0	188
ladder	1	641
armrest	0	78
remember	0	379
natural	0	228
mean	0	293
mechanism	0	808
painting	1	604
old	0	396
perfectly	0	455
branch	0	269
loft	0	332
bedroom	0	204
fully	0	437
loose	0	532
washstand	0	397
accurately	0	563
triangular	0	380
normally	0	799
determine	0	384
appropriate	0	1
deck	0	576
bunny	0	796
leaf	0	46
difficult	0	798
wash	0	560
twist	1	226
normal	0	589
medium	0	590
piano	0	382
occasionally	0	885
hand	0	568
coffee	0	746
recess	0	541
job	0	622
something	0	894
self-made	0	443
really	0	612
guarantee	0	145
everything	0	887
pedal	0	598
allow	0	539
notch	0	491
barely	0	409
many	0	713
safe	0	225
priming	0	554
amount	0	507
flowerbed	0	54
pass	0	674
broad	0	20
gap	0	721
double	0	86
axis	0	12
lateral	0	286
designer	0	888
loop	0	108
behind	0	469
per	0	207
level	1	611
connection	0	154
spirit	0	825
classic	0	231
course	1	287
less	0	599
plug	1	530
rule	0	126
via	0	106
cosy	0	41
pronounced	0	843
string	0	734
object	0	636
fruit	0	446
retail	0	673
fold	0	520
loosely	0	276
lamp	1	788
one	0	687
practical	0	795
structure	0	273
hook	0	724
dab	0	650
pose	0	758
watch	0	410
pen	0	597
method	0	642
contrast	0	525
rectangular	0	227
beautiful	0	616
rework	0	646
fairy	0	441
enjoy	0	733
electric	1	144
hacksaw	1	325
relevant	0	847
uppermost	0	463
walk-in	0	577
wardrobe	0	49
tacker	1	113
turnbuckle	1	609
swivel	1	866
facing	0	883
pendant	0	501
tighten	1	66
diagonally	0	832
oil	0	336
milky	0	33
single	0	191
hand-held	0	404
lengthways	0	543
picture	0	860
close	0	625
routing	1	219
birdhouse	0	418
introduction	0	890
past	0	694
protect	0	362
handrail	1	194
fluorescent	0	667
blue	0	429
firmly	0	701
ready	0	603
far	0	305
row	0	230
disfigure	1	354
folding	0	784
decide	0	478
stick	1	127
bulb	0	684
garden	1	865
skirt	0	896
bottle	0	615
underlay	1	417
diagonal	0	779
injury	0	90
staple	1	662
shaft	0	151
washer	1	307
precise	0	524
combine	0	165
highly	0	125
lay	0	244
divider	0	496
version	0	573
elegant	0	421
transverse	0	553
lock	1	8
forget	1	399
prior	0	109
release	0	632
laborious	0	715
intermediate	1	159
lounge	0	630
afraid	0	760
bank	0	811
invest	0	584
crepe	0	494
eye-catcher	0	606
additionally	0	861
organiser	0	719
nowadays	0	136
lift	0	862
optimum	0	678
location	0	581
option	0	527
raise	0	124
protection	0	556
confusion	0	472
undercoat	0	211
writing	0	34
casual	0	134
invisible	0	280
robust	0	819
dream	0	317
advisable	0	755
silicon	0	122
formula	0	608
motif	0	330
final	0	176
element	0	867
unscrew	1	564
red	0	762
supporting	0	676
scribe	0	624
span	0	509
awkward	0	879
slope	0	422
gabled	0	791
lucky	0	593
seamlessly	0	517
perpendicular	0	876
enable	0	521
penetrate	0	886
paintbrush	1	764
accommodate	0	820
treat	0	844
push	0	853
shade	0	692
padding	0	432
tightly	0	374
simultaneously	0	596
towards	0	115
cutter	1	671
refined	0	97
dining	0	57
finished	0	13
rate	0	202
occasional	0	72
either	0	223
biscuit	0	102
opposite	0	296
dimension	0	306
great	0	99
universal	1	341
screen	0	284
pointed	0	582
opportunity	0	335
crown	0	71
buy	0	454
accessory	0	282
absolutely	0	628
diamond	0	252
tiger	0	364
landing	0	747
retailer	0	780
pilot	0	96
worth	0	387
return	0	648
atmosphere	0	500
foam	0	31
fleece	0	839
impact	0	768
pole	0	460
detach	0	192
tile	0	474
separate	0	834
entrance	0	540
separately	0	736
earlier	0	653
vice	0	845
upholsterer	1	772
grid	0	389
