use	0	357
screw	1	655
panel	1	431
drill	1	371
hole	0	302
surface	1	537
side	0	850
wood	1	625
make	0	222
edge	0	709
cut	1	123
wall	0	745
paint	1	115
table	0	143
base	0	624
together	0	444
fit	0	382
mark	0	686
board	1	531
bit	0	582
piece	0	897
sand	0	433
frame	0	865
glue	0	566
angle	0	5
rear	0	801
work	0	505
joint	1	332
apply	0	252
leg	0	816
section	0	588
part	0	739
position	0	526
paper	1	429
fasten	0	630
top	0	608
strip	0	119
guide	0	412
first	0	607
saw	1	355
clamp	1	395
tip	0	515
template	0	234
workpiece	0	377
front	0	113
insert	0	495
place	0	203
dowel	1	388
corner	0	67
want	0	163
mount	0	191
shelf	0	550
rail	1	639
always	0	541
also	0	313
pencil	1	284
face	1	242
bed	0	136
construction	0	353
head	0	328
leave	0	394
sure	0	322
spray	0	125
fix	0	79
dry	0	351
cable	1	697
light	1	821
grit	1	714
log	0	575
centre	1	547
follow	0	278
remove	0	523
parallel	0	540
line	0	370
door	0	359
seat	0	535
cordless	0	360
scrap	0	775
diameter	0	121
screwdriver	1	837
good	0	888
join	0	414
press	0	365
long	0	247
well	0	257
assemble	0	720
way	0	483
instruction	0	392
sander	1	311
see	0	491
assembly	0	196
material	0	464
later	0	585
outer	0	494
wax	0	380
groove	1	333
small	0	71
block	1	661
visible	0	339
drawing	0	616
straight	0	666
countersink	1	95
ring	0	160
pressure	0	703
buffer	0	618
step	0	315
drawer	0	402
plate	0	445
secure	0	205
cloth	1	122
wheel	1	632
blade	1	373
onto	0	479
drilling	1	859
form	0	243
support	0	1
nut	1	202
low	0	509
box	0	806
ensure	0	124
enough	0	387
timber	1	48
depth	0	398
length	0	855
avoid	0	692
mirror	0	665
time	0	276
unsightly	0	128
size	0	108
bracket	0	873
suspension	0	439
second	0	498
roof	0	138
evenly	0	892
carcass	1	250
upper	0	443
achieve	0	727
distribute	0	100
back	0	255
require	0	603
rout	1	546
fine	0	844
procedure	0	133
jigsaw	1	723
connect	0	338
design	0	662
tray	0	282
canopy	0	253
different	0	23
short	0	731
tree	0	729
curve	0	10
along	0	306
area	0	706
point	0	22
attach	0	399
precisely	0	628
align	0	592
fixture	0	845
consist	0	783
flat	0	667
shape	0	410
bolt	1	230
set	0	891
prepare	0	180
cutout	0	181
flush	0	254
inside	0	538
fill	0	331
room	0	92
putty	0	512
unit	0	451
large	0	25
system	0	270
rod	0	856
draw	0	741
start	0	539
metal	1	214
fibre	0	799
wide	0	162
steering	1	49
seating	1	518
need	0	452
wooden	1	492
beam	0	98
marked	0	882
bar	0	409
take	0	797
fitting	1	545
condition	0	63
thick	1	895
outline	0	654
stain	0	349
choose	0	755
perspex	0	519
cover	0	220
compartment	0	188
opening	1	421
recommend	0	112
chamfer	1	493
bottom	0	842
easy	0	342
adjust	0	140
technical	0	612
hang	0	375
task	0	283
varnish	1	772
post	0	245
even	0	825
inner	0	756
partition	1	577
end	0	644
spacer	0	769
brake	0	679
bench	1	228
possible	0	269
safety	0	286
without	0	465
narrow	1	786
note	0	617
properly	1	149
stool	1	141
armchair	0	478
direction	0	534
measure	0	890
necessary	0	374
quick	1	790
turn	0	96
foot	0	885
application	0	195
quickly	0	559
tank	0	326
upholstery	0	37
cross	1	235
look	0	251
fixings	1	597
console	0	722
desk	0	883
hanger	0	259
furniture	0	742
shank	0	280
treasure	0	381
conical	0	13
imaginative	0	595
barrier	0	552
throne	0	42
miniature	0	274
plastic	0	870
chest	0	521
cylindrical	0	324
root	0	822
control	0	291
refer	0	84
mitre	1	309
surround	0	448
connector	1	511
type	0	778
case	0	771
axle	0	211
big	0	299
gable	0	460
slide	0	161
prime	1	530
contour	0	792
process	0	65
exactly	0	88
film	0	116
radius	0	761
remain	0	197
stroke	0	646
deep	0	562
grain	1	185
within	0	696
example	0	770
carefully	0	858
protective	0	711
suitable	0	153
round	0	296
grip	0	110
wear	0	45
describe	0	239
burr	1	680
gun	0	297
slat	1	156
perfect	0	400
coat	0	583
router	1	361
lid	0	674
tape	0	281
right	0	216
know	0	826
smoking	0	642
finally	0	425
treatment	0	219
shaped	0	471
imagination	0	344
square	1	476
find	0	146
completely	0	656
centring	0	869
result	0	832
project	0	716
left	0	26
since	0	64
compact	0	237
belt	0	791
create	0	289
target	0	372
speed	0	766
fabric	0	90
arm	0	273
upwards	0	762
list	0	887
excess	0	854
specialist	0	876
buff	0	817
already	0	193
dust	0	30
transfer	0	828
circular	0	838
downwards	0	648
stop	0	593
shell	0	340
nice	0	379
rim	0	633
thickness	0	50
thread	1	584
copy	0	658
touch	0	352
height	0	201
window	0	807
horizontal	0	877
water	0	671
display	1	182
finish	0	227
simply	0	555
next	0	260
dilute	0	17
underneath	0	735
circle	0	166
equipment	0	449
absorbent	0	732
illustration	0	432
slightly	0	386
middle	0	570
term	0	354
put	0	261
stage	0	610
get	0	158
glass	0	407
rest	0	83
attention	1	199
ball	0	719
warm	0	417
become	0	626
protrude	0	839
working	1	69
vertical	0	9
carriage	0	812
jet	0	204
slot	0	155
available	0	694
store	0	634
lie	0	502
trace	0	516
filler	0	356
let	0	345
run	0	34
therefore	0	708
pay	0	520
goal	0	751
offer	0	2
skip	0	427
prevent	0	501
ideally	0	475
generally	0	52
alternative	0	157
required	0	576
primer	1	229
compass	0	337
thoroughly	0	442
handling	0	785
read	0	889
carpenter	1	200
spruce	0	567
spread	0	46
sharp	1	363
hard-to-reach	0	305
delta	0	623
handy	0	58
versatile	0	796
plinth	0	596
floor	0	288
seal	0	178
scratch	0	676
time-consuming	0	611
suit	0	638
accordance	0	795
newspaper	0	651
cutting	1	177
workability	0	490
home	0	594
slowly	0	231
damp	0	718
wipe	0	171
masonry	0	863
little	0	457
check	0	811
hard	0	419
latter	0	330
flatten	0	111
suspend	0	207
tube	0	803
slip	1	36
beforehand	0	688
generously	0	366
teak	0	524
ideal	0	472
least	0	776
advice	0	568
duct	0	179
arrange	0	485
longitudinal	0	693
house	0	563
birch	0	556
multiplex	1	528
risk	0	424
otherwise	0	487
smooth	0	554
corresponding	1	72
show	0	167
device	0	129
rotary	0	470
hammer	1	702
conceal	0	824
match	0	474
hardener	1	21
intersect	0	481
plywood	1	600
mix	0	267
adhesive	0	818
reach	0	40
correctly	0	830
carry	0	752
lounger	0	35
day	0	415
coarse	0	463
provide	0	434
however	0	598
high	0	650
taper	0	473
rafter	0	102
often	0	397
detail	0	310
performance	0	38
appealing	0	754
accordingly	0	851
solid	0	862
tongue	1	728
setscrew	1	682
pour	0	447
change	0	763
extract	0	159
effortlessly	0	130
movable	0	466
full	0	97
collar	0	317
mixture	0	685
plunge	0	263
save	0	41
practice	0	70
sample	0	378
painter	1	418
experienced	0	277
around	0	486
trickle	0	653
absorb	0	287
strong	0	106
various	0	104
price	0	169
range	0	707
colour	0	223
certain	0	144
weather	0	467
resistance	0	435
robinia	0	721
attachment	0	734
phase	0	609
tear	0	53
complete	0	290
switch	0	458
roller	0	405
damage	0	86
rubber	0	879
hinge	0	99
ask	0	590
disappear	0	836
trolley	0	669
fence	1	504
quality	0	880
layer	0	681
link	0	878
detailed	0	798
pin	1	672
beech	0	631
rib	0	455
especially	0	605
countertop	0	212
feed	0	664
concrete	0	565
lining	0	684
anything	0	558
sill	0	184
triangle	0	126
overlap	0	226
nozzle	0	165
test	0	430
flow	0	744
go-kart	0	175
oak	1	835
exact	0	367
viscosity	0	16
particular	0	187
joist	1	621
build	0	54
handle	0	131
third	0	532
main	0	586
space	0	867
measurement	0	319
aluminium	0	774
burn	0	678
towel	0	691
special	0	673
thus	0	701
symbol	0	249
manufacturer	0	604
reinforcement	0	574
bevel	1	57
spring	0	446
essentially	0	59
durability	0	173
purpose	0	358
ceiling	0	461
width	0	73
tool	1	368
replace	0	710
used	0	14
soon	0	396
half	0	712
substructure	0	760
appear	0	20
pull	0	27
strongly	0	174
right-hand	0	186
particularly	0	314
lap	0	591
adapt	0	777
minimalist	0	815
split	1	660
important	0	820
due	0	194
reason	1	151
repeat	0	347
afterwards	0	645
mask	0	423
bowl	0	580
approximately	0	8
increase	0	622
pedestal	0	690
finely	0	615
previous	0	241
cord	0	643
decorative	0	7
band	0	190
painted	1	393
trunk	0	336
festive	0	843
backing	0	469
outside	0	619
auger	1	677
soft	0	453
brush	1	334
polish	1	134
untidy	0	12
bedside	0	848
whether	0	11
observe	0	268
beginner	0	221
simple	0	78
marking	1	872
sufficient	0	369
alone	0	438
fibreboard	0	341
centrally	0	525
pane	0	569
acrylic	0	89
overall	0	599
ease	0	248
give	0	145
counterpart	0	683
away	0	852
random	0	663
rack	0	675
orbit	0	782
rub	0	105
distance	0	497
sponge	0	659
file	1	437
opt	0	456
polyurethane	1	860
immediately	0	420
securely	0	510
previously	0	738
open	0	109
still	0	103
smoothly	0	307
common	0	218
perform	1	522
shallow	0	864
upright	0	238
never	0	47
left-hand	0	789
outlet	0	548
clean	0	698
holder	1	68
basin	0	689
blind	1	298
individual	0	717
knob	0	320
storage	0	348
dinner	0	831
hold	0	533
glare	0	29
shield	0	549
directly	0	301
drive	0	209
vertically	0	362
rope	1	294
ruler	0	3
cleanly	0	507
globe	0	300
several	0	740
wire	1	293
kitchen	0	868
like	0	506
move	0	236
lower	0	833
sun	0	508
sideboard	1	726
steel	0	781
thin	0	543
unprotected	0	441
plank	1	871
able	0	759
easily	0	482
ladder	1	800
armrest	0	215
remember	0	272
natural	0	802
mean	0	19
mechanism	0	240
painting	1	572
old	0	292
perfectly	0	198
branch	0	765
loft	0	262
bedroom	0	318
fully	0	757
loose	0	91
washstand	0	489
accurately	0	713
triangular	0	758
normally	0	553
determine	0	206
appropriate	0	834
deck	0	893
bunny	0	152
leaf	0	657
difficult	0	147
wash	0	613
twist	1	557
normal	0	76
medium	0	75
piano	0	700
occasionally	0	4
hand	0	581
coffee	0	93
recess	0	814
job	0	44
something	0	670
self-made	0	687
really	0	724
guarantee	0	271
everything	0	117
pedal	0	224
allow	0	743
notch	0	450
barely	0	210
many	0	846
safe	0	589
priming	0	551
amount	0	335
flowerbed	0	327
pass	0	258
broad	0	564
gap	0	279
double	0	127
axis	0	542
lateral	0	137
designer	0	514
loop	0	62
behind	0	422
per	0	246
level	1	500
connection	0	390
spirit	0	810
classic	0	779
course	1	139
less	0	31
plug	1	454
rule	0	217
via	0	841
cosy	0	587
pronounced	0	428
string	0	383
object	0	647
fruit	0	426
retail	0	56
fold	0	413
loosely	0	256
lamp	1	527
one	0	385
practical	0	28
structure	0	120
hook	0	784
dab	0	773
pose	0	866
watch	0	649
pen	0	640
method	0	462
contrast	0	376
rectangular	0	704
beautiful	0	403
rework	0	189
fairy	0	886
enjoy	0	154
electric	1	411
hacksaw	1	668
relevant	0	404
uppermost	0	764
walk-in	0	43
wardrobe	0	107
tacker	1	132
turnbuckle	1	805
swivel	1	705
facing	0	436
pendant	0	733
tighten	1	265
diagonally	0	695
oil	0	192
milky	0	275
single	0	176
hand-held	0	746
lengthways	0	39
picture	0	232
close	0	148
routing	1	401
birdhouse	0	24
introduction	0	391
past	0	468
protect	0	94
handrail	1	788
fluorescent	0	150
blue	0	329
firmly	0	614
ready	0	303
far	0	840
row	0	118
disfigure	1	488
folding	0	364
decide	0	312
stick	1	114
bulb	0	627
garden	1	636
skirt	0	101
bottle	0	896
underlay	1	321
diagonal	0	780
injury	0	725
staple	1	571
shaft	0	60
washer	1	135
precise	0	804
combine	0	827
highly	0	316
lay	0	74
divider	0	819
version	0	264
elegant	0	602
transverse	0	459
lock	1	635
forget	1	33
prior	0	637
release	0	183
laborious	0	749
intermediate	1	747
lounge	0	233
afraid	0	620
bank	0	849
invest	0	793
crepe	0	768
eye-catcher	0	213
additionally	0	736
organiser	0	389
nowadays	0	573
lift	0	853
optimum	0	295
location	0	81
option	0	85
raise	0	753
protection	0	606
confusion	0	499
undercoat	0	517
writing	0	829
casual	0	440
invisible	0	87
robust	0	513
dream	0	304
advisable	0	6
silicon	0	748
formula	0	285
motif	0	737
final	0	579
element	0	408
unscrew	1	416
red	0	808
supporting	0	82
scribe	0	406
span	0	641
awkward	0	142
slope	0	794
gabled	0	847
lucky	0	884
seamlessly	0	484
perpendicular	0	561
enable	0	730
penetrate	0	225
paintbrush	1	18
accommodate	0	208
treat	0	578
push	0	266
shade	0	172
padding	0	715
tightly	0	325
simultaneously	0	343
towards	0	168
cutter	1	629
refined	0	51
dining	0	80
finished	0	750
rate	0	384
occasional	0	874
either	0	480
biscuit	0	894
opposite	0	32
dimension	0	861
great	0	809
universal	1	823
screen	0	875
pointed	0	77
opportunity	0	503
crown	0	857
buy	0	55
accessory	0	350
absolutely	0	477
diamond	0	652
tiger	0	544
landing	0	66
retailer	0	767
pilot	0	601
worth	0	15
return	0	346
atmosphere	0	61
foam	0	813
fleece	0	308
impact	0	529
pole	0	699
detach	0	170
tile	0	881
separate	0	496
entrance	0	164
separately	0	787
earlier	0	323
vice	0	536
upholsterer	1	244
grid	0	560
