use	0.019599000000000002
screw	0.018579
panel	0.017011000000000002
drill	0.014718
hole	0.013275
surface	0.011962
side	0.010227
wood	0.010204000000000001
make	0.008983
edge	0.008456
cut	0.007486
wall	0.007237
paint	0.006236
table	0.006083
base	0.006077
together	0.00588
fit	0.0057399999999999994
mark	0.005594
board	0.005423
bit	0.005398
piece	0.005339
sand	0.005248
frame	0.005227000000000001
glue	0.004909
angle	0.004765
rear	0.0046689999999999995
work	0.00465
joint	0.004577
apply	0.004338
leg	0.004267
section	0.004196
part	0.004118999999999999
position	0.004016
paper	0.003989
fasten	0.0038090000000000003
top	0.0037530000000000003
strip	0.003742
guide	0.0037020000000000004
first	0.003665
saw	0.00364
clamp	0.0036200000000000004
tip	0.003561
template	0.0035299999999999997
workpiece	0.003467
front	0.0033909999999999995
insert	0.003351
place	0.0032549999999999996
dowel	0.003225
corner	0.003211
want	0.003201
mount	0.0031620000000000003
shelf	0.003154
rail	0.003129
always	0.003069
also	0.003032
Christmas	0.00302
pencil	0.002986
face	0.002977
bed	0.002956
construction	0.002951
head	0.002902
leave	0.002896
sure	0.002762
spray	0.002741
fix	0.002729
dry	0.002703
cable	0.0027
light	0.002668
grit	0.002667
log	0.0025670000000000003
centre	0.002493
follow	0.002449
remove	0.0024289999999999997
parallel	0.002428
line	0.0024100000000000002
door	0.002382
seat	0.002375
cordless	0.002368
scrap	0.002367
diameter	0.002336
screwdriver	0.002303
good	0.002278
join	0.002246
press	0.002229
long	0.002203
well	0.002157
assemble	0.002128
way	0.002121
instruction	0.002117
sander	0.002114
see	0.002093
assembly	0.002085
material	0.002075
later	0.0020670000000000003
outer	0.00206
wax	0.002058
groove	0.00205
small	0.002049
block	0.0020440000000000002
visible	0.002043
drawing	0.002042
straight	0.0020399999999999997
countersink	0.002016
ring	0.002014
pressure	0.00201
buffer	0.002007
step	0.002003
drawer	0.001994
plate	0.0019760000000000003
secure	0.001962
cloth	0.001943
wheel	0.001941
blade	0.0019370000000000001
onto	0.00193
drilling	0.00193
form	0.001902
support	0.001848
low	0.001842
nut	0.001842
box	0.0018280000000000002
ensure	0.0018260000000000001
enough	0.0018239999999999999
timber	0.0018210000000000001
depth	0.001819
length	0.0018149999999999998
avoid	0.001805
mirror	0.001805
time	0.001802
unsightly	0.001797
size	0.00179
bracket	0.0017850000000000001
suspension	0.001779
second	0.0017670000000000001
roof	0.001766
evenly	0.0017579999999999998
carcass	0.0017510000000000002
upper	0.0017289999999999999
achieve	0.001714
distribute	0.001707
back	0.0016989999999999998
require	0.0016769999999999999
rout	0.0016699999999999998
fine	0.001666
procedure	0.0016530000000000002
jigsaw	0.001648
connect	0.001638
design	0.001637
tray	0.00162
canopy	0.001615
different	0.001605
short	0.001594
tree	0.001591
curve	0.001585
along	0.001576
area	0.001573
point	0.001572
attach	0.0015710000000000001
precisely	0.00157
align	0.001567
fixture	0.0015660000000000001
consist	0.001539
flat	0.001533
shape	0.001523
bolt	0.0015199999999999999
set	0.001515
prepare	0.001515
cutout	0.0015019999999999999
flush	0.0014869999999999998
inside	0.001485
fill	0.001465
room	0.0014550000000000001
putty	0.00145
unit	0.0014320000000000001
large	0.001429
system	0.001408
rod	0.001401
draw	0.001396
start	0.001396
metal	0.001395
fibre	0.001364
wide	0.001363
steering	0.001352
seating	0.001348
need	0.001347
wooden	0.001347
beam	0.0013460000000000002
marked	0.0013289999999999999
bar	0.001327
take	0.001327
fitting	0.001323
condition	0.0013210000000000001
thick	0.001317
outline	0.001307
stain	0.0013039999999999998
choose	0.0013
perspex	0.00128
cover	0.001274
compartment	0.0012699999999999999
Easter	0.001266
opening	0.001257
recommend	0.001253
chamfer	0.0012490000000000001
bottom	0.001245
easy	0.001235
adjust	0.001228
technical	0.001227
task	0.001218
hang	0.001218
varnish	0.0012050000000000001
post	0.001199
even	0.001193
inner	0.001166
partition	0.001165
end	0.001165
spacer	0.0011619999999999998
brake	0.001159
bench	0.001145
possible	0.00114
safety	0.001139
without	0.001132
narrow	0.001131
note	0.001123
properly	0.001121
stool	0.001115
armchair	0.001108
direction	0.001104
measure	0.001101
necessary	0.0011
quick	0.001094
turn	0.001093
depend	0.001092
foot	0.001092
application	0.0010869999999999999
quickly	0.001085
tank	0.001077
steer	0.00107
upholstery	0.001067
castor	0.001064
cross	0.001062
fixings	0.001052
look	0.001052
desk	0.001042
console	0.001042
hanger	0.001031
furniture	0.00103
imaginative	0.001029
miniature	0.001029
conical	0.001029
throne	0.001029
barrier	0.001029
shank	0.001029
root	0.001029
treasure	0.001029
cylindrical	0.001029
plastic	0.001029
chest	0.001029
control	0.001021
refer	0.001019
mitre	0.001016
connector	0.001013
surround	0.001013
type	0.001011
case	0.001009
axle	0.001008
big	0.001006
gable	0.000999
slide	0.0009960000000000001
prime	0.000995
contour	0.00099
process	0.000986
exactly	0.000982
film	0.00098
radius	0.000977
remain	0.0009660000000000001
stroke	0.0009609999999999999
deep	0.000949
grain	0.0009460000000000001
within	0.0009429999999999999
example	0.000933
carefully	0.00093
protective	0.00093
suitable	0.0009289999999999999
round	0.0009279999999999999
grip	0.000926
Multi	0.000923
describe	0.0009140000000000001
wear	0.0009140000000000001
burr	0.0009130000000000001
gun	0.00091
slat	0.000908
perfect	0.0009019999999999999
coat	0.0008990000000000001
router	0.000898
lid	0.000892
tape	0.000889
right	0.00088
know	0.00088
accord	0.000878
ventilate	0.000877
eat	0.000877
drink	0.000877
smoking	0.000877
finally	0.000875
treatment	0.0008699999999999999
shaped	0.000868
square	0.0008640000000000001
imagination	0.0008640000000000001
find	0.000863
completely	0.00086
centring	0.000857
result	0.0008550000000000001
specification	0.0008539999999999999
project	0.0008529999999999999
left	0.000851
since	0.000842
compact	0.0008410000000000001
belt	0.0008410000000000001
create	0.000839
target	0.0008320000000000001
speed	0.0008320000000000001
fabric	0.000828
arm	0.0008269999999999999
upwards	0.000825
excess	0.0008230000000000001
list	0.0008230000000000001
laminate	0.000819
specialist	0.000819
buff	0.0008150000000000001
already	0.000813
dust	0.0008119999999999999
transfer	0.0008089999999999999
circular	0.0008060000000000001
downwards	0.000802
stop	0.000797
shell	0.000792
nice	0.000791
rim	0.000782
specify	0.000781
thickness	0.000776
thread	0.000775
copy	0.000771
Lay	0.000771
touch	0.0007700000000000001
height	0.000768
window	0.000768
horizontal	0.000767
display	0.000766
water	0.000766
trestle	0.0007639999999999999
finish	0.000763
simply	0.0007610000000000001
dilute	0.000758
next	0.000758
underneath	0.000754
circle	0.00075
equipment	0.0007469999999999999
absorbent	0.000745
illustration	0.000743
middle	0.000742
slightly	0.000742
Philips	0.000742
term	0.000742
put	0.00074
stage	0.0007379999999999999
rest	0.000736
get	0.000736
glass	0.000736
attention	0.000735
warm	0.00073
become	0.00073
ball	0.00073
scrunch	0.00073
protrude	0.000729
working	0.000717
vertical	0.0007160000000000001
slot	0.000715
jet	0.000715
carriage	0.000715
available	0.000711
store	0.000709
lie	0.000709
trace	0.0007059999999999999
let	0.000705
run	0.000705
filler	0.000705
locate	0.000705
therefore	0.000704
pay	0.0007030000000000001
goal	0.0007019999999999999
offer	0.0007
skip	0.000699
prevent	0.000698
Pour	0.000696
alternative	0.0006900000000000001
required	0.0006900000000000001
ideally	0.0006900000000000001
generally	0.0006900000000000001
primer	0.000685
compass	0.000684
enclose	0.000682
thoroughly	0.000677
read	0.000677
handling	0.000677
carpenter	0.000663
DIY	0.00066
spruce	0.000655
spread	0.000651
sharp	0.0006490000000000001
hard-to-reach	0.000647
handy	0.000647
delta	0.000647
versatile	0.000647
plinth	0.000646
floor	0.0006450000000000001
bump	0.000643
pore	0.000643
scratch	0.000643
seal	0.000643
time-consuming	0.000643
suit	0.00064
accordance	0.000634
cutting	0.0006320000000000001
newspaper	0.0006320000000000001
workability	0.00063
home	0.00063
slowly	0.000629
damp	0.000627
wipe	0.000627
masonry	0.000624
check	0.000621
little	0.000621
latter	0.0006190000000000001
hard	0.0006190000000000001
flatten	0.000618
suspend	0.000618
tube	0.000617
slip	0.000616
beforehand	0.000615
generously	0.000612
ideal	0.000612
teak	0.000612
least	0.00061
advice	0.000609
duct	0.000603
arrange	0.000603
longitudinal	0.000602
house	0.000601
multiplex	0.0006
birch	0.0006
otherwise	0.000596
risk	0.000596
smooth	0.000594
corresponding	0.000591
show	0.000591
device	0.00059
hammer	0.000586
rotary	0.000586
match	0.000585
conceal	0.000585
plywood	0.000582
intersect	0.000582
hardener	0.000582
adhesive	0.000582
mix	0.000582
reach	0.00058
correctly	0.0005769999999999999
carry	0.000576
late	0.000576
Forstner	0.0005740000000000001
lounger	0.0005740000000000001
component	0.000571
day	0.000566
coarse	0.000563
provide	0.000563
however	0.000562
high	0.0005610000000000001
degree	0.000557
taper	0.000557
rafter	0.000554
appealing	0.000552
Furniture	0.000552
performance	0.000552
often	0.000552
detail	0.000552
tongue	0.0005480000000000001
accordingly	0.0005480000000000001
solid	0.0005480000000000001
setscrew	0.000546
pour	0.000545
movable	0.000544
effortlessly	0.000544
change	0.000544
extract	0.000544
collar	0.000543
full	0.000543
Torx	0.000543
plunge	0.000541
mixture	0.000541
save	0.00054
experienced	0.000539
sample	0.000539
practice	0.000539
painter	0.000539
around	0.000537
trickle	0.000535
absorb	0.000535
strong	0.000534
category	0.000534
price	0.000534
range	0.000534
various	0.000534
colour	0.000533
robinia	0.000532
certain	0.000532
weather	0.000532
resistance	0.000532
attachment	0.000531
rinse	0.000526
phase	0.000526
tear	0.000525
complete	0.000524
switch	0.000523
roller	0.000521
damage	0.0005200000000000001
ask	0.000519
hinge	0.000519
rubber	0.000519
disappear	0.000518
trolley	0.000517
quality	0.000517
fence	0.000517
layer	0.000516
link	0.000515
detailed	0.000515
entitle	0.000515
X-shaped	0.0005139999999999999
pin	0.000513
beech	0.0005099999999999999
especially	0.0005070000000000001
rib	0.0005070000000000001
feed	0.0005059999999999999
countertop	0.0005059999999999999
lining	0.000505
anything	0.000505
concrete	0.000505
sill	0.000504
triangle	0.000504
First	0.000502
nozzle	0.0005009999999999999
centimetre	0.0005009999999999999
flow	0.0005009999999999999
overlap	0.0005009999999999999
test	0.0005009999999999999
go-kart	0.0005
oak	0.000499
criterion	0.000495
exact	0.000493
viscosity	0.000492
particular	0.000492
build	0.000489
joist	0.000489
main	0.000488
handle	0.000488
third	0.000488
space	0.000487
aluminium	0.00048499999999999997
measurement	0.00048499999999999997
occur	0.000484
overheat	0.000484
burn	0.000484
special	0.000482
towel	0.000482
thus	0.000481
symbol	0.00047999999999999996
manufacturer	0.00047699999999999994
reinforcement	0.00047599999999999997
bevel	0.00047599999999999997
construct	0.000475
spring	0.000475
ceiling	0.000472
purpose	0.000472
durability	0.000472
essentially	0.000472
width	0.000471
tool	0.000471
soon	0.00047000000000000004
replace	0.00047000000000000004
used	0.00047000000000000004
half	0.000469
substructure	0.000468
appear	0.00046699999999999997
pull	0.000465
strongly	0.000463
right-hand	0.000462
lap	0.000459
particularly	0.000459
due	0.00045700000000000005
split	0.00045700000000000005
adapt	0.00045700000000000005
minimalist	0.00045700000000000005
important	0.00045700000000000005
select	0.000455
residue	0.000454
blemish	0.000454
repeat	0.000453
reason	0.000453
afterwards	0.000452
bowl	0.00045099999999999996
glove	0.00045099999999999996
mask	0.00045099999999999996
approximately	0.00045
finely	0.00044800000000000005
increase	0.00044800000000000005
previous	0.00044800000000000005
pedestal	0.00044800000000000005
cord	0.00044699999999999997
decorative	0.000446
band	0.00044400000000000006
slant	0.00043799999999999997
painted	0.00043799999999999997
trunk	0.000437
festive	0.000437
backing	0.000434
outside	0.000433
auger	0.00043099999999999996
polish	0.00042699999999999997
gleam	0.00042699999999999997
soft	0.00042699999999999997
brush	0.00042699999999999997
untidy	0.000425
bedside	0.000425
Delta	0.000425
observe	0.00042300000000000004
whether	0.00042300000000000004
beginner	0.00042199999999999996
simple	0.00042199999999999996
marking	0.000421
sufficient	0.00041900000000000005
alone	0.00041900000000000005
fibreboard	0.00041799999999999997
centrally	0.000417
pane	0.000417
acrylic	0.000417
ease	0.00041600000000000003
overall	0.00041600000000000003
give	0.00041500000000000006
counterpart	0.000414
away	0.000411
random	0.00041
rack	0.00041
orbit	0.00041
sponge	0.000408
distance	0.000408
rub	0.000408
file	0.00040599999999999995
opt	0.000405
polyurethane	0.000405
property	0.000405
immediately	0.000404
previously	0.00040300000000000004
securely	0.00040300000000000004
open	0.00040199999999999996
still	0.000401
common	0.000398
smoothly	0.000398
perform	0.000398
shallow	0.000396
upright	0.000394
left-hand	0.000393
never	0.000393
outlet	0.00039
basin	0.000389
clean	0.000389
holder	0.000389
blind	0.000388
knob	0.000384
storage	0.000384
individual	0.000384
dinner	0.000383
hold	0.000383
glare	0.00038199999999999996
shield	0.00038199999999999996
comprise	0.00037999999999999997
directly	0.000379
drive	0.000379
rope	0.000379
vertically	0.000379
cleanly	0.000377
ruler	0.000377
globe	0.000376
wire	0.000375
several	0.000375
kitchen	0.000373
like	0.00037200000000000004
move	0.000371
lower	0.00037
sun	0.00037
sideboard	0.00036899999999999997
steel	0.000367
thin	0.000366
unprotected	0.000365
able	0.000361
easily	0.000361
plank	0.000361
rung	0.00035800000000000003
ladder	0.00035800000000000003
armrest	0.000356
remember	0.00035499999999999996
natural	0.00035499999999999996
mean	0.000354
mechanism	0.000354
painting	0.000354
old	0.000354
perfectly	0.00035299999999999996
branch	0.000352
bedroom	0.00035099999999999997
loft	0.00035099999999999997
fully	0.00035
loose	0.000349
washstand	0.000348
normally	0.00034700000000000003
triangular	0.00034700000000000003
accurately	0.00034700000000000003
determine	0.000344
deck	0.000343
appropriate	0.000343
bunny	0.000342
leaf	0.00033999999999999997
difficult	0.000338
wash	0.000331
medium	0.00032900000000000003
twist	0.00032900000000000003
normal	0.00032900000000000003
piano	0.000327
occasionally	0.00032599999999999996
coffee	0.00032599999999999996
recess	0.00032599999999999996
hand	0.00032599999999999996
job	0.00032599999999999996
really	0.000325
something	0.000325
self-made	0.000325
guarantee	0.000322
everything	0.000321
pedal	0.000321
allow	0.000319
barely	0.000315
notch	0.000315
many	0.000314
safe	0.00031299999999999996
priming	0.000309
amount	0.000308
pass	0.000307
flowerbed	0.000307
gap	0.000306
lead	0.000306
double	0.000306
broad	0.000306
axis	0.000305
lateral	0.000305
loop	0.000299
designer	0.000299
behind	0.000298
per	0.000297
connection	0.000296
spirit	0.000296
level	0.000296
course	0.000293
classic	0.000293
less	0.000292
rule	0.000292
plug	0.000292
cosy	0.000291
via	0.000291
pronounced	0.000286
string	0.000285
fruit	0.00028199999999999997
object	0.00028199999999999997
retail	0.000281
Velcro	0.000281
fold	0.00028
loosely	0.000279
lamp	0.000275
Valentine	0.000275
one	0.00027400000000000005
practical	0.00027400000000000005
structure	0.00027400000000000005
hook	0.000273
pose	0.000271
dab	0.000271
produce	0.000271
watch	0.00027
feel	0.000269
pen	0.000269
contrast	0.000269
method	0.000269
rectangular	0.000268
rework	0.000268
beautiful	0.000268
enjoy	0.000267
fairy	0.000267
electric	0.000267
hacksaw	0.000266
relevant	0.000266
L-shaped	0.000265
uppermost	0.000265
wardrobe	0.000262
walk-in	0.000262
tacker	0.000262
swivel	0.000261
turnbuckle	0.000261
facing	0.000259
pendant	0.000254
tighten	0.000252
stagger	0.000251
diagonally	0.000251
oil	0.000251
milky	0.00025
single	0.00025
porthole	0.00024900000000000004
hand-held	0.000248
picture	0.00024700000000000004
lengthways	0.00024700000000000004
close	0.000246
routing	0.000245
birdhouse	0.000245
past	0.000244
introduction	0.000244
protect	0.000242
fluorescent	0.000242
handrail	0.000242
blue	0.000241
firmly	0.00023999999999999998
ready	0.000239
Clamp	0.000239
row	0.00023799999999999998
far	0.00023799999999999998
decide	0.00023700000000000001
folding	0.00023700000000000001
disfigure	0.00023700000000000001
stick	0.00023700000000000001
bulb	0.000236
garden	0.000236
skirt	0.00023500000000000002
underlay	0.000234
bottle	0.000234
Mark	0.000233
diagonal	0.000233
staple	0.00023199999999999997
injury	0.00023199999999999997
washer	0.000231
shaft	0.000231
combine	0.00022999999999999998
precise	0.00022999999999999998
highly	0.000229
lay	0.00022799999999999999
divider	0.000227
version	0.00022400000000000002
elegant	0.00022200000000000003
transverse	0.00022200000000000003
laborious	0.00021899999999999998
release	0.00021899999999999998
prior	0.00021899999999999998
forget	0.00021899999999999998
lock	0.00021899999999999998
bank	0.000218
afraid	0.000218
lounge	0.000218
intermediate	0.000218
invest	0.000218
eye-catcher	0.000217
crepe	0.000217
additionally	0.00021600000000000002
raise	0.000212
optimum	0.000212
organiser	0.000212
protection	0.000212
lift	0.000212
option	0.000212
Stretch	0.000212
location	0.000212
nowadays	0.000212
lean	0.000212
undercoat	0.000207
confusion	0.000207
casual	0.000206
writing	0.000206
invisible	0.00020299999999999997
advisable	0.000202
dream	0.000202
robust	0.000202
differ	0.00020099999999999998
red	0.00020099999999999998
supporting	0.00020099999999999998
Ace	0.00020099999999999998
Tip	0.00020099999999999998
calculate	0.00020099999999999998
scribe	0.00020099999999999998
unscrew	0.00020099999999999998
motif	0.00020099999999999998
element	0.00020099999999999998
Bosch	0.00020099999999999998
silicon	0.00020099999999999998
final	0.00020099999999999998
formula	0.00020099999999999998
define	0.00020099999999999998
gabled	0.0002
span	0.0002
slope	0.0002
awkward	0.0002
seamlessly	0.000199
lucky	0.000199
Oak	0.000199
perpendicular	0.000199
enable	0.000198
accommodate	0.000196
include	0.000196
penetrate	0.000196
guest	0.000196
paintbrush	0.000196
treat	0.000196
push	0.000194
padding	0.000193
protrusion	0.000193
shade	0.000193
refined	0.000192
tightly	0.000192
either	0.000192
cutter	0.000192
finished	0.000192
rate	0.000192
occasional	0.000192
dining	0.000192
simultaneously	0.000192
towards	0.000192
biscuit	0.00019099999999999998
opposite	0.00019099999999999998
adhere	0.00018999999999999998
dimension	0.00018899999999999999
universal	0.000188
great	0.000188
retain	0.000188
screen	0.00018700000000000002
pointed	0.00018700000000000002
opportunity	0.00018600000000000002
crown	0.000185
atmosphere	0.000154
retailer	0.000154
pole	0.000154
separate	0.000154
machine	0.000154
return	0.000154
buy	0.000154
fleece	0.000154
grid	0.000154
separately	0.000154
landing	0.000154
diamond	0.000154
vice	0.000154
worth	0.000154
foam	0.000154
upholsterer	0.000154
U-shaped	0.000154
absolutely	0.000154
earlier	0.000154
detach	0.000154
impact	0.000154
tile	0.000154
accessory	0.000154
tiger	0.000154
pilot	0.000154
entrance	0.000154
