use	0	784
screw	1	873
panel	1	568
hole	0	856
surface	1	140
drill	1	31
side	0	803
wood	1	427
make	0	715
cut	1	226
edge	0	272
paint	1	679
base	0	387
table	0	649
fit	0	474
board	1	51
frame	0	737
bit	0	162
mark	0	835
wall	0	79
together	0	188
position	0	75
front	0	877
rear	0	865
top	0	819
piece	0	111
work	0	337
sand	0	443
section	0	605
glue	0	522
strip	0	830
place	0	224
first	0	228
leg	0	886
saw	1	411
angle	0	868
template	0	270
joint	1	467
part	0	26
apply	0	608
light	1	602
fasten	0	635
shelf	0	643
head	0	767
insert	0	73
also	0	691
tip	0	250
mount	0	662
want	0	745
face	1	659
pencil	1	1
workpiece	0	213
dowel	1	9
clamp	1	192
fix	0	72
always	0	382
paper	1	800
centre	1	482
back	0	541
guide	0	899
cordless	0	770
door	0	838
rail	1	831
line	0	160
construction	0	288
long	0	628
screwdriver	1	61
corner	0	459
spray	0	309
inside	0	33
dry	0	707
bed	0	325
join	0	46
sure	0	364
diameter	0	825
support	0	889
assemble	0	323
way	0	570
see	0	622
follow	0	69
plate	0	430
form	0	302
timber	1	746
outer	0	723
material	0	642
wheel	1	633
seat	0	922
bracket	0	471
size	0	249
bottom	0	849
remove	0	692
step	0	538
wax	0	186
blade	1	557
ring	0	134
cable	1	584
drawing	0	491
groove	1	905
good	0	668
onto	0	682
carcass	1	425
upper	0	124
rout	1	518
low	0	709
flush	0	513
nut	1	86
suspension	0	609
enough	0	181
small	0	726
length	0	273
curve	0	390
short	0	58
require	0	543
instruction	0	653
box	0	412
sander	1	257
mirror	0	796
ensure	0	136
design	0	687
countersink	1	200
assembly	0	496
grit	1	210
drilling	1	450
procedure	0	882
canopy	0	16
attach	0	562
drawer	0	39
align	0	525
visible	0	650
set	0	49
precisely	0	293
connect	0	96
cover	0	694
different	0	361
flat	0	253
later	0	394
jigsaw	1	435
point	0	919
metal	1	485
cutout	0	440
bolt	1	305
cloth	1	876
fixture	0	185
depth	0	159
draw	0	70
stain	0	858
perspex	0	881
leave	0	884
outline	0	67
need	0	339
tree	0	808
tray	0	217
opening	1	54
area	0	488
time	0	263
consist	0	418
second	0	66
well	0	457
unit	0	801
fine	0	384
bar	0	351
roof	0	252
fitting	1	92
end	0	558
secure	0	386
prepare	0	867
shape	0	490
measure	0	369
along	0	203
inner	0	248
beam	0	618
wide	0	841
surround	0	143
square	1	285
steering	1	483
rod	0	453
compartment	0	231
plastic	0	122
chamfer	1	87
fill	0	29
start	0	375
system	0	683
adjust	0	693
scrap	0	148
parallel	0	912
wooden	1	640
task	0	35
brake	0	816
large	0	179
slide	0	261
right	0	408
press	0	598
bench	1	407
note	0	64
connector	1	20
cross	1	196
choose	0	331
straight	0	720
store	0	681
post	0	725
minimalist	0	517
case	0	104
hang	0	911
even	0	569
fibre	0	36
technical	0	391
thick	1	617
slat	1	205
look	0	116
narrow	1	549
spacer	0	432
round	0	925
recommend	0	356
direction	0	548
refer	0	397
easy	0	739
foot	0	120
fixings	1	287
type	0	560
varnish	1	322
condition	0	247
hanger	0	701
quickly	0	674
without	0	859
upholstery	0	805
marked	0	864
block	1	510
remain	0	479
thread	1	345
film	0	416
axle	0	52
suitable	0	119
exactly	0	652
desk	0	542
stool	1	539
process	0	244
fabric	0	503
deep	0	40
turn	0	810
room	0	221
find	0	738
properly	1	442
putty	0	340
possible	0	607
application	0	603
pressure	0	842
big	0	191
downwards	0	644
within	0	315
partition	1	454
adhesive	0	665
contour	0	303
target	0	795
cylindrical	0	804
imaginative	0	836
shank	0	678
miniature	0	634
conical	0	13
throne	0	703
simply	0	330
buffer	0	484
stop	0	717
next	0	130
circular	0	713
trace	0	150
carefully	0	551
quick	1	321
since	0	917
example	0	280
perfect	0	900
safety	0	383
completely	0	788
radius	0	878
arm	0	875
necessary	0	724
result	0	400
take	0	294
upwards	0	258
prime	1	851
grain	1	24
furniture	0	165
armchair	0	38
rim	0	10
burr	1	398
protective	0	493
gable	0	787
centring	0	566
imagination	0	451
achieve	0	399
know	0	848
finally	0	169
dust	0	702
tape	0	306
coat	0	641
seating	1	918
horizontal	0	239
circle	0	424
excess	0	469
describe	0	25
list	0	410
transfer	0	751
put	0	760
shaped	0	571
lie	0	90
treatment	0	277
skip	0	758
gun	0	544
console	0	158
specialist	0	564
illustration	0	506
absorbent	0	53
carpenter	1	519
ideally	0	853
belt	0	225
compact	0	581
tank	0	193
log	0	555
stroke	0	696
thickness	0	304
grip	0	363
middle	0	631
prevent	0	175
compass	0	888
required	0	716
wear	0	834
floor	0	740
nice	0	110
handle	0	906
vertical	0	530
router	1	349
wild	0	655
let	0	460
run	0	780
left	0	585
touch	0	279
jet	0	747
unsightly	0	99
attachment	0	921
project	0	757
avoid	0	597
lid	0	338
hinge	0	734
speed	0	783
height	0	326
goal	0	721
advice	0	879
primer	1	656
equipment	0	843
stage	0	637
evenly	0	861
correctly	0	98
shell	0	497
available	0	212
attention	1	890
mitre	1	893
rest	0	846
plinth	0	502
already	0	232
finish	0	531
copy	0	133
check	0	680
filler	0	828
colour	0	343
wipe	0	324
damp	0	91
accordance	0	547
device	0	154
longitudinal	0	540
seal	0	509
time-consuming	0	404
scratch	0	21
display	1	863
window	0	728
pay	0	230
tool	1	107
spruce	0	563
slightly	0	14
latter	0	65
ask	0	722
slot	0	765
glass	0	532
taper	0	785
underneath	0	521
tube	0	8
show	0	647
complete	0	854
build	0	676
match	0	335
term	0	821
therefore	0	317
distribute	0	129
newspaper	0	651
distance	0	809
conceal	0	417
least	0	753
masonry	0	379
protrude	0	465
absorb	0	561
create	0	28
trickle	0	630
carriage	0	256
smooth	0	500
arrange	0	565
workability	0	516
home	0	155
deck	0	174
offer	0	675
especially	0	844
exact	0	353
collar	0	132
generally	0	255
hammer	1	857
rotary	0	697
flatten	0	719
rib	0	307
high	0	915
risk	0	172
hard	0	216
slip	1	63
sharp	1	259
movable	0	139
control	0	862
rubber	0	645
cord	0	755
band	0	362
measurement	0	214
plank	1	910
lounger	0	207
delta	0	458
versatile	0	592
handy	0	466
fence	1	847
hard-to-reach	0	56
little	0	329
otherwise	0	700
get	0	775
viscosity	0	395
suit	0	275
slowly	0	380
setscrew	1	599
lap	0	292
teak	0	698
extract	0	673
marking	1	774
switch	0	492
ideal	0	262
provide	0	5
spread	0	526
change	0	577
beforehand	0	621
coarse	0	388
corresponding	1	708
often	0	623
appealing	0	444
performance	0	448
detail	0	567
intersect	0	42
cutting	1	536
disappear	0	80
whether	0	146
purpose	0	183
due	0	114
accordingly	0	895
outside	0	81
space	0	903
suspend	0	145
reason	1	839
solid	0	619
strong	0	392
width	0	393
plywood	1	741
aluminium	0	100
pedestal	0	470
thoroughly	0	514
handling	0	115
read	0	163
alone	0	869
sufficient	0	101
buff	0	19
working	1	118
half	0	689
day	0	260
quality	0	43
hold	0	742
weather	0	695
pin	1	786
individual	0	48
wire	1	706
adapt	0	344
generously	0	431
mix	0	278
hardener	1	149
test	0	376
flow	0	297
nozzle	0	187
water	0	690
symbol	0	852
orbit	0	97
random	0	34
feed	0	89
smoking	0	729
house	0	812
alternative	0	611
notch	0	909
lining	0	426
concrete	0	32
anything	0	923
special	0	77
reach	0	578
joist	1	594
barrier	0	589
root	0	763
around	0	360
save	0	314
become	0	355
ceiling	0	761
warm	0	572
ball	0	462
afterwards	0	552
leaf	0	813
go-kart	0	357
burn	0	94
various	0	229
range	0	271
price	0	908
treasure	0	473
however	0	646
thus	0	209
upright	0	23
effortlessly	0	266
link	0	269
detailed	0	797
resistance	0	152
certain	0	489
robinia	0	576
trolley	0	93
experienced	0	127
practice	0	403
twist	1	815
sample	0	102
painter	1	610
triangle	0	242
mixture	0	614
durability	0	437
reinforcement	0	7
carry	0	586
dilute	0	664
able	0	579
countertop	0	301
easily	0	588
tongue	1	582
left-hand	0	365
bowl	0	593
away	0	480
particular	0	625
strongly	0	284
essentially	0	267
file	1	141
pour	0	3
phase	0	334
bevel	1	320
particularly	0	550
determine	0	246
duct	0	88
rope	1	927
sponge	0	166
rub	0	806
open	0	733
roller	0	367
main	0	328
ruler	0	914
manufacturer	0	241
painted	1	575
holder	1	672
important	0	639
vertically	0	164
directly	0	601
third	0	807
layer	0	773
cleanly	0	206
decorative	0	600
rafter	0	498
split	1	299
multiplex	1	829
normal	0	254
overlap	0	826
substructure	0	553
medium	0	420
everything	0	663
drive	0	793
previous	0	371
less	0	475
move	0	711
hand	0	76
mask	0	313
towel	0	896
brush	1	45
polish	1	341
soft	0	201
immediately	0	477
outlet	0	409
several	0	626
painting	1	84
washstand	0	657
bathroom	0	234
fashion	0	68
mechanism	0	823
mean	0	822
damage	0	718
repeat	0	705
oak	1	240
rack	0	15
right-hand	0	436
ease	0	874
previously	0	833
give	0	684
appear	0	487
pane	0	887
beech	0	215
behind	0	385
knob	0	312
sideboard	1	501
securely	0	714
spring	0	494
piano	0	113
centrally	0	286
overall	0	574
increase	0	791
finely	0	197
clean	0	671
sill	0	445
birch	0	546
backing	0	616
opt	0	463
tear	0	310
replace	0	194
soon	0	794
used	0	782
triangular	0	606
normally	0	170
smoothly	0	495
common	0	766
perform	1	415
approximately	0	685
pull	0	105
storage	0	366
beginner	0	759
perfectly	0	523
guarantee	0	515
bedside	0	464
birdhouse	0	180
branch	0	789
never	0	627
acrylic	0	776
counterpart	0	845
observe	0	2
double	0	505
pedal	0	147
occasionally	0	636
like	0	126
simple	0	235
job	0	818
many	0	176
polyurethane	1	554
old	0	924
course	1	449
basin	0	527
plunge	0	125
barely	0	112
dinner	0	354
auger	1	559
trunk	0	620
introduction	0	670
version	0	44
chest	0	428
shallow	0	374
unprotected	0	308
lower	0	624
sun	0	727
kitchen	0	883
dimension	0	245
hook	0	167
axis	0	461
designer	0	528
natural	0	319
blind	1	529
fibreboard	0	41
retail	0	238
fully	0	74
dab	0	359
single	0	59
shield	0	12
oil	0	779
glare	0	439
globe	0	184
ladder	1	827
appropriate	0	173
still	0	189
classic	0	109
accurately	0	348
recess	0	669
festive	0	615
underlay	1	296
rectangular	0	413
hacksaw	1	455
safe	0	50
rule	0	283
fold	0	177
stand	0	95
priming	0	814
string	0	108
wash	0	534
contrast	0	667
bedroom	0	168
loft	0	666
allow	0	82
pen	0	401
remember	0	535
broad	0	916
beautiful	0	171
difficult	0	476
spirit	0	204
level	1	860
walk-in	0	251
wardrobe	0	336
per	0	333
pendant	0	220
bunny	0	735
untidy	0	654
loose	0	265
loop	0	138
steel	0	85
thin	0	236
full	0	153
flowerbed	0	60
armrest	0	870
relevant	0	370
plug	1	222
coffee	0	182
plant	0	18
turnbuckle	1	37
close	0	891
row	0	897
diagonally	0	211
amount	0	199
absolutely	0	358
folding	0	135
lateral	0	396
fruit	0	798
via	0	661
firmly	0	190
uppermost	0	219
gap	0	30
overhead	0	632
staple	1	769
cosy	0	195
lengthways	0	423
pass	0	583
invest	0	352
one	0	802
lounge	0	756
afraid	0	894
fluorescent	0	347
method	0	837
connection	0	790
protect	0	406
pose	0	151
watch	0	604
tacker	1	648
highly	0	926
treat	0	820
ready	0	743
tile	0	237
facing	0	732
bore	0	913
final	0	156
swivel	1	580
bottle	0	832
practical	0	499
universal	1	613
great	0	342
stick	1	660
precise	0	817
motif	0	638
tightly	0	300
hand-held	0	131
skirt	0	405
lock	1	161
enjoy	0	414
electric	1	276
fairy	0	688
diagonal	0	677
lay	0	866
structure	0	749
crown	0	704
milky	0	57
combine	0	121
object	0	898
rework	0	772
lamp	1	372
routing	1	71
elegant	0	282
shaft	0	223
garden	1	612
blue	0	840
robust	0	777
something	0	441
self-made	0	902
really	0	144
release	0	778
scribe	0	764
handrail	1	6
formula	0	178
seamlessly	0	892
past	0	904
padding	0	368
washer	1	629
picture	0	208
accommodate	0	11
injury	0	595
pronounced	0	142
gabled	0	504
accessory	0	712
forget	1	587
entrance	0	512
retailer	0	291
diamond	0	4
tighten	1	402
slope	0	83
paintbrush	1	478
detach	0	350
decide	0	468
pointed	0	421
far	0	811
cutter	1	198
disfigure	1	750
enable	0	117
push	0	507
towards	0	752
transverse	0	686
intermediate	1	78
crepe	0	264
eye-catcher	0	202
bear	0	748
bank	0	556
protection	0	481
bulb	0	218
exclusive	0	744
atmosphere	0	318
optimum	0	17
cool	0	62
attractive	0	137
writing	0	781
casual	0	537
advisable	0	157
divider	0	389
undercoat	0	920
loosely	0	268
unscrew	1	47
print	0	377
red	0	429
return	0	545
lucky	0	438
tiger	0	446
lift	0	824
raise	0	233
location	0	316
perpendicular	0	281
span	0	311
awkward	0	573
laser	0	123
option	0	591
organiser	0	456
nowadays	0	754
dream	0	710
either	0	855
fleece	0	373
separate	0	486
install	0	55
correct	0	901
tight	0	290
laborious	0	346
realign	0	243
curb	0	381
vice	0	699
prior	0	533
rate	0	736
worth	0	22
impact	0	885
buy	0	880
pilot	0	907
separately	0	433
score	0	434
earlier	0	872
upholsterer	1	792
landing	0	106
peg	0	596
lacquer	1	289
grid	0	378
knock	0	128
foam	0	27
pole	0	508
track	0	850
finished	0	730
begin	0	227
additionally	0	422
refined	0	762
occasional	0	799
supporting	0	295
element	0	520
dining	0	419
cost	0	524
drawers	0	511
silicon	0	590
anyway	0	771
tack	0	731
screen	0	658
penetrate	0	447
plan	0	472
opposite	0	274
confusion	0	327
invisible	0	871
biscuit	0	768
simultaneously	0	332
shade	0	103
simplex	0	452
opportunity	0	298
