use	0.018763	0
screw	0.01363	1
panel	0.013391	1
hole	0.01212	0
surface	0.011456	1
drill	0.010761	1
side	0.009915	0
wood	0.008773999999999999	1
make	0.008348999999999999	0
cut	0.007675	1
edge	0.007647	0
paint	0.006913	1
base	0.006534000000000001	0
table	0.005903	0
fit	0.00587	0
board	0.005744	1
frame	0.005539	0
bit	0.005528	0
mark	0.005306	0
wall	0.005213000000000001	0
together	0.005149	0
position	0.005071	0
front	0.005006	0
rear	0.004875	0
top	0.004817	0
piece	0.004524	0
work	0.004497	0
sand	0.004468	0
section	0.004333	0
glue	0.004307	0
strip	0.004129	0
place	0.004111999999999999	0
first	0.004102000000000001	0
leg	0.004039	0
saw	0.003889	1
angle	0.003761	0
template	0.003691	0
joint	0.00369	1
part	0.003679	0
apply	0.003656	0
light	0.003576	1
fasten	0.003571	0
shelf	0.00353	0
head	0.0034630000000000004	0
insert	0.003437	0
also	0.003418	0
tip	0.003401	0
mount	0.003397	0
want	0.0033490000000000004	0
face	0.00333	1
pencil	0.00328	1
workpiece	0.003108	0
dowel	0.003029	1
clamp	0.003018	1
fix	0.003003	0
always	0.00288	0
paper	0.002859	1
centre	0.00285	1
back	0.002826	0
guide	0.002802	0
cordless	0.002774	0
door	0.0027600000000000003	0
rail	0.002749	1
line	0.00274	0
construction	0.002702	0
long	0.00267	0
screwdriver	0.002665	1
corner	0.002644	0
spray	0.002633	0
inside	0.00263	0
dry	0.002623	0
bed	0.00262	0
join	0.002578	0
sure	0.002531	0
diameter	0.00249	0
support	0.002483	0
assemble	0.002421	0
way	0.002389	0
see	0.002385	0
follow	0.002369	0
plate	0.002327	0
form	0.002311	0
timber	0.002303	1
outer	0.002283	0
material	0.0022670000000000004	0
wheel	0.002266	1
seat	0.002263	0
bracket	0.002246	0
size	0.00222	0
bottom	0.002199	0
remove	0.00218	0
step	0.002157	0
wax	0.002156	0
blade	0.002133	1
ring	0.002116	0
cable	0.002114	1
drawing	0.002113	0
groove	0.002112	1
good	0.002086	0
onto	0.002081	0
carcass	0.002079	1
upper	0.002044	0
rout	0.002025	1
low	0.002009	0
flush	0.002003	0
nut	0.00199	1
suspension	0.001983	0
enough	0.001981	0
small	0.00198	0
length	0.001963	0
curve	0.001959	0
short	0.001954	0
require	0.001947	0
instruction	0.001945	0
box	0.00194	0
sander	0.001938	1
mirror	0.001927	0
ensure	0.001926	0
design	0.001925	0
countersink	0.001877	1
assembly	0.001866	0
grit	0.001833	1
drilling	0.001829	1
procedure	0.001815	0
canopy	0.001798	0
attach	0.001789	0
drawer	0.0017640000000000004	0
align	0.0017510000000000002	0
visible	0.0017460000000000002	0
set	0.001736	0
precisely	0.001729	0
connect	0.0017280000000000002	0
cover	0.0017109999999999998	0
different	0.00171	0
flat	0.001703	0
later	0.0017010000000000007	0
jigsaw	0.001692	1
point	0.001673	0
metal	0.001646	1
cutout	0.0016350000000000002	0
bolt	0.001634	1
cloth	0.001627	1
fixture	0.0016079999999999998	0
depth	0.001599	0
draw	0.0015949999999999998	0
stain	0.001589	0
perspex	0.001589	0
leave	0.001587	0
outline	0.001585	0
need	0.001584	0
tree	0.001577	0
tray	0.0015630000000000002	0
opening	0.001561	1
area	0.001558	0
time	0.001548	0
consist	0.001544	0
second	0.001539	0
well	0.001529	0
unit	0.001524	0
fine	0.001523	0
bar	0.001518	0
roof	0.001516	0
fitting	0.001516	1
end	0.001513	0
secure	0.001502	0
prepare	0.001486	0
shape	0.001476	0
measure	0.001469	0
along	0.001463	0
inner	0.00146	0
beam	0.00146	0
wide	0.00144	0
surround	0.001413	0
square	0.001409	1
steering	0.001383	1
rod	0.00137	0
compartment	0.001364	0
plastic	0.001363	0
chamfer	0.001357	1
fill	0.001351	0
start	0.001349	0
system	0.001341	0
adjust	0.001334	0
scrap	0.001329	0
parallel	0.001327	0
wooden	0.001326	1
task	0.001323	0
brake	0.001321	0
large	0.001318	0
slide	0.001316	0
right	0.001306	0
press	0.00129	0
bench	0.001285	1
note	0.001282	0
connector	0.001277	1
cross	0.001272	1
choose	0.001271	0
straight	0.00127	0
store	0.001269	0
post	0.001251	0
minimalist	0.001241	0
case	0.001239	0
hang	0.0012380000000000002	0
even	0.001218	0
fibre	0.001216	0
technical	0.001207	0
thick	0.001206	1
slat	0.001205	1
look	0.001201	0
narrow	0.001196	1
spacer	0.001183	0
round	0.001183	0
recommend	0.001167	0
direction	0.001165	0
refer	0.001161	0
easy	0.001154	0
foot	0.001153	0
fixings	0.00114	1
type	0.001123	0
varnish	0.00112	1
condition	0.001116	0
hanger	0.001114	0
quickly	0.0010960000000000002	0
without	0.0010949999999999998	0
upholstery	0.001093	0
marked	0.001088	0
block	0.001087	1
remain	0.001076	0
thread	0.001069	1
film	0.001064	0
axle	0.001064	0
suitable	0.00106	0
exactly	0.001053	0
desk	0.001053	0
stool	0.001051	1
process	0.001047	0
fabric	0.001047	0
deep	0.001045	0
turn	0.001045	0
room	0.001045	0
find	0.001031	0
properly	0.0010279999999999998	1
putty	0.001026	0
possible	0.001022	0
application	0.001017	0
pressure	0.001014	0
big	0.00101	0
downwards	0.001008	0
within	0.001006	0
partition	0.001004	1
adhesive	0.001001	0
contour	0.001	0
target	0.000997	0
cylindrical	0.000994	0
imaginative	0.000994	0
shank	0.000994	0
miniature	0.000994	0
conical	0.000994	0
throne	0.000994	0
simply	0.000984	0
buffer	0.00098	0
stop	0.00098	0
next	0.000976	0
circular	0.000974	0
trace	0.000968	0
carefully	0.000965	0
quick	0.000965	1
since	0.000958	0
example	0.000957	0
perfect	0.000956	0
safety	0.000951	0
completely	0.00095	0
radius	0.000949	0
arm	0.000949	0
necessary	0.000946	0
result	0.000945	0
take	0.000931	0
upwards	0.000925	0
prime	0.000925	1
grain	0.000923	1
furniture	0.000922	0
armchair	0.000919	0
rim	0.000915	0
burr	0.000915	1
protective	0.000914	0
gable	0.000914	0
centring	0.000908	0
imagination	0.000908	0
achieve	0.000904	0
know	0.0009	0
finally	0.000898	0
dust	0.000895	0
tape	0.000889	0
coat	0.0008880000000000002	0
seating	0.0008869999999999998	1
horizontal	0.00088	0
circle	0.000872	0
excess	0.0008699999999999999	0
describe	0.000869	0
list	0.0008640000000000001	0
transfer	0.0008609999999999999	0
put	0.0008609999999999999	0
shaped	0.000857	0
lie	0.0008560000000000001	0
treatment	0.0008550000000000001	0
skip	0.0008539999999999999	0
gun	0.00085	0
console	0.0008460000000000001	0
specialist	0.0008460000000000001	0
illustration	0.0008449999999999999	0
absorbent	0.000843	0
carpenter	0.0008380000000000001	1
ideally	0.0008349999999999999	0
belt	0.000834	0
compact	0.000834	0
tank	0.0008320000000000001	0
log	0.000826	0
stroke	0.000826	0
thickness	0.000824	0
grip	0.000824	0
middle	0.00082	0
prevent	0.000819	0
compass	0.000816	0
required	0.0008150000000000001	0
wear	0.000814	0
floor	0.0008119999999999999	0
nice	0.000807	0
handle	0.0008060000000000001	0
vertical	0.000802	0
router	0.000801	1
wild	0.000799	0
let	0.000799	0
run	0.000799	0
left	0.000798	0
touch	0.000797	0
jet	0.000796	0
unsightly	0.000795	0
attachment	0.000793	0
project	0.000792	0
avoid	0.00079	0
lid	0.000781	0
hinge	0.000776	0
speed	0.000775	0
height	0.000775	0
goal	0.0007740000000000001	0
advice	0.000773	0
primer	0.000771	1
equipment	0.000769	0
stage	0.000769	0
evenly	0.000763	0
correctly	0.000762	0
shell	0.0007610000000000001	0
available	0.0007599999999999999	0
attention	0.000755	1
mitre	0.000754	1
rest	0.0007509999999999999	0
plinth	0.0007469999999999999	0
already	0.000746	0
finish	0.000745	0
copy	0.0007440000000000001	0
check	0.0007440000000000001	0
filler	0.000742	0
colour	0.00074	0
wipe	0.000739	0
damp	0.000739	0
accordance	0.0007379999999999999	0
device	0.000737	0
longitudinal	0.000736	0
seal	0.000735	0
time-consuming	0.000735	0
scratch	0.000735	0
display	0.000734	1
window	0.000726	0
pay	0.000722	0
tool	0.000719	1
spruce	0.000715	0
slightly	0.000713	0
latter	0.000712	0
ask	0.0007030000000000001	0
slot	0.0007	0
glass	0.000697	0
taper	0.000696	0
underneath	0.000695	0
tube	0.000695	0
show	0.000695	0
complete	0.000692	0
build	0.000691	0
match	0.0006900000000000001	0
term	0.000688	0
therefore	0.000688	0
distribute	0.000684	0
newspaper	0.000684	0
distance	0.0006799999999999999	0
conceal	0.0006799999999999999	0
least	0.000677	0
masonry	0.000677	0
protrude	0.000672	0
absorb	0.00067	0
create	0.00067	0
trickle	0.00067	0
carriage	0.000667	0
smooth	0.000663	0
arrange	0.000662	0
workability	0.000657	0
home	0.000657	0
deck	0.000656	0
offer	0.0006519999999999999	0
especially	0.000648	0
exact	0.000646	0
collar	0.00064	0
generally	0.00064	0
hammer	0.0006360000000000001	1
rotary	0.0006360000000000001	0
flatten	0.000633	0
rib	0.000633	0
high	0.0006320000000000001	0
risk	0.000629	0
hard	0.000628	0
slip	0.000627	1
sharp	0.0006259999999999999	1
movable	0.0006230000000000001	0
control	0.0006219999999999999	0
rubber	0.0006219999999999999	0
cord	0.0006219999999999999	0
band	0.00062	0
measurement	0.0006190000000000001	0
plank	0.000618	1
lounger	0.000615	0
delta	0.000612	0
versatile	0.000612	0
handy	0.000612	0
fence	0.000612	1
hard-to-reach	0.000612	0
little	0.000599	0
otherwise	0.000599	0
get	0.000599	0
viscosity	0.000595	0
suit	0.000593	0
slowly	0.000592	0
setscrew	0.000592	1
lap	0.000589	0
teak	0.000589	0
extract	0.000588	0
marking	0.000587	1
switch	0.000586	0
ideal	0.000586	0
provide	0.000585	0
spread	0.0005809999999999999	0
change	0.0005809999999999999	0
beforehand	0.0005780000000000001	0
coarse	0.0005769999999999999	0
corresponding	0.0005769999999999999	1
often	0.000576	0
appealing	0.000576	0
performance	0.000576	0
detail	0.000576	0
intersect	0.000575	0
cutting	0.000575	1
disappear	0.0005740000000000001	0
whether	0.000573	0
purpose	0.000571	0
due	0.0005690000000000001	0
accordingly	0.0005679999999999999	0
outside	0.000566	0
space	0.000562	0
suspend	0.0005610000000000001	0
reason	0.0005610000000000001	1
solid	0.00056	0
strong	0.000558	0
width	0.000557	0
plywood	0.000557	1
aluminium	0.000557	0
pedestal	0.000557	0
thoroughly	0.000553	0
handling	0.000553	0
read	0.000553	0
alone	0.000549	0
sufficient	0.000549	0
buff	0.000547	0
working	0.000546	1
half	0.000546	0
day	0.000546	0
quality	0.000544	0
hold	0.000544	0
weather	0.000543	0
pin	0.000541	1
individual	0.000541	0
wire	0.00054	1
adapt	0.00054	0
generously	0.000537	0
mix	0.000537	0
hardener	0.000537	1
test	0.000535	0
flow	0.000535	0
nozzle	0.000535	0
water	0.000534	0
symbol	0.000534	0
orbit	0.000531	0
random	0.000531	0
feed	0.000529	0
smoking	0.000525	0
house	0.000525	0
alternative	0.000525	0
notch	0.000524	0
lining	0.000524	0
concrete	0.000524	0
anything	0.000524	0
special	0.000523	0
reach	0.000522	0
joist	0.000522	1
barrier	0.000518	0
root	0.000518	0
around	0.000518	0
save	0.000518	0
become	0.000517	0
ceiling	0.000517	0
warm	0.000517	0
ball	0.000517	0
afterwards	0.000517	0
leaf	0.000516	0
go-kart	0.000515	0
burn	0.0005139999999999999	0
various	0.000512	0
range	0.000512	0
price	0.000512	0
treasure	0.000512	0
however	0.0005099999999999999	0
thus	0.0005099999999999999	0
upright	0.000509	0
effortlessly	0.000508	0
link	0.000505	0
detailed	0.000505	0
resistance	0.000503	0
certain	0.000503	0
robinia	0.000503	0
trolley	0.0005009999999999999	0
experienced	0.0005	0
practice	0.0005	0
twist	0.0005	1
sample	0.0005	0
painter	0.0005	1
triangle	0.0005	0
mixture	0.0005	0
durability	0.000499	0
reinforcement	0.0004980000000000001	0
carry	0.0004980000000000001	0
dilute	0.000495	0
able	0.0004940000000000001	0
countertop	0.0004940000000000001	0
easily	0.0004940000000000001	0
tongue	0.000493	1
left-hand	0.000493	0
bowl	0.000492	0
away	0.000492	0
particular	0.000491	0
strongly	0.00049	0
essentially	0.00049	0
file	0.000489	1
pour	0.000484	0
phase	0.000482	0
bevel	0.00048	1
particularly	0.000479	0
determine	0.000478	0
duct	0.000477	0
rope	0.000476	1
sponge	0.000476	0
rub	0.000476	0
open	0.000475	0
roller	0.000475	0
main	0.000475	0
ruler	0.000472	0
manufacturer	0.000472	0
painted	0.000471	1
holder	0.00047	1
important	0.00047	0
vertically	0.000468	0
directly	0.000468	0
third	0.000468	0
layer	0.000466	0
cleanly	0.000465	0
decorative	0.000463	0
rafter	0.000462	0
split	0.000461	1
multiplex	0.000461	1
normal	0.00046	0
overlap	0.00046	0
substructure	0.00046	0
medium	0.00046	0
everything	0.00046	0
drive	0.00046	0
previous	0.000459	0
less	0.000459	0
move	0.000459	0
hand	0.0004570000000000001	0
mask	0.000456	0
towel	0.000454	0
brush	0.000452	1
polish	0.000452	1
soft	0.000452	0
immediately	0.000451	0
outlet	0.000447	0
several	0.000446	0
painting	0.000445	1
washstand	0.000443	0
bathroom	0.000443	0
fashion	0.000443	0
mechanism	0.000441	0
mean	0.000441	0
damage	0.000439	0
repeat	0.000438	0
oak	0.000438	1
rack	0.000437	0
right-hand	0.000435	0
ease	0.000434	0
previously	0.000433	0
give	0.000433	0
appear	0.000432	0
pane	0.000431	0
beech	0.00043	0
behind	0.00043	0
knob	0.000429	0
sideboard	0.000429	1
securely	0.0004280000000000001	0
spring	0.0004280000000000001	0
piano	0.000427	0
centrally	0.000427	0
overall	0.000426	0
increase	0.000426	0
finely	0.000426	0
clean	0.000424	0
sill	0.000423	0
birch	0.000421	0
backing	0.000421	0
opt	0.000418	0
tear	0.000418	0
replace	0.000417	0
soon	0.000417	0
used	0.000417	0
triangular	0.000416	0
normally	0.000416	0
smoothly	0.000413	0
common	0.000413	0
perform	0.000413	1
approximately	0.000412	0
pull	0.000407	0
storage	0.000403	0
beginner	0.000403	0
perfectly	0.0004	0
guarantee	0.000399	0
bedside	0.000396	0
birdhouse	0.000395	0
branch	0.000393	0
never	0.000393	0
acrylic	0.000389	0
counterpart	0.000388	0
observe	0.000388	0
double	0.000387	0
pedal	0.000387	0
occasionally	0.000382	0
like	0.000381	0
simple	0.000381	0
job	0.000381	0
many	0.000378	0
polyurethane	0.000377	1
old	0.000377	0
course	0.000376	1
basin	0.000376	0
plunge	0.000375	0
barely	0.000375	0
dinner	0.000373	0
auger	0.000372	1
trunk	0.000372	0
introduction	0.00037	0
version	0.00037	0
chest	0.00037	0
shallow	0.00037	0
unprotected	0.000367	0
lower	0.000366	0
sun	0.000366	0
kitchen	0.000365	0
dimension	0.000365	0
hook	0.000364	0
axis	0.000361	0
designer	0.00036	0
natural	0.00036	0
blind	0.000359	1
fibreboard	0.00035800000000000003	0
retail	0.000357	0
fully	0.000354	0
dab	0.000354	0
single	0.000352	0
shield	0.000351	0
oil	0.000351	0
glare	0.000351	0
globe	0.000348	0
ladder	0.000348	1
appropriate	0.000346	0
still	0.00034500000000000004	0
classic	0.00034500000000000004	0
accurately	0.00034500000000000004	0
recess	0.00034	0
festive	0.000339	0
underlay	0.000338	1
rectangular	0.000338	0
hacksaw	0.000337	1
safe	0.000336	0
rule	0.000335	0
fold	0.000335	0
stand	0.000335	0
priming	0.000332	0
string	0.000332	0
wash	0.000327	0
contrast	0.000326	0
bedroom	0.000326	0
loft	0.000326	0
allow	0.000326	0
pen	0.000325	0
remember	0.000324	0
broad	0.000323	0
beautiful	0.000321	0
difficult	0.000317	0
spirit	0.000317	0
level	0.000317	1
walk-in	0.00031600000000000004	0
wardrobe	0.00031600000000000004	0
per	0.000313	0
pendant	0.000312	0
bunny	0.000311	0
untidy	0.00031	0
loose	0.00031	0
loop	0.000308	0
steel	0.000307	0
thin	0.000303	0
full	0.000301	0
flowerbed	0.0003	0
armrest	0.000299	0
relevant	0.000298	0
plug	0.000296	1
coffee	0.000296	0
plant	0.000295	0
turnbuckle	0.000294	1
close	0.000293	0
row	0.000292	0
diagonally	0.000292	0
amount	0.000291	0
absolutely	0.000291	0
folding	0.00029	0
lateral	0.00028900000000000003	0
fruit	0.00028900000000000003	0
via	0.00028900000000000003	0
firmly	0.00028900000000000003	0
uppermost	0.000286	0
gap	0.000286	0
overhead	0.000283	0
staple	0.00028	1
cosy	0.000278	0
lengthways	0.000278	0
pass	0.00027400000000000005	0
invest	0.000272	0
one	0.000272	0
lounge	0.000272	0
afraid	0.000272	0
fluorescent	0.000268	0
method	0.000265	0
connection	0.000264	0
protect	0.000263	0
pose	0.000262	0
watch	0.000262	0
tacker	0.000262	1
highly	0.000261	0
treat	0.000261	0
ready	0.000261	0
tile	0.00026000000000000003	0
facing	0.00026000000000000003	0
bore	0.00026000000000000003	0
final	0.000259	0
swivel	0.000259	1
bottle	0.000259	0
practical	0.000257	0
universal	0.000257	1
great	0.000257	0
stick	0.000256	1
precise	0.000256	0
motif	0.000255	0
tightly	0.000255	0
hand-held	0.000254	0
skirt	0.000254	0
lock	0.000253	1
enjoy	0.000253	0
electric	0.000253	1
fairy	0.000253	0
diagonal	0.000252	0
lay	0.000252	0
structure	0.000252	0
crown	0.000252	0
milky	0.00025	0
combine	0.00024900000000000004	0
object	0.000246	0
rework	0.000244	0
lamp	0.000243	1
routing	0.000241	1
elegant	0.00024	0
shaft	0.000237	0
garden	0.000237	1
blue	0.000237	0
robust	0.000236	0
something	0.000235	0
self-made	0.000235	0
really	0.000235	0
release	0.000234	0
scribe	0.000234	0
handrail	0.000234	1
formula	0.000232	0
seamlessly	0.000232	0
past	0.000231	0
padding	0.000231	0
washer	0.000228	1
picture	0.000227	0
accommodate	0.000227	0
injury	0.000227	0
pronounced	0.000226	0
gabled	0.000225	0
accessory	0.000224	0
forget	0.000224	1
entrance	0.000224	0
retailer	0.000223	0
diamond	0.000223	0
tighten	0.000223	1
slope	0.000221	0
paintbrush	0.000221	1
detach	0.000221	0
decide	0.00022	0
pointed	0.00022	0
far	0.00022	0
cutter	0.00022	1
disfigure	0.00022	1
enable	0.00022	0
push	0.000218	0
towards	0.000217	0
transverse	0.000216	0
intermediate	0.000214	1
crepe	0.000212	0
eye-catcher	0.000212	0
bear	0.000211	0
bank	0.000211	0
protection	0.00021	0
bulb	0.00021	0
exclusive	0.00021	0
atmosphere	0.00021	0
optimum	0.00021	0
cool	0.00021	0
attractive	0.00021	0
writing	0.000199	0
casual	0.000199	0
advisable	0.000198	0
divider	0.000198	0
undercoat	0.000198	0
loosely	0.000198	0
unscrew	0.000197	1
print	0.000197	0
red	0.000197	0
return	0.000196	0
lucky	0.000195	0
tiger	0.000194	0
lift	0.000194	0
raise	0.000194	0
location	0.000194	0
perpendicular	0.000192	0
span	0.000192	0
awkward	0.000192	0
laser	0.000189	0
option	0.000189	0
organiser	0.000189	0
nowadays	0.000189	0
dream	0.000188	0
either	0.000188	0
fleece	0.000187	0
separate	0.000187	0
install	0.000187	0
correct	0.000187	0
tight	0.000187	0
laborious	0.000187	0
realign	0.000187	0
curb	0.000187	0
vice	0.000187	0
prior	0.000187	0
rate	0.000187	0
worth	0.000186	0
impact	0.000186	0
buy	0.000186	0
pilot	0.000186	0
separately	0.000186	0
score	0.000186	0
earlier	0.000186	0
upholsterer	0.000186	1
landing	0.000186	0
peg	0.000186	0
lacquer	0.000186	1
grid	0.000186	0
knock	0.000186	0
foam	0.000186	0
pole	0.000186	0
track	0.000186	0
finished	0.000186	0
begin	0.000186	0
additionally	0.000185	0
refined	0.000185	0
occasional	0.000185	0
supporting	0.000185	0
element	0.000185	0
dining	0.000185	0
cost	0.000185	0
drawers	0.000185	0
silicon	0.000185	0
anyway	0.000184	0
tack	0.000184	0
screen	0.000184	0
penetrate	0.000184	0
plan	0.000184	0
opposite	0.000183	0
confusion	0.000183	0
invisible	0.000183	0
biscuit	0.000183	0
simultaneously	0.000183	0
shade	0.000182	0
simplex	0.000182	0
opportunity	0.000182	0
