use	0	544
screw	1	529
panel	1	177
drill	1	160
hole	0	309
surface	1	394
side	0	377
wood	1	640
make	0	824
edge	0	797
cut	1	827
wall	0	230
paint	1	602
table	0	306
base	0	621
together	0	366
fit	0	466
mark	0	473
board	1	74
bit	0	844
piece	0	112
sand	0	142
frame	0	251
glue	0	324
angle	0	96
rear	0	531
work	0	88
joint	1	206
apply	0	737
leg	0	355
section	0	156
part	0	841
position	0	771
paper	1	889
fasten	0	503
top	0	563
strip	0	263
guide	0	328
first	0	340
saw	1	369
clamp	1	82
tip	0	895
template	0	807
workpiece	0	821
front	0	617
insert	0	896
place	0	193
dowel	1	78
corner	0	224
want	0	422
mount	0	162
shelf	0	756
rail	1	350
always	0	833
also	0	163
pencil	1	752
face	1	787
bed	0	791
construction	0	393
head	0	733
leave	0	41
sure	0	479
spray	0	104
fix	0	694
dry	0	130
cable	1	568
light	1	413
grit	1	744
log	0	745
centre	1	123
follow	0	255
remove	0	167
parallel	0	50
line	0	513
door	0	106
seat	0	280
cordless	0	450
scrap	0	389
diameter	0	677
screwdriver	1	134
good	0	714
join	0	858
press	0	219
long	0	85
well	0	13
assemble	0	600
way	0	834
instruction	0	736
sander	1	351
see	0	518
assembly	0	158
material	0	153
later	0	248
outer	0	419
wax	0	184
groove	1	825
small	0	812
block	1	591
visible	0	360
drawing	0	56
straight	0	624
countersink	1	191
ring	0	822
pressure	0	279
buffer	0	476
step	0	337
drawer	0	713
plate	0	836
secure	0	795
cloth	1	799
wheel	1	749
blade	1	46
drilling	1	608
onto	0	119
form	0	662
support	0	520
nut	1	240
low	0	210
box	0	558
ensure	0	508
enough	0	424
timber	1	383
depth	0	826
length	0	438
avoid	0	330
mirror	0	165
time	0	524
unsightly	0	145
size	0	376
bracket	0	423
suspension	0	161
second	0	839
roof	0	302
evenly	0	775
carcass	1	416
upper	0	460
achieve	0	198
distribute	0	269
back	0	18
require	0	81
rout	1	3
fine	0	885
procedure	0	311
jigsaw	1	305
connect	0	374
design	0	12
tray	0	204
canopy	0	730
different	0	484
short	0	190
tree	0	189
curve	0	769
along	0	103
area	0	528
point	0	866
attach	0	545
precisely	0	266
align	0	114
fixture	0	64
consist	0	38
flat	0	634
shape	0	547
bolt	1	676
set	0	300
prepare	0	586
cutout	0	316
flush	0	249
inside	0	495
fill	0	663
room	0	674
putty	0	22
unit	0	879
large	0	848
system	0	362
rod	0	856
start	0	331
draw	0	780
metal	1	342
fibre	0	576
wide	0	683
steering	1	664
seating	1	509
need	0	448
wooden	1	149
beam	0	672
marked	0	616
bar	0	687
take	0	804
fitting	1	154
condition	0	633
thick	1	546
outline	0	180
stain	0	132
choose	0	432
perspex	0	20
cover	0	291
compartment	0	533
opening	1	178
recommend	0	200
chamfer	1	502
bottom	0	406
easy	0	347
adjust	0	411
technical	0	297
hang	0	511
task	0	442
varnish	1	329
post	0	862
even	0	215
inner	0	629
end	0	151
partition	1	847
spacer	0	116
brake	0	45
bench	1	593
possible	0	176
safety	0	601
without	0	385
narrow	1	338
note	0	641
properly	1	657
stool	1	620
armchair	0	817
direction	0	157
measure	0	708
necessary	0	720
quick	1	631
turn	0	233
foot	0	572
application	0	94
quickly	0	68
tank	0	378
upholstery	0	891
cross	1	135
fixings	1	404
look	0	401
desk	0	361
console	0	665
hanger	0	429
furniture	0	40
throne	0	815
cylindrical	0	97
treasure	0	483
conical	0	403
imaginative	0	875
barrier	0	497
miniature	0	396
shank	0	290
root	0	436
plastic	0	356
chest	0	72
control	0	441
refer	0	90
mitre	1	798
surround	0	36
connector	1	842
type	0	421
case	0	100
axle	0	571
big	0	801
gable	0	554
slide	0	485
prime	1	33
contour	0	107
process	0	368
exactly	0	816
film	0	93
radius	0	585
remain	0	751
stroke	0	284
deep	0	428
grain	1	717
within	0	209
example	0	66
carefully	0	829
protective	0	583
suitable	0	596
round	0	254
grip	0	358
wear	0	333
describe	0	482
burr	1	245
gun	0	622
slat	1	894
perfect	0	239
coat	0	535
router	1	728
lid	0	843
tape	0	878
know	0	322
right	0	58
smoking	0	417
finally	0	510
treatment	0	243
shaped	0	270
imagination	0	137
square	1	869
find	0	688
completely	0	716
centring	0	861
result	0	789
project	0	474
left	0	26
since	0	35
belt	0	498
compact	0	332
create	0	354
target	0	725
speed	0	344
fabric	0	237
arm	0	753
upwards	0	490
excess	0	670
list	0	589
specialist	0	446
buff	0	551
already	0	871
dust	0	724
transfer	0	803
circular	0	8
downwards	0	668
stop	0	264
shell	0	187
nice	0	867
rim	0	414
thickness	0	477
thread	1	582
copy	0	194
touch	0	539
height	0	226
window	0	881
horizontal	0	888
display	1	365
water	0	651
finish	0	443
simply	0	552
dilute	0	597
next	0	697
underneath	0	648
circle	0	289
equipment	0	538
absorbent	0	133
illustration	0	382
middle	0	345
slightly	0	635
term	0	274
put	0	307
stage	0	299
glass	0	654
get	0	860
rest	0	684
attention	1	418
warm	0	855
ball	0	336
become	0	682
protrude	0	341
working	1	62
vertical	0	680
carriage	0	614
jet	0	832
slot	0	468
available	0	73
lie	0	786
store	0	138
trace	0	51
run	0	4
filler	0	372
let	0	820
therefore	0	849
pay	0	420
goal	0	718
offer	0	584
skip	0	373
prevent	0	472
ideally	0	519
required	0	454
alternative	0	282
generally	0	152
primer	1	627
compass	0	9
thoroughly	0	882
handling	0	592
read	0	772
carpenter	1	127
spruce	0	370
spread	0	218
sharp	1	486
handy	0	536
hard-to-reach	0	55
versatile	0	319
delta	0	381
plinth	0	874
floor	0	659
time-consuming	0	765
scratch	0	470
seal	0	611
suit	0	550
accordance	0	227
cutting	1	76
newspaper	0	53
workability	0	398
home	0	228
slowly	0	271
wipe	0	757
damp	0	15
masonry	0	426
check	0	124
little	0	537
latter	0	292
hard	0	802
flatten	0	185
suspend	0	174
tube	0	517
slip	1	883
beforehand	0	695
teak	0	738
generously	0	247
ideal	0	99
least	0	493
advice	0	831
duct	0	405
arrange	0	273
longitudinal	0	388
house	0	318
multiplex	1	437
birch	0	379
otherwise	0	703
risk	0	375
smooth	0	323
corresponding	1	698
show	0	260
device	0	863
hammer	1	658
rotary	0	75
conceal	0	809
match	0	220
intersect	0	767
hardener	1	671
mix	0	823
adhesive	0	256
plywood	1	459
reach	0	52
correctly	0	491
carry	0	727
lounger	0	391
day	0	678
provide	0	69
coarse	0	719
however	0	430
high	0	257
taper	0	819
rafter	0	527
often	0	557
performance	0	425
detail	0	779
appealing	0	782
accordingly	0	605
tongue	1	143
solid	0	750
setscrew	1	371
pour	0	689
movable	0	559
extract	0	286
change	0	449
effortlessly	0	380
collar	0	214
full	0	222
plunge	0	487
mixture	0	746
save	0	553
practice	0	805
experienced	0	811
sample	0	613
painter	1	188
around	0	5
trickle	0	506
absorb	0	525
various	0	612
price	0	34
strong	0	796
range	0	793
colour	0	105
certain	0	813
robinia	0	140
resistance	0	327
weather	0	587
attachment	0	207
phase	0	39
tear	0	298
complete	0	293
switch	0	623
roller	0	310
damage	0	129
hinge	0	846
ask	0	102
rubber	0	532
disappear	0	166
trolley	0	496
quality	0	400
fence	1	117
layer	0	202
detailed	0	412
link	0	346
pin	1	27
beech	0	433
especially	0	739
rib	0	19
feed	0	790
countertop	0	735
anything	0	715
concrete	0	195
lining	0	653
triangle	0	806
sill	0	770
flow	0	768
test	0	141
nozzle	0	387
overlap	0	892
go-kart	0	534
oak	1	171
exact	0	86
viscosity	0	10
particular	0	17
build	0	868
joist	1	148
handle	0	644
third	0	642
main	0	723
space	0	845
measurement	0	692
aluminium	0	281
burn	0	876
towel	0	828
special	0	384
thus	0	599
symbol	0	439
manufacturer	0	225
reinforcement	0	481
bevel	1	111
spring	0	726
purpose	0	334
ceiling	0	570
essentially	0	275
durability	0	619
tool	1	794
width	0	54
used	0	764
soon	0	704
replace	0	609
half	0	754
substructure	0	467
appear	0	740
pull	0	223
strongly	0	70
right-hand	0	246
lap	0	348
particularly	0	59
important	0	91
minimalist	0	859
split	1	288
due	0	655
adapt	0	205
reason	1	77
repeat	0	28
afterwards	0	98
bowl	0	150
mask	0	835
approximately	0	2
previous	0	636
finely	0	267
pedestal	0	777
increase	0	452
cord	0	575
decorative	0	287
band	0	478
painted	1	710
festive	0	776
trunk	0	242
backing	0	501
outside	0	110
auger	1	660
polish	1	603
brush	1	392
soft	0	707
untidy	0	408
bedside	0	507
whether	0	164
observe	0	120
beginner	0	887
simple	0	610
marking	1	656
alone	0	638
sufficient	0	47
fibreboard	0	456
centrally	0	661
acrylic	0	590
pane	0	800
overall	0	261
ease	0	262
give	0	216
counterpart	0	244
away	0	63
rack	0	229
random	0	24
orbit	0	594
sponge	0	301
distance	0	115
rub	0	364
file	1	830
opt	0	514
polyurethane	1	729
immediately	0	578
securely	0	84
previously	0	647
open	0	643
still	0	543
perform	1	461
smoothly	0	304
common	0	258
shallow	0	353
upright	0	211
never	0	526
left-hand	0	146
outlet	0	699
holder	1	760
basin	0	541
clean	0	567
blind	1	645
knob	0	303
storage	0	169
individual	0	139
hold	0	465
dinner	0	759
glare	0	192
shield	0	499
vertically	0	179
rope	1	555
drive	0	748
directly	0	864
ruler	0	691
cleanly	0	808
globe	0	857
several	0	581
wire	1	109
kitchen	0	313
like	0	566
move	0	761
lower	0	523
sun	0	11
sideboard	1	314
steel	0	136
thin	0	285
unprotected	0	23
easily	0	734
plank	1	159
able	0	722
ladder	1	415
armrest	0	607
natural	0	231
remember	0	463
painting	1	14
mean	0	325
mechanism	0	118
old	0	440
perfectly	0	199
branch	0	781
loft	0	810
bedroom	0	108
fully	0	505
loose	0	762
washstand	0	700
triangular	0	471
accurately	0	464
normally	0	681
determine	0	579
deck	0	696
appropriate	0	818
bunny	0	29
leaf	0	783
difficult	0	521
wash	0	701
normal	0	182
twist	1	435
medium	0	637
piano	0	580
job	0	837
recess	0	850
coffee	0	880
hand	0	49
occasionally	0	712
really	0	122
self-made	0	21
something	0	252
guarantee	0	315
pedal	0	872
everything	0	747
allow	0	60
barely	0	494
notch	0	268
many	0	840
safe	0	560
priming	0	565
amount	0	702
flowerbed	0	480
pass	0	399
double	0	595
gap	0	6
broad	0	335
lateral	0	854
axis	0	577
loop	0	126
designer	0	489
behind	0	407
per	0	711
level	1	792
connection	0	851
spirit	0	500
course	1	155
classic	0	308
rule	0	395
less	0	447
plug	1	113
cosy	0	410
via	0	742
pronounced	0	853
string	0	628
object	0	457
fruit	0	693
retail	0	451
fold	0	359
loosely	0	540
lamp	1	573
one	0	397
practical	0	598
structure	0	685
hook	0	504
pose	0	101
dab	0	445
watch	0	788
method	0	7
contrast	0	321
pen	0	217
rework	0	434
rectangular	0	212
beautiful	0	186
electric	1	16
fairy	0	79
enjoy	0	232
hacksaw	1	30
relevant	0	877
uppermost	0	766
walk-in	0	774
wardrobe	0	650
tacker	1	625
turnbuckle	1	893
swivel	1	758
facing	0	283
pendant	0	515
tighten	1	276
oil	0	773
diagonally	0	48
milky	0	673
single	0	197
hand-held	0	530
picture	0	296
lengthways	0	785
close	0	175
birdhouse	0	37
routing	1	183
introduction	0	390
past	0	253
handrail	1	522
protect	0	564
fluorescent	0	431
blue	0	615
firmly	0	80
ready	0	31
row	0	32
far	0	236
disfigure	1	295
stick	1	562
folding	0	43
decide	0	732
garden	1	89
bulb	0	71
skirt	0	343
bottle	0	326
underlay	1	778
diagonal	0	170
injury	0	705
staple	1	743
shaft	0	548
washer	1	352
combine	0	61
precise	0	357
highly	0	675
lay	0	65
divider	0	838
version	0	144
transverse	0	259
elegant	0	873
laborious	0	630
forget	1	57
lock	1	317
prior	0	427
release	0	852
lounge	0	492
invest	0	686
intermediate	1	250
afraid	0	121
bank	0	512
eye-catcher	0	208
crepe	0	367
additionally	0	181
protection	0	784
raise	0	458
nowadays	0	706
lift	0	196
location	0	865
organiser	0	67
optimum	0	95
option	0	870
undercoat	0	201
confusion	0	44
casual	0	890
writing	0	731
invisible	0	386
dream	0	87
advisable	0	168
robust	0	25
supporting	0	1
element	0	604
motif	0	453
formula	0	147
red	0	755
silicon	0	469
final	0	606
scribe	0	83
unscrew	1	639
span	0	402
slope	0	574
awkward	0	203
gabled	0	42
seamlessly	0	92
lucky	0	626
perpendicular	0	241
enable	0	516
treat	0	312
paintbrush	1	131
penetrate	0	646
accommodate	0	763
push	0	173
padding	0	632
shade	0	690
occasional	0	561
either	0	649
finished	0	363
rate	0	265
towards	0	294
cutter	1	349
refined	0	897
tightly	0	475
simultaneously	0	542
dining	0	669
biscuit	0	667
opposite	0	272
dimension	0	588
great	0	409
universal	1	679
pointed	0	549
screen	0	213
opportunity	0	884
crown	0	320
absolutely	0	488
entrance	0	741
vice	0	125
foam	0	814
atmosphere	0	652
tiger	0	556
accessory	0	339
buy	0	234
earlier	0	128
retailer	0	277
impact	0	444
return	0	462
separately	0	278
upholsterer	1	172
separate	0	618
pole	0	709
worth	0	221
tile	0	235
grid	0	238
pilot	0	569
fleece	0	455
detach	0	886
landing	0	666
diamond	0	721
