use	0	595
screw	1	280
panel	1	619
drill	1	282
hole	0	426
surface	1	365
side	0	837
wood	1	115
make	0	739
edge	0	741
cut	1	314
wall	0	168
paint	1	318
table	0	249
base	0	650
together	0	83
fit	0	592
mark	0	479
board	1	845
bit	0	586
piece	0	349
sand	0	646
frame	0	758
glue	0	410
angle	0	256
rear	0	107
work	0	484
joint	1	414
apply	0	1
leg	0	362
section	0	822
part	0	513
position	0	78
paper	1	643
fasten	0	171
top	0	727
strip	0	139
guide	0	689
first	0	24
saw	1	102
clamp	1	785
tip	0	21
template	0	450
workpiece	0	782
front	0	271
insert	0	294
place	0	88
dowel	1	582
corner	0	432
want	0	424
mount	0	413
shelf	0	844
rail	1	45
always	0	635
also	0	384
pencil	1	446
face	1	633
bed	0	385
construction	0	174
head	0	861
leave	0	203
sure	0	417
spray	0	892
fix	0	791
dry	0	439
cable	1	221
light	1	99
grit	1	855
log	0	412
centre	1	893
follow	0	283
remove	0	743
parallel	0	336
line	0	754
door	0	716
seat	0	435
cordless	0	557
scrap	0	656
diameter	0	852
screwdriver	1	340
good	0	615
join	0	607
press	0	859
long	0	621
well	0	499
assemble	0	334
way	0	576
instruction	0	396
sander	1	106
see	0	444
assembly	0	190
material	0	93
later	0	400
outer	0	13
wax	0	427
groove	1	338
small	0	480
block	1	620
visible	0	763
drawing	0	762
straight	0	206
countersink	1	195
ring	0	475
pressure	0	777
buffer	0	110
step	0	156
drawer	0	760
plate	0	692
secure	0	700
cloth	1	351
wheel	1	533
blade	1	880
drilling	1	887
onto	0	261
form	0	503
support	0	742
nut	1	710
low	0	9
box	0	350
ensure	0	738
enough	0	617
timber	1	631
depth	0	675
length	0	825
avoid	0	128
mirror	0	191
time	0	422
unsightly	0	219
size	0	35
bracket	0	864
suspension	0	172
second	0	541
roof	0	239
evenly	0	441
carcass	1	104
upper	0	425
achieve	0	398
distribute	0	29
back	0	411
require	0	498
rout	1	142
fine	0	730
procedure	0	402
jigsaw	1	819
connect	0	569
design	0	381
tray	0	63
canopy	0	111
different	0	870
short	0	874
tree	0	769
curve	0	328
along	0	493
area	0	236
point	0	401
attach	0	392
precisely	0	698
align	0	161
fixture	0	433
consist	0	878
flat	0	654
shape	0	609
bolt	1	471
set	0	521
prepare	0	163
cutout	0	538
flush	0	580
inside	0	514
fill	0	624
room	0	794
putty	0	375
unit	0	134
large	0	399
system	0	848
rod	0	325
start	0	862
draw	0	184
metal	1	26
fibre	0	829
wide	0	808
steering	1	212
seating	1	826
need	0	32
wooden	1	695
beam	0	90
marked	0	472
bar	0	270
take	0	465
fitting	1	220
condition	0	885
thick	1	2
outline	0	199
stain	0	744
choose	0	543
perspex	0	228
cover	0	14
compartment	0	278
opening	1	474
recommend	0	645
chamfer	1	369
bottom	0	690
easy	0	448
adjust	0	345
technical	0	167
hang	0	657
task	0	686
varnish	1	828
post	0	573
even	0	734
inner	0	39
end	0	372
partition	1	428
spacer	0	787
brake	0	265
bench	1	230
possible	0	27
safety	0	838
without	0	881
narrow	1	60
note	0	397
properly	1	500
stool	1	550
armchair	0	113
direction	0	486
measure	0	681
necessary	0	37
quick	1	611
turn	0	519
foot	0	873
application	0	578
quickly	0	46
tank	0	277
upholstery	0	303
cross	1	872
fixings	1	43
look	0	678
desk	0	75
console	0	74
hanger	0	662
furniture	0	124
throne	0	378
cylindrical	0	89
treasure	0	457
conical	0	726
imaginative	0	574
barrier	0	79
miniature	0	786
shank	0	42
root	0	148
plastic	0	443
chest	0	52
control	0	296
refer	0	252
mitre	1	405
surround	0	854
connector	1	779
type	0	254
case	0	759
axle	0	175
big	0	545
gable	0	835
slide	0	889
prime	1	694
contour	0	772
process	0	38
exactly	0	73
film	0	830
radius	0	97
remain	0	546
stroke	0	262
deep	0	674
grain	1	68
within	0	429
example	0	512
carefully	0	71
protective	0	840
suitable	0	333
round	0	821
grip	0	729
wear	0	515
describe	0	420
burr	1	720
gun	0	768
slat	1	832
perfect	0	321
coat	0	634
router	1	51
lid	0	352
tape	0	682
know	0	518
right	0	491
smoking	0	189
finally	0	672
treatment	0	684
shaped	0	176
imagination	0	55
square	1	373
find	0	310
completely	0	292
centring	0	442
result	0	301
project	0	516
left	0	608
since	0	581
belt	0	703
compact	0	496
create	0	40
target	0	529
speed	0	240
fabric	0	556
arm	0	613
upwards	0	395
excess	0	258
list	0	579
specialist	0	235
buff	0	757
already	0	183
dust	0	482
transfer	0	215
circular	0	406
downwards	0	767
stop	0	725
shell	0	704
nice	0	205
rim	0	355
thickness	0	116
thread	1	665
copy	0	868
touch	0	483
height	0	663
window	0	748
horizontal	0	687
display	1	766
water	0	366
finish	0	827
simply	0	722
dilute	0	747
next	0	404
underneath	0	151
circle	0	267
equipment	0	751
absorbent	0	243
illustration	0	640
middle	0	194
slightly	0	775
term	0	839
put	0	403
stage	0	764
glass	0	863
get	0	332
rest	0	542
attention	1	80
warm	0	241
ball	0	559
become	0	709
protrude	0	181
working	1	276
vertical	0	103
carriage	0	477
jet	0	391
slot	0	587
available	0	485
lie	0	866
store	0	320
trace	0	510
run	0	3
filler	0	255
let	0	867
therefore	0	409
pay	0	56
goal	0	274
offer	0	831
skip	0	197
prevent	0	453
ideally	0	524
required	0	158
alternative	0	120
generally	0	298
primer	1	851
compass	0	712
thoroughly	0	489
handling	0	150
read	0	70
carpenter	1	8
spruce	0	329
spread	0	894
sharp	1	497
handy	0	418
hard-to-reach	0	642
versatile	0	699
delta	0	289
plinth	0	549
floor	0	795
time-consuming	0	227
scratch	0	286
seal	0	147
suit	0	706
accordance	0	750
cutting	1	677
newspaper	0	505
workability	0	666
home	0	445
slowly	0	697
wipe	0	488
damp	0	387
masonry	0	702
check	0	869
little	0	553
latter	0	468
hard	0	279
flatten	0	22
suspend	0	564
tube	0	223
slip	1	629
beforehand	0	112
teak	0	805
generously	0	30
ideal	0	618
least	0	153
advice	0	311
duct	0	86
arrange	0	339
longitudinal	0	304
house	0	463
multiplex	1	476
birch	0	358
otherwise	0	597
risk	0	652
smooth	0	691
corresponding	1	589
show	0	330
device	0	430
hammer	1	222
rotary	0	100
conceal	0	213
match	0	455
intersect	0	288
hardener	1	783
mix	0	33
adhesive	0	20
plywood	1	809
reach	0	567
correctly	0	87
carry	0	377
lounger	0	614
day	0	461
provide	0	186
coarse	0	565
however	0	711
high	0	792
taper	0	525
rafter	0	346
often	0	326
performance	0	833
detail	0	81
appealing	0	244
accordingly	0	705
tongue	1	133
solid	0	494
setscrew	1	803
pour	0	644
movable	0	539
extract	0	36
change	0	796
effortlessly	0	788
collar	0	886
full	0	216
plunge	0	560
mixture	0	291
save	0	879
practice	0	361
experienced	0	883
sample	0	165
painter	1	4
around	0	126
trickle	0	661
absorb	0	630
various	0	596
price	0	571
strong	0	159
range	0	376
colour	0	793
certain	0	481
robinia	0	208
resistance	0	669
weather	0	526
attachment	0	507
phase	0	251
tear	0	696
complete	0	182
switch	0	841
roller	0	818
damage	0	470
hinge	0	623
ask	0	522
rubber	0	308
disappear	0	649
trolley	0	367
quality	0	154
fence	1	755
layer	0	269
detailed	0	688
link	0	299
pin	1	464
beech	0	495
especially	0	65
rib	0	272
feed	0	84
countertop	0	585
anything	0	667
concrete	0	655
lining	0	632
triangle	0	612
sill	0	804
flow	0	359
test	0	670
nozzle	0	449
overlap	0	771
go-kart	0	849
oak	1	490
exact	0	263
viscosity	0	708
particular	0	637
build	0	732
joist	1	416
handle	0	756
third	0	127
main	0	820
space	0	599
measurement	0	16
aluminium	0	467
burn	0	436
towel	0	170
special	0	626
thus	0	91
symbol	0	77
manufacturer	0	370
reinforcement	0	566
bevel	1	781
spring	0	810
purpose	0	234
ceiling	0	238
essentially	0	360
durability	0	584
tool	1	125
width	0	466
used	0	266
soon	0	18
replace	0	141
half	0	572
substructure	0	149
appear	0	731
pull	0	860
strongly	0	319
right-hand	0	140
lap	0	218
particularly	0	354
important	0	773
minimalist	0	23
split	1	59
due	0	504
adapt	0	639
reason	1	440
repeat	0	72
afterwards	0	237
bowl	0	217
mask	0	348
approximately	0	28
previous	0	123
finely	0	211
pedestal	0	790
increase	0	11
cord	0	452
decorative	0	98
band	0	407
painted	1	209
festive	0	166
trunk	0	285
backing	0	160
outside	0	577
auger	1	173
polish	1	64
brush	1	226
soft	0	606
untidy	0	658
bedside	0	593
whether	0	653
observe	0	210
beginner	0	865
simple	0	502
marking	1	749
alone	0	290
sufficient	0	648
fibreboard	0	118
centrally	0	335
acrylic	0	371
pane	0	7
overall	0	535
ease	0	723
give	0	707
counterpart	0	121
away	0	96
rack	0	638
random	0	511
orbit	0	816
sponge	0	622
distance	0	12
rub	0	300
file	1	188
opt	0	363
polyurethane	1	537
immediately	0	797
securely	0	713
previously	0	628
open	0	61
still	0	554
perform	1	460
smoothly	0	17
common	0	765
shallow	0	69
upright	0	890
never	0	135
left-hand	0	214
outlet	0	679
holder	1	605
basin	0	811
clean	0	105
blind	1	544
knob	0	207
storage	0	673
individual	0	807
hold	0	145
dinner	0	323
glare	0	327
shield	0	34
vertically	0	588
rope	1	719
drive	0	232
directly	0	823
ruler	0	746
cleanly	0	676
globe	0	152
several	0	462
wire	1	798
kitchen	0	57
like	0	456
move	0	49
lower	0	337
sun	0	523
sideboard	1	856
steel	0	575
thin	0	487
unprotected	0	307
easily	0	386
plank	1	774
able	0	745
ladder	1	10
armrest	0	94
natural	0	423
remember	0	185
painting	1	178
mean	0	383
mechanism	0	836
old	0	530
perfectly	0	671
branch	0	528
loft	0	31
bedroom	0	733
fully	0	897
loose	0	817
washstand	0	802
triangular	0	295
accurately	0	364
normally	0	776
determine	0	306
deck	0	122
appropriate	0	664
bunny	0	155
leaf	0	552
difficult	0	842
wash	0	224
normal	0	297
twist	1	761
medium	0	101
piano	0	421
job	0	129
recess	0	517
coffee	0	858
hand	0	877
occasionally	0	114
really	0	76
self-made	0	770
something	0	144
guarantee	0	799
pedal	0	136
everything	0	647
allow	0	752
barely	0	356
notch	0	225
many	0	431
safe	0	668
priming	0	322
amount	0	824
flowerbed	0	408
pass	0	66
double	0	591
gap	0	341
broad	0	394
lateral	0	600
axis	0	590
loop	0	248
designer	0	229
behind	0	316
per	0	157
level	1	268
connection	0	814
spirit	0	693
course	1	737
classic	0	382
rule	0	344
less	0	789
plug	1	179
cosy	0	264
via	0	201
pronounced	0	492
string	0	508
object	0	390
fruit	0	200
retail	0	250
fold	0	95
loosely	0	48
lamp	1	602
one	0	501
practical	0	275
structure	0	193
hook	0	169
pose	0	562
dab	0	800
watch	0	834
method	0	547
contrast	0	451
pen	0	130
rework	0	447
rectangular	0	357
beautiful	0	242
electric	1	888
fairy	0	641
enjoy	0	47
hacksaw	1	473
relevant	0	343
uppermost	0	284
walk-in	0	583
wardrobe	0	847
tacker	1	685
turnbuckle	1	853
swivel	1	253
facing	0	132
pendant	0	843
tighten	1	196
oil	0	137
diagonally	0	19
milky	0	740
single	0	801
hand-held	0	231
picture	0	568
lengthways	0	5
close	0	313
birdhouse	0	882
routing	1	246
introduction	0	62
past	0	715
handrail	1	651
protect	0	117
fluorescent	0	419
blue	0	660
firmly	0	315
ready	0	603
row	0	347
far	0	570
disfigure	1	891
stick	1	50
folding	0	438
decide	0	714
garden	1	309
bulb	0	342
skirt	0	119
bottle	0	813
underlay	1	67
diagonal	0	701
injury	0	353
staple	1	536
shaft	0	478
washer	1	44
combine	0	736
precise	0	434
highly	0	548
lay	0	561
divider	0	459
version	0	540
transverse	0	601
elegant	0	532
laborious	0	177
forget	1	82
lock	1	192
prior	0	257
release	0	53
lounge	0	784
invest	0	636
intermediate	1	317
afraid	0	54
bank	0	735
eye-catcher	0	896
crepe	0	245
additionally	0	558
protection	0	312
raise	0	415
nowadays	0	380
lift	0	368
location	0	506
organiser	0	604
optimum	0	233
option	0	92
undercoat	0	202
confusion	0	393
casual	0	138
writing	0	388
invisible	0	625
dream	0	259
advisable	0	204
robust	0	728
supporting	0	131
element	0	41
motif	0	563
formula	0	850
red	0	331
silicon	0	58
final	0	389
scribe	0	871
unscrew	1	718
span	0	509
slope	0	616
awkward	0	683
gabled	0	895
seamlessly	0	594
lucky	0	659
perpendicular	0	812
enable	0	108
treat	0	25
paintbrush	1	458
penetrate	0	198
accommodate	0	551
push	0	627
padding	0	857
shade	0	164
occasional	0	324
either	0	724
finished	0	527
rate	0	717
towards	0	520
cutter	1	778
refined	0	753
tightly	0	534
simultaneously	0	247
dining	0	469
biscuit	0	610
opposite	0	146
dimension	0	876
great	0	143
universal	1	437
pointed	0	846
screen	0	6
opportunity	0	281
crown	0	273
absolutely	0	721
entrance	0	293
vice	0	180
foam	0	598
atmosphere	0	806
tiger	0	374
accessory	0	680
buy	0	379
earlier	0	287
retailer	0	305
impact	0	815
return	0	454
separately	0	109
upholsterer	1	875
separate	0	531
pole	0	302
worth	0	15
tile	0	260
grid	0	85
pilot	0	780
fleece	0	162
detach	0	187
landing	0	884
diamond	0	555
